Single cycle processor/src/top.vcd
$date
	Tue Jul 27 08:33:29 2021
$end
$version
	Icarus Verilog
$end
$timescale
	1s
$end
$scope module testbench $end
$var wire 32 ! WriteData [31:0] $end
$var wire 1 " MemWrite $end
$var wire 32 # DataAdr [31:0] $end
$var reg 1 $ clk $end
$var reg 1 % reset $end
$scope module dut $end
$var wire 1 $ clk $end
$var wire 1 % reset $end
$var wire 32 & WriteData [31:0] $end
$var wire 32 ' ReadData [31:0] $end
$var wire 32 ( PC [31:0] $end
$var wire 1 " MemWrite $end
$var wire 32 ) Instr [31:0] $end
$var wire 32 * DataAdr [31:0] $end
$scope module arm $end
$var wire 1 $ clk $end
$var wire 1 % reset $end
$var wire 32 + WriteData [31:0] $end
$var wire 1 , ResSrc $end
$var wire 1 - RegWrite $end
$var wire 2 . RegSrc [1:0] $end
$var wire 32 / ReadData [31:0] $end
$var wire 1 0 PCSrc $end
$var wire 32 1 PC [31:0] $end
$var wire 32 2 OPResult [31:0] $end
$var wire 1 3 MemtoReg $end
$var wire 1 " MemWrite $end
$var wire 32 4 Instr [31:0] $end
$var wire 2 5 ImmSrc [1:0] $end
$var wire 4 6 FPUFlags [3:0] $end
$var wire 2 7 FPUControl [1:0] $end
$var wire 1 8 ALUSrc $end
$var wire 4 9 ALUFlags [3:0] $end
$var wire 2 : ALUControl [1:0] $end
$scope module c $end
$var wire 20 ; Instr [31:12] $end
$var wire 1 $ clk $end
$var wire 1 % reset $end
$var wire 1 , ResSrc $end
$var wire 1 - RegWrite $end
$var wire 1 < RegW $end
$var wire 2 = RegSrc [1:0] $end
$var wire 1 0 PCSrc $end
$var wire 1 > PCS $end
$var wire 1 3 MemtoReg $end
$var wire 1 " MemWrite $end
$var wire 1 ? MemW $end
$var wire 2 @ ImmSrc [1:0] $end
$var wire 2 A FlagW [1:0] $end
$var wire 4 B FPUFlags [3:0] $end
$var wire 2 C FPUFlagW [1:0] $end
$var wire 2 D FPUControl [1:0] $end
$var wire 1 8 ALUSrc $end
$var wire 4 E ALUFlags [3:0] $end
$var wire 2 F ALUControl [1:0] $end
$scope module cl $end
$var wire 4 G Cond [3:0] $end
$var wire 2 H FlagWrite [1:0] $end
$var wire 1 " MemWrite $end
$var wire 1 0 PCSrc $end
$var wire 1 - RegWrite $end
$var wire 1 $ clk $end
$var wire 1 % reset $end
$var wire 1 , ResSrc $end
$var wire 1 < RegW $end
$var wire 1 > PCS $end
$var wire 1 ? MemW $end
$var wire 4 I Flagsmux [3:0] $end
$var wire 4 J Flags [3:0] $end
$var wire 2 K FlagWmux [1:0] $end
$var wire 2 L FlagW [1:0] $end
$var wire 4 M FPUFlags [3:0] $end
$var wire 2 N FPUFlagW [1:0] $end
$var wire 1 O CondEx $end
$var wire 4 P ALUFlags [3:0] $end
$scope module cc $end
$var wire 4 Q Cond [3:0] $end
$var wire 4 R Flags [3:0] $end
$var wire 1 S ge $end
$var wire 1 T zero $end
$var wire 1 U overflow $end
$var wire 1 V neg $end
$var wire 1 W carry $end
$var reg 1 O CondEx $end
$upscope $end
$scope module flagreg0 $end
$var wire 1 $ clk $end
$var wire 2 X d [1:0] $end
$var wire 1 Y en $end
$var wire 1 % reset $end
$var reg 2 Z q [1:0] $end
$upscope $end
$scope module flagreg1 $end
$var wire 1 $ clk $end
$var wire 2 [ d [1:0] $end
$var wire 1 \ en $end
$var wire 1 % reset $end
$var reg 2 ] q [1:0] $end
$upscope $end
$scope module muxFlagW $end
$var wire 2 ^ y [1:0] $end
$var wire 1 , s $end
$var wire 2 _ d1 [1:0] $end
$var wire 2 ` d0 [1:0] $end
$upscope $end
$scope module muxFlags $end
$var wire 4 a y [3:0] $end
$var wire 1 , s $end
$var wire 4 b d1 [3:0] $end
$var wire 4 c d0 [3:0] $end
$upscope $end
$upscope $end
$scope module dec $end
$var wire 6 d Funct [5:0] $end
$var wire 2 e Op [1:0] $end
$var wire 1 > PCS $end
$var wire 4 f Rd [3:0] $end
$var wire 1 , ResSrc $end
$var wire 1 < RegW $end
$var wire 2 g RegSrc [1:0] $end
$var wire 1 3 MemtoReg $end
$var wire 1 ? MemW $end
$var wire 2 h ImmSrc [1:0] $end
$var wire 1 i Branch $end
$var wire 1 8 ALUSrc $end
$var wire 1 j ALUOp $end
$var reg 2 k ALUControl [1:0] $end
$var reg 2 l FPUControl [1:0] $end
$var reg 2 m FPUFlagW [1:0] $end
$var reg 2 n FlagW [1:0] $end
$var reg 11 o controls [10:0] $end
$upscope $end
$upscope $end
$scope module dp $end
$var wire 2 p ALUControl [1:0] $end
$var wire 1 8 ALUSrc $end
$var wire 2 q FPUControl [1:0] $end
$var wire 2 r ImmSrc [1:0] $end
$var wire 1 3 MemtoReg $end
$var wire 1 0 PCSrc $end
$var wire 2 s RegSrc [1:0] $end
$var wire 1 - RegWrite $end
$var wire 1 , ResSrc $end
$var wire 1 $ clk $end
$var wire 1 % reset $end
$var wire 32 t WriteData [31:0] $end
$var wire 32 u SrcB [31:0] $end
$var wire 32 v SrcA [31:0] $end
$var wire 32 w Result [31:0] $end
$var wire 32 x ReadData [31:0] $end
$var wire 4 y RA2 [3:0] $end
$var wire 4 z RA1 [3:0] $end
$var wire 32 { PCPlus8 [31:0] $end
$var wire 32 | PCPlus4 [31:0] $end
$var wire 32 } PCNext [31:0] $end
$var wire 32 ~ PC [31:0] $end
$var wire 32 !" OPResult [31:0] $end
$var wire 32 "" Instr [31:0] $end
$var wire 32 #" FPUResult [31:0] $end
$var wire 4 $" FPUFlags [3:0] $end
$var wire 32 %" ExtImm [31:0] $end
$var wire 32 &" ALUResult [31:0] $end
$var wire 4 '" ALUFlags [3:0] $end
$scope module alu $end
$var wire 2 (" ALUControl [1:0] $end
$var wire 1 )" carry $end
$var wire 1 *" overflow $end
$var wire 1 +" zero $end
$var wire 33 ," sum [32:0] $end
$var wire 1 -" neg $end
$var wire 32 ." b [31:0] $end
$var wire 32 /" a [31:0] $end
$var wire 4 0" ALUFlags [3:0] $end
$var reg 32 1" Result [31:0] $end
$upscope $end
$scope module ext $end
$var wire 2 2" ImmSrc [1:0] $end
$var wire 24 3" Instr [23:0] $end
$var reg 32 4" ExtImm [31:0] $end
$upscope $end
$scope module fpu $end
$var wire 2 5" FPUControl [1:0] $end
$var wire 1 6" carry $end
$var wire 1 7" overflow $end
$var wire 1 8" zero $end
$var wire 1 9" neg $end
$var wire 32 :" b [31:0] $end
$var wire 32 ;" a [31:0] $end
$var wire 4 <" FPUFlags [3:0] $end
$var reg 32 =" Result [31:0] $end
$var reg 32 >" aux [31:0] $end
$var reg 48 ?" aux2 [47:0] $end
$var reg 2 @" control [1:0] $end
$var reg 32 A" expoA [31:0] $end
$var reg 32 B" expoB [31:0] $end
$var reg 32 C" expoR [31:0] $end
$var reg 32 D" mantA [31:0] $end
$var reg 32 E" mantAshift [31:0] $end
$var reg 32 F" mantB [31:0] $end
$var reg 32 G" mantBshift [31:0] $end
$var reg 32 H" mantR [31:0] $end
$var reg 48 I" productoPosible [47:0] $end
$var reg 1 J" signA $end
$var reg 1 K" signB $end
$var reg 1 L" signR $end
$var reg 1 M" sumaResta $end
$upscope $end
$scope module pcadd1 $end
$var wire 32 N" b [31:0] $end
$var wire 32 O" y [31:0] $end
$var wire 32 P" a [31:0] $end
$upscope $end
$scope module pcadd2 $end
$var wire 32 Q" a [31:0] $end
$var wire 32 R" b [31:0] $end
$var wire 32 S" y [31:0] $end
$upscope $end
$scope module pcmux $end
$var wire 32 T" d0 [31:0] $end
$var wire 1 0 s $end
$var wire 32 U" y [31:0] $end
$var wire 32 V" d1 [31:0] $end
$upscope $end
$scope module pcreg $end
$var wire 1 $ clk $end
$var wire 32 W" d [31:0] $end
$var wire 1 % reset $end
$var reg 32 X" q [31:0] $end
$upscope $end
$scope module ra1mux $end
$var wire 4 Y" d0 [3:0] $end
$var wire 4 Z" d1 [3:0] $end
$var wire 1 [" s $end
$var wire 4 \" y [3:0] $end
$upscope $end
$scope module ra2mux $end
$var wire 4 ]" d0 [3:0] $end
$var wire 4 ^" d1 [3:0] $end
$var wire 1 _" s $end
$var wire 4 `" y [3:0] $end
$upscope $end
$scope module resSrcmux $end
$var wire 32 a" d0 [31:0] $end
$var wire 32 b" d1 [31:0] $end
$var wire 1 , s $end
$var wire 32 c" y [31:0] $end
$upscope $end
$scope module resmux $end
$var wire 32 d" d0 [31:0] $end
$var wire 1 3 s $end
$var wire 32 e" y [31:0] $end
$var wire 32 f" d1 [31:0] $end
$upscope $end
$scope module rf $end
$var wire 1 $ clk $end
$var wire 32 g" r15 [31:0] $end
$var wire 4 h" ra1 [3:0] $end
$var wire 4 i" ra2 [3:0] $end
$var wire 4 j" wa3 [3:0] $end
$var wire 32 k" wd3 [31:0] $end
$var wire 1 - we3 $end
$var wire 32 l" rd2 [31:0] $end
$var wire 32 m" rd1 [31:0] $end
$upscope $end
$scope module srcbmux $end
$var wire 32 n" d0 [31:0] $end
$var wire 32 o" d1 [31:0] $end
$var wire 1 8 s $end
$var wire 32 p" y [31:0] $end
$upscope $end
$upscope $end
$upscope $end
$scope module dmem $end
$var wire 32 q" a [31:0] $end
$var wire 1 $ clk $end
$var wire 32 r" rd [31:0] $end
$var wire 32 s" wd [31:0] $end
$var wire 1 " we $end
$upscope $end
$scope module imem $end
$var wire 32 t" a [31:0] $end
$var wire 32 u" rd [31:0] $end
$upscope $end
$upscope $end
$upscope $end
$enddefinitions $end
#0
$dumpvars
b11100000010011110001000000001111 u"
b0 t"
b1000 s"
bx r"
b0 q"
b1000 p"
b1111 o"
b1000 n"
b1000 m"
b1000 l"
b0 k"
b1 j"
b1111 i"
b1111 h"
b1000 g"
bx f"
b0 e"
b0 d"
b0 c"
b10000001000 b"
b0 a"
b1111 `"
0_"
b1 ^"
b1111 ]"
b1111 \"
0["
b1111 Z"
b1111 Y"
b0 X"
b100 W"
b0 V"
b100 U"
b100 T"
b1000 S"
b100 R"
b100 Q"
b0 P"
b100 O"
b100 N"
0M"
0L"
0K"
0J"
bx I"
b1000 H"
bx G"
b10000001000 F"
bx E"
b10000001000 D"
b1 C"
b0 B"
b0 A"
b0 @"
bx ?"
bx >"
b10000001000 ="
b0 <"
b1000 ;"
b1000 :"
09"
08"
07"
06"
b0 5"
b1111 4"
b10011110001000000001111 3"
b0 2"
b0 1"
b100 0"
b1000 /"
b1000 ."
0-"
b0 ,"
1+"
0*"
0)"
b1 ("
b100 '"
b0 &"
b1111 %"
b0 $"
b10000001000 #"
b11100000010011110001000000001111 ""
b0 !"
b0 ~
b100 }
b100 |
b1000 {
b1111 z
b1111 y
bx x
b0 w
b1000 v
b1000 u
b1000 t
b0 s
b0 r
b0 q
b1 p
b10010 o
b0 n
b0 m
b0 l
b1 k
1j
0i
b0 h
b0 g
b1 f
b0 e
b100 d
b100 c
b0 b
b100 a
b0 `
b0 _
b0 ^
b0 ]
0\
b1 [
b0 Z
0Y
b0 X
0W
0V
0U
0T
1S
b0 R
b1110 Q
b100 P
1O
b0 N
b0 M
b0 L
b0 K
b0 J
b100 I
b0 H
b1110 G
b1 F
b100 E
b0 D
b0 C
b0 B
b0 A
b0 @
0?
0>
b0 =
1<
b11100000010011110001 ;
b1 :
b100 9
08
b0 7
b0 6
b0 5
b11100000010011110001000000001111 4
03
b0 2
b0 1
00
bx /
b0 .
1-
0,
b1000 +
b0 *
b11100000010011110001000000001111 )
b0 (
bx '
b1000 &
1%
1$
b0 #
0"
b1000 !
$end
#5
0$
#10
1$
#15
0$
#20
1$
#22
0%
#25
0$
#30
0*"
b0 X
0)"
0-"
18
b0 :
b0 F
b0 k
b0 p
b0 ("
b1010010 o
b0 [
b11111111 w
b11111111 V"
b11111111 e"
b11111111 k"
b11111111 %"
b11111111 4"
b11111111 o"
b1 z
b1 \"
b1 h"
b101000 d
b10 f
b0 I
b0 a
b11111111 #
b11111111 *
b11111111 2
b11111111 !"
b11111111 c"
b11111111 d"
b11111111 q"
b100000010010000011111111 3"
b10 j"
b10 ^"
b1 Y"
b11100010100000010010 ;
b0 9
b0 E
b0 P
b0 c
b0 '"
b0 0"
0+"
b11111111 &"
b11111111 1"
b11111111 a"
b11111111 #"
b11111111 ="
b11111111 b"
b10011111111 H"
b0 C"
b10011111111 F"
b10000000000 D"
b11111111 u
b11111111 ."
b11111111 :"
b11111111 p"
b11100010100000010010000011111111 )
b11100010100000010010000011111111 4
b11100010100000010010000011111111 ""
b11100010100000010010000011111111 u"
b11111111 ,"
b0 v
b0 /"
b0 ;"
b0 m"
b1100 !
b1100 &
b1100 +
b1100 t
b1100 l"
b1100 n"
b1100 s"
b1000 }
b1000 U"
b1000 W"
b1100 {
b1100 S"
b1100 g"
b1000 |
b1000 O"
b1000 Q"
b1000 T"
b100 (
b100 1
b100 ~
b100 P"
b100 X"
b100 t"
1$
#35
0$
#40
b100000000 w
b100000000 V"
b100000000 e"
b100000000 k"
b100000000 #
b100000000 *
b100000000 2
b100000000 !"
b100000000 c"
b100000000 d"
b100000000 q"
b100000000 &"
b100000000 1"
b100000000 a"
b10010000000 #"
b10010000000 ="
b10010000000 b"
b1 C"
b10000000 H"
b10000000001 F"
b10011111111 D"
b1 u
b1 ."
b1 :"
b1 p"
b100000000 ,"
b11111111 v
b11111111 /"
b11111111 ;"
b11111111 m"
b1 %"
b1 4"
b1 o"
b1 y
b1 `"
b1 i"
b10 z
b10 \"
b10 h"
b100000100010000000000001 3"
b1 ]"
b10 Y"
b11100010100000100010 ;
b11100010100000100010000000000001 )
b11100010100000100010000000000001 4
b11100010100000100010000000000001 ""
b11100010100000100010000000000001 u"
b0 !
b0 &
b0 +
b0 t
b0 l"
b0 n"
b0 s"
b1100 }
b1100 U"
b1100 W"
b10000 {
b10000 S"
b10000 g"
b1100 |
b1100 O"
b1100 Q"
b1100 T"
b1000 (
b1000 1
b1000 ~
b1000 P"
b1000 X"
b1000 t"
1$
#45
0$
#50
b10100000000 #"
b10100000000 ="
b10100000000 b"
b10100000000 F"
08
b100000000 u
b100000000 ."
b100000000 :"
b100000000 p"
b100000000 !
b100000000 &
b100000000 +
b100000000 t
b100000000 l"
b100000000 n"
b100000000 s"
b10010 o
b1000000000 w
b1000000000 V"
b1000000000 e"
b1000000000 k"
b10 %"
b10 4"
b10 o"
b10 y
b10 `"
b10 i"
b1000 d
b1000000000 #
b1000000000 *
b1000000000 2
b1000000000 !"
b1000000000 c"
b1000000000 d"
b1000000000 q"
b100000100010000000000010 3"
b10 ]"
b11100000100000100010 ;
b1000000000 &"
b1000000000 1"
b1000000000 a"
b100000000 H"
b1 C"
b10100000000 D"
b11100000100000100010000000000010 )
b11100000100000100010000000000010 4
b11100000100000100010000000000010 ""
b11100000100000100010000000000010 u"
b10000 }
b10000 U"
b10000 W"
b1000000000 ,"
b100000000 v
b100000000 /"
b100000000 ;"
b100000000 m"
b10100 {
b10100 S"
b10100 g"
b10000 |
b10000 O"
b10000 Q"
b10000 T"
b1100 (
b1100 1
b1100 ~
b1100 P"
b1100 X"
b1100 t"
1$
#55
0$
#60
b10000000000 w
b10000000000 V"
b10000000000 e"
b10000000000 k"
b10000000000 #
b10000000000 *
b10000000000 2
b10000000000 !"
b10000000000 c"
b10000000000 d"
b10000000000 q"
b10000000000 &"
b10000000000 1"
b10000000000 a"
b11000000000 #"
b11000000000 ="
b11000000000 b"
b1000000000 H"
b1 C"
b11000000000 F"
b11000000000 D"
b1000000000 u
b1000000000 ."
b1000000000 :"
b1000000000 p"
b10100 }
b10100 U"
b10100 W"
b10000000000 ,"
b1000000000 v
b1000000000 /"
b1000000000 ;"
b1000000000 m"
b1000000000 !
b1000000000 &
b1000000000 +
b1000000000 t
b1000000000 l"
b1000000000 n"
b1000000000 s"
b11000 {
b11000 S"
b11000 g"
b10100 |
b10100 O"
b10100 Q"
b10100 T"
b10000 (
b10000 1
b10000 ~
b10000 P"
b10000 X"
b10000 t"
1$
#65
0$
#70
b100000000000 w
b100000000000 V"
b100000000000 e"
b100000000000 k"
b100000000000 #
b100000000000 *
b100000000000 2
b100000000000 !"
b100000000000 c"
b100000000000 d"
b100000000000 q"
b100000000000 &"
b100000000000 1"
b100000000000 a"
b100000000000 #"
b100000000000 ="
b100000000000 b"
b10 C"
b0 H"
b10000000000 F"
b10000000000 D"
b1 B"
b1 A"
b10000000000 u
b10000000000 ."
b10000000000 :"
b10000000000 p"
b11000 }
b11000 U"
b11000 W"
b100000000000 ,"
b10000000000 v
b10000000000 /"
b10000000000 ;"
b10000000000 m"
b10000000000 !
b10000000000 &
b10000000000 +
b10000000000 t
b10000000000 l"
b10000000000 n"
b10000000000 s"
b11100 {
b11100 S"
b11100 g"
b11000 |
b11000 O"
b11000 Q"
b11000 T"
b10100 (
b10100 1
b10100 ~
b10100 P"
b10100 X"
b10100 t"
1$
#75
0$
#80
b1000000000000 w
b1000000000000 V"
b1000000000000 e"
b1000000000000 k"
b1000000000000 #
b1000000000000 *
b1000000000000 2
b1000000000000 !"
b1000000000000 c"
b1000000000000 d"
b1000000000000 q"
b1000000000000 &"
b1000000000000 1"
b1000000000000 a"
b110000000000 #"
b110000000000 ="
b110000000000 b"
b11 C"
b0 H"
b10 B"
b10 A"
b100000000000 u
b100000000000 ."
b100000000000 :"
b100000000000 p"
b11100 }
b11100 U"
b11100 W"
b1000000000000 ,"
b100000000000 v
b100000000000 /"
b100000000000 ;"
b100000000000 m"
b100000000000 !
b100000000000 &
b100000000000 +
b100000000000 t
b100000000000 l"
b100000000000 n"
b100000000000 s"
b100000 {
b100000 S"
b100000 g"
b11100 |
b11100 O"
b11100 Q"
b11100 T"
b11000 (
b11000 1
b11000 ~
b11000 P"
b11000 X"
b11000 t"
1$
#85
0$
#90
b10000000000000 w
b10000000000000 V"
b10000000000000 e"
b10000000000000 k"
b10000000000000 #
b10000000000000 *
b10000000000000 2
b10000000000000 !"
b10000000000000 c"
b10000000000000 d"
b10000000000000 q"
b10000000000000 &"
b10000000000000 1"
b10000000000000 a"
b1010000000000 #"
b1010000000000 ="
b1010000000000 b"
b0 H"
b101 C"
b100 B"
b100 A"
b1000000000000 u
b1000000000000 ."
b1000000000000 :"
b1000000000000 p"
b100000 }
b100000 U"
b100000 W"
b10000000000000 ,"
b1000000000000 v
b1000000000000 /"
b1000000000000 ;"
b1000000000000 m"
b1000000000000 !
b1000000000000 &
b1000000000000 +
b1000000000000 t
b1000000000000 l"
b1000000000000 n"
b1000000000000 s"
b100100 {
b100100 S"
b100100 g"
b100000 |
b100000 O"
b100000 Q"
b100000 T"
b11100 (
b11100 1
b11100 ~
b11100 P"
b11100 X"
b11100 t"
1$
#95
0$
#100
b100000000000000 w
b100000000000000 V"
b100000000000000 e"
b100000000000000 k"
b100000000000000 #
b100000000000000 *
b100000000000000 2
b100000000000000 !"
b100000000000000 c"
b100000000000000 d"
b100000000000000 q"
b100000000000000 &"
b100000000000000 1"
b100000000000000 a"
b10010000000000 #"
b10010000000000 ="
b10010000000000 b"
b0 H"
b1001 C"
b1000 B"
b1000 A"
b10000000000000 u
b10000000000000 ."
b10000000000000 :"
b10000000000000 p"
b100100 }
b100100 U"
b100100 W"
b100000000000000 ,"
b10000000000000 v
b10000000000000 /"
b10000000000000 ;"
b10000000000000 m"
b10000000000000 !
b10000000000000 &
b10000000000000 +
b10000000000000 t
b10000000000000 l"
b10000000000000 n"
b10000000000000 s"
b101000 {
b101000 S"
b101000 g"
b100100 |
b100100 O"
b100100 Q"
b100100 T"
b100000 (
b100000 1
b100000 ~
b100000 P"
b100000 X"
b100000 t"
1$
#105
0$
#110
b1000000000000000 w
b1000000000000000 V"
b1000000000000000 e"
b1000000000000000 k"
b1000000000000000 #
b1000000000000000 *
b1000000000000000 2
b1000000000000000 !"
b1000000000000000 c"
b1000000000000000 d"
b1000000000000000 q"
b1000000000000000 &"
b1000000000000000 1"
b1000000000000000 a"
b100010000000000 #"
b100010000000000 ="
b100010000000000 b"
b0 H"
b10001 C"
b10000 B"
b10000 A"
b100000000000000 u
b100000000000000 ."
b100000000000000 :"
b100000000000000 p"
b101000 }
b101000 U"
b101000 W"
b1000000000000000 ,"
b100000000000000 v
b100000000000000 /"
b100000000000000 ;"
b100000000000000 m"
b100000000000000 !
b100000000000000 &
b100000000000000 +
b100000000000000 t
b100000000000000 l"
b100000000000000 n"
b100000000000000 s"
b101100 {
b101100 S"
b101100 g"
b101000 |
b101000 O"
b101000 Q"
b101000 T"
b100100 (
b100100 1
b100100 ~
b100100 P"
b100100 X"
b100100 t"
1$
#115
0$
#120
b10000000000000000 w
b10000000000000000 V"
b10000000000000000 e"
b10000000000000000 k"
b1000 6
b1000 B
b1000 M
b1000 b
b1000 $"
b1000 <"
19"
b10000000000000000 #
b10000000000000000 *
b10000000000000000 2
b10000000000000000 !"
b10000000000000000 c"
b10000000000000000 d"
b10000000000000000 q"
b10000000000000000 &"
b10000000000000000 1"
b10000000000000000 a"
b1000010000000000 #"
b1000010000000000 ="
b1000010000000000 b"
1L"
b0 H"
b1 C"
b0 B"
b0 A"
1K"
1J"
b1000000000000000 u
b1000000000000000 ."
b1000000000000000 :"
b1000000000000000 p"
b101100 }
b101100 U"
b101100 W"
b10000000000000000 ,"
b1000000000000000 v
b1000000000000000 /"
b1000000000000000 ;"
b1000000000000000 m"
b1000000000000000 !
b1000000000000000 &
b1000000000000000 +
b1000000000000000 t
b1000000000000000 l"
b1000000000000000 n"
b1000000000000000 s"
b110000 {
b110000 S"
b110000 g"
b101100 |
b101100 O"
b101100 Q"
b101100 T"
b101000 (
b101000 1
b101000 ~
b101000 P"
b101000 X"
b101000 t"
1$
#125
0$
#130
b100000000000000000 w
b100000000000000000 V"
b100000000000000000 e"
b100000000000000000 k"
b0 6
b0 B
b0 M
b0 b
b0 $"
b0 <"
09"
b100000000000000000 #
b100000000000000000 *
b100000000000000000 2
b100000000000000000 !"
b100000000000000000 c"
b100000000000000000 d"
b100000000000000000 q"
b100000000000000000 &"
b100000000000000000 1"
b100000000000000000 a"
b10000000000 #"
b10000000000 ="
b10000000000 b"
0L"
b0 H"
b1 C"
0K"
0J"
b10000000000000000 u
b10000000000000000 ."
b10000000000000000 :"
b10000000000000000 p"
b110000 }
b110000 U"
b110000 W"
b100000000000000000 ,"
b10000000000000000 v
b10000000000000000 /"
b10000000000000000 ;"
b10000000000000000 m"
b10000000000000000 !
b10000000000000000 &
b10000000000000000 +
b10000000000000000 t
b10000000000000000 l"
b10000000000000000 n"
b10000000000000000 s"
b110100 {
b110100 S"
b110100 g"
b110000 |
b110000 O"
b110000 Q"
b110000 T"
b101100 (
b101100 1
b101100 ~
b101100 P"
b101100 X"
b101100 t"
1$
#135
0$
#140
b1000000000000000000 w
b1000000000000000000 V"
b1000000000000000000 e"
b1000000000000000000 k"
b1000000000000000000 #
b1000000000000000000 *
b1000000000000000000 2
b1000000000000000000 !"
b1000000000000000000 c"
b1000000000000000000 d"
b1000000000000000000 q"
b1000000000000000000 &"
b1000000000000000000 1"
b1000000000000000000 a"
b0 H"
b1 C"
b100000000000000000 u
b100000000000000000 ."
b100000000000000000 :"
b100000000000000000 p"
b110100 }
b110100 U"
b110100 W"
b1000000000000000000 ,"
b100000000000000000 v
b100000000000000000 /"
b100000000000000000 ;"
b100000000000000000 m"
b100000000000000000 !
b100000000000000000 &
b100000000000000000 +
b100000000000000000 t
b100000000000000000 l"
b100000000000000000 n"
b100000000000000000 s"
b111000 {
b111000 S"
b111000 g"
b110100 |
b110100 O"
b110100 Q"
b110100 T"
b110000 (
b110000 1
b110000 ~
b110000 P"
b110000 X"
b110000 t"
1$
#145
0$
#150
b10000000000000000000 w
b10000000000000000000 V"
b10000000000000000000 e"
b10000000000000000000 k"
b10000000000000000000 #
b10000000000000000000 *
b10000000000000000000 2
b10000000000000000000 !"
b10000000000000000000 c"
b10000000000000000000 d"
b10000000000000000000 q"
b10000000000000000000 &"
b10000000000000000000 1"
b10000000000000000000 a"
b0 H"
b1 C"
b1000000000000000000 u
b1000000000000000000 ."
b1000000000000000000 :"
b1000000000000000000 p"
b111000 }
b111000 U"
b111000 W"
b10000000000000000000 ,"
b1000000000000000000 v
b1000000000000000000 /"
b1000000000000000000 ;"
b1000000000000000000 m"
b1000000000000000000 !
b1000000000000000000 &
b1000000000000000000 +
b1000000000000000000 t
b1000000000000000000 l"
b1000000000000000000 n"
b1000000000000000000 s"
b111100 {
b111100 S"
b111100 g"
b111000 |
b111000 O"
b111000 Q"
b111000 T"
b110100 (
b110100 1
b110100 ~
b110100 P"
b110100 X"
b110100 t"
1$
#155
0$
#160
b100000000000000000000 w
b100000000000000000000 V"
b100000000000000000000 e"
b100000000000000000000 k"
b100000000000000000000 #
b100000000000000000000 *
b100000000000000000000 2
b100000000000000000000 !"
b100000000000000000000 c"
b100000000000000000000 d"
b100000000000000000000 q"
b100000000000000000000 &"
b100000000000000000000 1"
b100000000000000000000 a"
b0 H"
b1 C"
b10000000000000000000 u
b10000000000000000000 ."
b10000000000000000000 :"
b10000000000000000000 p"
b111100 }
b111100 U"
b111100 W"
b100000000000000000000 ,"
b10000000000000000000 v
b10000000000000000000 /"
b10000000000000000000 ;"
b10000000000000000000 m"
b10000000000000000000 !
b10000000000000000000 &
b10000000000000000000 +
b10000000000000000000 t
b10000000000000000000 l"
b10000000000000000000 n"
b10000000000000000000 s"
b1000000 {
b1000000 S"
b1000000 g"
b111100 |
b111100 O"
b111100 Q"
b111100 T"
b111000 (
b111000 1
b111000 ~
b111000 P"
b111000 X"
b111000 t"
1$
#165
0$
#170
b1000000000000000000000 w
b1000000000000000000000 V"
b1000000000000000000000 e"
b1000000000000000000000 k"
b1000000000000000000000 #
b1000000000000000000000 *
b1000000000000000000000 2
b1000000000000000000000 !"
b1000000000000000000000 c"
b1000000000000000000000 d"
b1000000000000000000000 q"
b1000000000000000000000 &"
b1000000000000000000000 1"
b1000000000000000000000 a"
b0 H"
b1 C"
b100000000000000000000 u
b100000000000000000000 ."
b100000000000000000000 :"
b100000000000000000000 p"
b1000000 }
b1000000 U"
b1000000 W"
b1000000000000000000000 ,"
b100000000000000000000 v
b100000000000000000000 /"
b100000000000000000000 ;"
b100000000000000000000 m"
b100000000000000000000 !
b100000000000000000000 &
b100000000000000000000 +
b100000000000000000000 t
b100000000000000000000 l"
b100000000000000000000 n"
b100000000000000000000 s"
b1000100 {
b1000100 S"
b1000100 g"
b1000000 |
b1000000 O"
b1000000 Q"
b1000000 T"
b111100 (
b111100 1
b111100 ~
b111100 P"
b111100 X"
b111100 t"
1$
#175
0$
#180
b10000000000000000000000 w
b10000000000000000000000 V"
b10000000000000000000000 e"
b10000000000000000000000 k"
b10000000000000000000000 #
b10000000000000000000000 *
b10000000000000000000000 2
b10000000000000000000000 !"
b10000000000000000000000 c"
b10000000000000000000000 d"
b10000000000000000000000 q"
b10000000000000000000000 &"
b10000000000000000000000 1"
b10000000000000000000000 a"
b0 H"
b1 C"
b1000000000000000000000 u
b1000000000000000000000 ."
b1000000000000000000000 :"
b1000000000000000000000 p"
b1000100 }
b1000100 U"
b1000100 W"
b10000000000000000000000 ,"
b1000000000000000000000 v
b1000000000000000000000 /"
b1000000000000000000000 ;"
b1000000000000000000000 m"
b1000000000000000000000 !
b1000000000000000000000 &
b1000000000000000000000 +
b1000000000000000000000 t
b1000000000000000000000 l"
b1000000000000000000000 n"
b1000000000000000000000 s"
b1001000 {
b1001000 S"
b1001000 g"
b1000100 |
b1000100 O"
b1000100 Q"
b1000100 T"
b1000000 (
b1000000 1
b1000000 ~
b1000000 P"
b1000000 X"
b1000000 t"
1$
#185
0$
#190
b100000000000000000000000 w
b100000000000000000000000 V"
b100000000000000000000000 e"
b100000000000000000000000 k"
b100000000000000000000000 #
b100000000000000000000000 *
b100000000000000000000000 2
b100000000000000000000000 !"
b100000000000000000000000 c"
b100000000000000000000000 d"
b100000000000000000000000 q"
b100000000000000000000000 &"
b100000000000000000000000 1"
b100000000000000000000000 a"
b0 H"
b1 C"
b10000000000000000000000 u
b10000000000000000000000 ."
b10000000000000000000000 :"
b10000000000000000000000 p"
b1001000 }
b1001000 U"
b1001000 W"
b100000000000000000000000 ,"
b10000000000000000000000 v
b10000000000000000000000 /"
b10000000000000000000000 ;"
b10000000000000000000000 m"
b10000000000000000000000 !
b10000000000000000000000 &
b10000000000000000000000 +
b10000000000000000000000 t
b10000000000000000000000 l"
b10000000000000000000000 n"
b10000000000000000000000 s"
b1001100 {
b1001100 S"
b1001100 g"
b1001000 |
b1001000 O"
b1001000 Q"
b1001000 T"
b1000100 (
b1000100 1
b1000100 ~
b1000100 P"
b1000100 X"
b1000100 t"
1$
#195
0$
#200
b1000000000000000000000000 w
b1000000000000000000000000 V"
b1000000000000000000000000 e"
b1000000000000000000000000 k"
b1000000000000000000000000 #
b1000000000000000000000000 *
b1000000000000000000000000 2
b1000000000000000000000000 !"
b1000000000000000000000000 c"
b1000000000000000000000000 d"
b1000000000000000000000000 q"
b1000000000000000000000000 &"
b1000000000000000000000000 1"
b1000000000000000000000000 a"
b0 H"
b1 C"
b100000000000000000000000 u
b100000000000000000000000 ."
b100000000000000000000000 :"
b100000000000000000000000 p"
b1001100 }
b1001100 U"
b1001100 W"
b1000000000000000000000000 ,"
b100000000000000000000000 v
b100000000000000000000000 /"
b100000000000000000000000 ;"
b100000000000000000000000 m"
b100000000000000000000000 !
b100000000000000000000000 &
b100000000000000000000000 +
b100000000000000000000000 t
b100000000000000000000000 l"
b100000000000000000000000 n"
b100000000000000000000000 s"
b1010000 {
b1010000 S"
b1010000 g"
b1001100 |
b1001100 O"
b1001100 Q"
b1001100 T"
b1001000 (
b1001000 1
b1001000 ~
b1001000 P"
b1001000 X"
b1001000 t"
1$
#205
0$
