Single cycle processor/src/top.vcd
$date
	Tue Jul 27 22:16:01 2021
$end
$version
	Icarus Verilog
$end
$timescale
	1s
$end
$scope module testbench $end
$var wire 32 ! WriteData [31:0] $end
$var wire 1 " MemWrite $end
$var wire 32 # DataAdr [31:0] $end
$var reg 32 $ checks [31:0] $end
$var reg 1 % clk $end
$var reg 32 & errors [31:0] $end
$var reg 1 ' reset $end
$scope module dut $end
$var wire 1 % clk $end
$var wire 1 ' reset $end
$var wire 32 ( WriteData [31:0] $end
$var wire 32 ) ReadData [31:0] $end
$var wire 32 * PC [31:0] $end
$var wire 1 " MemWrite $end
$var wire 32 + Instr [31:0] $end
$var wire 32 , DataAdr [31:0] $end
$scope module arm $end
$var wire 1 % clk $end
$var wire 1 ' reset $end
$var wire 32 - WriteData [31:0] $end
$var wire 1 . ResSrc $end
$var wire 1 / RegWrite $end
$var wire 2 0 RegSrc [1:0] $end
$var wire 32 1 ReadData [31:0] $end
$var wire 1 2 PCSrc $end
$var wire 32 3 PC [31:0] $end
$var wire 32 4 OPResult [31:0] $end
$var wire 1 5 MulWrite $end
$var wire 1 6 MemtoReg $end
$var wire 1 " MemWrite $end
$var wire 32 7 Instr [31:0] $end
$var wire 2 8 ImmSrc [1:0] $end
$var wire 4 9 FPUFlags [3:0] $end
$var wire 2 : FPUControl [1:0] $end
$var wire 1 ; ALUSrc $end
$var wire 4 < ALUFlags [3:0] $end
$var wire 3 = ALUControl [2:0] $end
$scope module c $end
$var wire 20 > Instr [31:12] $end
$var wire 4 ? MulOp [3:0] $end
$var wire 1 % clk $end
$var wire 1 ' reset $end
$var wire 1 . ResSrc $end
$var wire 1 / RegWrite $end
$var wire 1 @ RegW $end
$var wire 2 A RegSrc [1:0] $end
$var wire 1 2 PCSrc $end
$var wire 1 B PCS $end
$var wire 1 5 MulWrite $end
$var wire 1 6 MemtoReg $end
$var wire 1 " MemWrite $end
$var wire 1 C MemW $end
$var wire 2 D ImmSrc [1:0] $end
$var wire 2 E FlagW [1:0] $end
$var wire 4 F FPUFlags [3:0] $end
$var wire 2 G FPUFlagW [1:0] $end
$var wire 2 H FPUControl [1:0] $end
$var wire 1 ; ALUSrc $end
$var wire 4 I ALUFlags [3:0] $end
$var wire 3 J ALUControl [2:0] $end
$scope module cl $end
$var wire 4 K Cond [3:0] $end
$var wire 2 L FlagWrite [1:0] $end
$var wire 1 " MemWrite $end
$var wire 1 2 PCSrc $end
$var wire 1 / RegWrite $end
$var wire 1 % clk $end
$var wire 1 ' reset $end
$var wire 1 . ResSrc $end
$var wire 1 @ RegW $end
$var wire 1 B PCS $end
$var wire 1 C MemW $end
$var wire 4 M Flagsmux [3:0] $end
$var wire 4 N Flags [3:0] $end
$var wire 2 O FlagWmux [1:0] $end
$var wire 2 P FlagW [1:0] $end
$var wire 4 Q FPUFlags [3:0] $end
$var wire 2 R FPUFlagW [1:0] $end
$var wire 1 S CondEx $end
$var wire 4 T ALUFlags [3:0] $end
$scope module cc $end
$var wire 4 U Cond [3:0] $end
$var wire 4 V Flags [3:0] $end
$var wire 1 W ge $end
$var wire 1 X zero $end
$var wire 1 Y overflow $end
$var wire 1 Z neg $end
$var wire 1 [ carry $end
$var reg 1 S CondEx $end
$upscope $end
$scope module flagreg0 $end
$var wire 1 % clk $end
$var wire 2 \ d [1:0] $end
$var wire 1 ] en $end
$var wire 1 ' reset $end
$var reg 2 ^ q [1:0] $end
$upscope $end
$scope module flagreg1 $end
$var wire 1 % clk $end
$var wire 2 _ d [1:0] $end
$var wire 1 ` en $end
$var wire 1 ' reset $end
$var reg 2 a q [1:0] $end
$upscope $end
$scope module muxFlagW $end
$var wire 2 b y [1:0] $end
$var wire 1 . s $end
$var wire 2 c d1 [1:0] $end
$var wire 2 d d0 [1:0] $end
$upscope $end
$scope module muxFlags $end
$var wire 4 e y [3:0] $end
$var wire 1 . s $end
$var wire 4 f d1 [3:0] $end
$var wire 4 g d0 [3:0] $end
$upscope $end
$upscope $end
$scope module dec $end
$var wire 6 h Funct [5:0] $end
$var wire 4 i MulOp [3:0] $end
$var wire 2 j Op [1:0] $end
$var wire 1 B PCS $end
$var wire 4 k Rd [3:0] $end
$var wire 1 . ResSrc $end
$var wire 1 @ RegW $end
$var wire 2 l RegSrc [1:0] $end
$var wire 1 6 MemtoReg $end
$var wire 1 C MemW $end
$var wire 2 m ImmSrc [1:0] $end
$var wire 1 n Branch $end
$var wire 1 ; ALUSrc $end
$var wire 1 o ALUOp $end
$var reg 3 p ALUControl [2:0] $end
$var reg 2 q FPUControl [1:0] $end
$var reg 2 r FPUFlagW [1:0] $end
$var reg 2 s FlagW [1:0] $end
$var reg 1 5 MulWrite $end
$var reg 11 t controls [10:0] $end
$upscope $end
$upscope $end
$scope module dp $end
$var wire 3 u ALUControl [2:0] $end
$var wire 1 ; ALUSrc $end
$var wire 2 v FPUControl [1:0] $end
$var wire 2 w ImmSrc [1:0] $end
$var wire 1 6 MemtoReg $end
$var wire 1 5 MulWrite $end
$var wire 1 2 PCSrc $end
$var wire 2 x RegSrc [1:0] $end
$var wire 1 / RegWrite $end
$var wire 1 . ResSrc $end
$var wire 1 % clk $end
$var wire 1 ' reset $end
$var wire 32 y WriteData [31:0] $end
$var wire 32 z SrcB [31:0] $end
$var wire 32 { SrcA [31:0] $end
$var wire 32 | Result [31:0] $end
$var wire 32 } ReadData [31:0] $end
$var wire 4 ~ RA2 [3:0] $end
$var wire 4 !" RA1 [3:0] $end
$var wire 32 "" PCPlus8 [31:0] $end
$var wire 32 #" PCPlus4 [31:0] $end
$var wire 32 $" PCNext [31:0] $end
$var wire 32 %" PC [31:0] $end
$var wire 32 &" OPResult [31:0] $end
$var wire 32 '" Instr [31:0] $end
$var wire 32 (" FPUResult [31:0] $end
$var wire 4 )" FPUFlags [3:0] $end
$var wire 32 *" ExtImm [31:0] $end
$var wire 32 +" ALUResult2 [31:0] $end
$var wire 32 ," ALUResult1 [31:0] $end
$var wire 4 -" ALUFlags [3:0] $end
$scope module alu $end
$var wire 3 ." ALUControl [2:0] $end
$var wire 1 /" carry $end
$var wire 1 0" overflow $end
$var wire 32 1" signed_a [31:0] $end
$var wire 32 2" signed_b [31:0] $end
$var wire 1 3" zero $end
$var wire 33 4" sum [32:0] $end
$var wire 1 5" neg $end
$var wire 32 6" b [31:0] $end
$var wire 32 7" a [31:0] $end
$var wire 4 8" ALUFlags [3:0] $end
$var reg 32 9" Result1 [31:0] $end
$var reg 32 :" Result2 [31:0] $end
$upscope $end
$scope module ext $end
$var wire 2 ;" ImmSrc [1:0] $end
$var wire 24 <" Instr [23:0] $end
$var reg 32 =" ExtImm [31:0] $end
$upscope $end
$scope module fpu $end
$var wire 2 >" FPUControl [1:0] $end
$var wire 1 ?" carry $end
$var wire 1 @" overflow $end
$var wire 1 A" zero $end
$var wire 1 B" neg $end
$var wire 32 C" b [31:0] $end
$var wire 32 D" a [31:0] $end
$var wire 4 E" FPUFlags [3:0] $end
$var reg 32 F" Result [31:0] $end
$var reg 32 G" aux [31:0] $end
$var reg 48 H" aux2 [47:0] $end
$var reg 2 I" control [1:0] $end
$var reg 32 J" expoA [31:0] $end
$var reg 32 K" expoB [31:0] $end
$var reg 32 L" expoR [31:0] $end
$var reg 32 M" mantA [31:0] $end
$var reg 32 N" mantAshift [31:0] $end
$var reg 32 O" mantB [31:0] $end
$var reg 32 P" mantBshift [31:0] $end
$var reg 32 Q" mantR [31:0] $end
$var reg 48 R" productoPosible [47:0] $end
$var reg 1 S" signA $end
$var reg 1 T" signB $end
$var reg 1 U" signR $end
$var reg 1 V" sumaResta $end
$upscope $end
$scope module pcadd1 $end
$var wire 32 W" b [31:0] $end
$var wire 32 X" y [31:0] $end
$var wire 32 Y" a [31:0] $end
$upscope $end
$scope module pcadd2 $end
$var wire 32 Z" a [31:0] $end
$var wire 32 [" b [31:0] $end
$var wire 32 \" y [31:0] $end
$upscope $end
$scope module pcmux $end
$var wire 32 ]" d0 [31:0] $end
$var wire 1 2 s $end
$var wire 32 ^" y [31:0] $end
$var wire 32 _" d1 [31:0] $end
$upscope $end
$scope module pcreg $end
$var wire 1 % clk $end
$var wire 32 `" d [31:0] $end
$var wire 1 ' reset $end
$var reg 32 a" q [31:0] $end
$upscope $end
$scope module ra1mux $end
$var wire 4 b" d0 [3:0] $end
$var wire 4 c" d1 [3:0] $end
$var wire 1 d" s $end
$var wire 4 e" y [3:0] $end
$upscope $end
$scope module ra2mux $end
$var wire 4 f" d0 [3:0] $end
$var wire 4 g" d1 [3:0] $end
$var wire 1 h" s $end
$var wire 4 i" y [3:0] $end
$upscope $end
$scope module resSrcmux $end
$var wire 32 j" d0 [31:0] $end
$var wire 32 k" d1 [31:0] $end
$var wire 1 . s $end
$var wire 32 l" y [31:0] $end
$upscope $end
$scope module resmux $end
$var wire 32 m" d0 [31:0] $end
$var wire 1 6 s $end
$var wire 32 n" y [31:0] $end
$var wire 32 o" d1 [31:0] $end
$upscope $end
$scope module rf $end
$var wire 1 % clk $end
$var wire 32 p" r15 [31:0] $end
$var wire 4 q" ra1 [3:0] $end
$var wire 4 r" ra2 [3:0] $end
$var wire 4 s" wa3 [3:0] $end
$var wire 4 t" wa4 [3:0] $end
$var wire 32 u" wd3 [31:0] $end
$var wire 32 v" wd4 [31:0] $end
$var wire 1 / we3 $end
$var wire 1 5 we4 $end
$var wire 32 w" rd2 [31:0] $end
$var wire 32 x" rd1 [31:0] $end
$upscope $end
$scope module srcbmux $end
$var wire 32 y" d0 [31:0] $end
$var wire 32 z" d1 [31:0] $end
$var wire 1 ; s $end
$var wire 32 {" y [31:0] $end
$upscope $end
$upscope $end
$upscope $end
$scope module dmem $end
$var wire 32 |" a [31:0] $end
$var wire 1 % clk $end
$var wire 32 }" rd [31:0] $end
$var wire 32 ~" wd [31:0] $end
$var wire 1 " we $end
$upscope $end
$scope module imem $end
$var wire 32 !# a [31:0] $end
$var wire 32 "# rd [31:0] $end
$upscope $end
$upscope $end
$upscope $end
$enddefinitions $end
#0
$dumpvars
b11100000010011110000000000001111 "#
b0 !#
b1000 ~"
bx }"
b0 |"
b1000 {"
b1111 z"
b1000 y"
b1000 x"
b1000 w"
bx v"
b0 u"
b1111 t"
b0 s"
b1111 r"
b1111 q"
b1000 p"
bx o"
b0 n"
b0 m"
b0 l"
b10000001000 k"
b0 j"
b1111 i"
0h"
b0 g"
b1111 f"
b1111 e"
0d"
b1111 c"
b1111 b"
b0 a"
b100 `"
b0 _"
b100 ^"
b100 ]"
b1000 \"
b100 ["
b100 Z"
b0 Y"
b100 X"
b100 W"
0V"
0U"
0T"
0S"
bx R"
b1000 Q"
bx P"
b10000001000 O"
bx N"
b10000001000 M"
b1 L"
b0 K"
b0 J"
b0 I"
bx H"
bx G"
b10000001000 F"
b0 E"
b1000 D"
b1000 C"
0B"
0A"
0@"
0?"
b0 >"
b1111 ="
b10011110000000000001111 <"
b0 ;"
bx :"
b0 9"
b100 8"
b1000 7"
b1000 6"
05"
b0 4"
13"
b1000 2"
b1000 1"
00"
0/"
b1 ."
b100 -"
b0 ,"
bx +"
b1111 *"
b0 )"
b10000001000 ("
b11100000010011110000000000001111 '"
b0 &"
b0 %"
b100 $"
b100 #"
b1000 ""
b1111 !"
b1111 ~
bx }
b0 |
b1000 {
b1000 z
b1000 y
b0 x
b0 w
b0 v
b1 u
b10010 t
b0 s
b0 r
b0 q
b1 p
1o
0n
b0 m
b0 l
b0 k
b0 j
b0 i
b100 h
b100 g
b0 f
b100 e
b0 d
b0 c
b0 b
b0 a
0`
b1 _
b0 ^
0]
b0 \
0[
0Z
0Y
0X
1W
b0 V
b1110 U
b100 T
1S
b0 R
b0 Q
b0 P
b0 O
b0 N
b100 M
b0 L
b1110 K
b1 J
b100 I
b0 H
b0 G
b0 F
b0 E
b0 D
0C
0B
b0 A
1@
b0 ?
b11100000010011110000 >
b1 =
b100 <
0;
b0 :
b0 9
b0 8
b11100000010011110000000000001111 7
06
05
b0 4
b0 3
02
bx 1
b0 0
1/
0.
b1000 -
b0 ,
b11100000010011110000000000001111 +
b0 *
bx )
b1000 (
1'
b0 &
1%
b0 $
b0 #
0"
b1000 !
$end
#5
0%
#10
1%
#15
0%
#20
1%
#22
0'
#25
0%
#30
00"
b0 \
0/"
05"
1;
b0 =
b0 J
b0 p
b0 u
b0 ."
b1010010 t
b0 _
b10110100 |
b10110100 _"
b10110100 n"
b10110100 u"
b10110100 *"
b10110100 ="
b10110100 z"
b100 ~
b100 i"
b100 r"
b0 !"
b0 e"
b0 q"
b101000 h
b1 k
b0 M
b0 e
b10110100 #
b10110100 ,
b10110100 4
b10110100 &"
b10110100 l"
b10110100 m"
b10110100 |"
b100000000001000010110100 <"
b0 t"
b1 s"
b1 g"
b100 f"
b0 b"
b11100010100000000001 >
b1011 ?
b1011 i
b0 <
b0 I
b0 T
b0 g
b0 -"
b0 8"
03"
b10110100 ,"
b10110100 9"
b10110100 j"
b10110100 ("
b10110100 F"
b10110100 k"
b10010110100 Q"
b0 L"
b10010110100 O"
b10000000000 M"
b10110100 2"
b10110100 z
b10110100 6"
b10110100 C"
b10110100 {"
b11100010100000000001000010110100 +
b11100010100000000001000010110100 7
b11100010100000000001000010110100 '"
b11100010100000000001000010110100 "#
b10110100 4"
b0 1"
b0 {
b0 7"
b0 D"
b0 x"
bx !
bx (
bx -
bx y
bx w"
bx y"
bx ~"
b1000 $"
b1000 ^"
b1000 `"
b1100 ""
b1100 \"
b1100 p"
b1000 #"
b1000 X"
b1000 Z"
b1000 ]"
b100 *
b100 3
b100 %"
b100 Y"
b100 a"
b100 !#
1%
#35
0%
#40
b11001000 |
b11001000 _"
b11001000 n"
b11001000 u"
b11001000 #
b11001000 ,
b11001000 4
b11001000 &"
b11001000 l"
b11001000 m"
b11001000 |"
b11001000 ,"
b11001000 9"
b11001000 j"
b11001000 4"
b11001000 ("
b11001000 F"
b11001000 k"
b10011001000 Q"
b10011001000 O"
b11001000 2"
b11001000 z
b11001000 6"
b11001000 C"
b11001000 {"
b11001000 *"
b11001000 ="
b11001000 z"
b1000 ~
b1000 i"
b1000 r"
b10 k
b100000000010000011001000 <"
b10 s"
b10 g"
b1000 f"
b11100010100000000010 >
b1100 ?
b1100 i
b11100010100000000010000011001000 +
b11100010100000000010000011001000 7
b11100010100000000010000011001000 '"
b11100010100000000010000011001000 "#
b1100 $"
b1100 ^"
b1100 `"
b10000 ""
b10000 \"
b10000 p"
b1100 #"
b1100 X"
b1100 Z"
b1100 ]"
b1000 *
b1000 3
b1000 %"
b1000 Y"
b1000 a"
b1000 !#
1%
#45
0%
#50
b0 \
00"
0/"
b0 _
b111111010010000 |
b111111010010000 _"
b111111010010000 n"
b111111010010000 u"
b10010110100 ("
b10010110100 F"
b10010110100 k"
b1 L"
b10110100 Q"
b10010110100 O"
b10010110100 M"
0;
b0 M
b0 e
b111111010010000 #
b111111010010000 ,
b111111010010000 4
b111111010010000 &"
b111111010010000 l"
b111111010010000 m"
b111111010010000 |"
b10110100 2"
b10110100 z
b10110100 6"
b10110100 C"
b10110100 {"
b10110100 !
b10110100 (
b10110100 -
b10110100 y
b10110100 w"
b10110100 y"
b10110100 ~"
b10110100 1"
b10110100 {
b10110100 7"
b10110100 D"
b10110100 x"
b10010 t
b0 <
b0 I
b0 T
b0 g
b0 -"
b0 8"
03"
b111111010010000 ,"
b111111010010000 9"
b111111010010000 j"
b0 +"
b0 :"
b0 v"
b101101000 4"
b10010001 *"
b10010001 ="
b10010001 z"
b1 ~
b1 i"
b1 r"
b1 !"
b1 e"
b1 q"
b0 h
b11 k
05
b100 =
b100 J
b100 p
b100 u
b100 ."
b10011000010010001 <"
b1 t"
b11 s"
b11 g"
b1 f"
b1 b"
b11100000000000010011 >
b1001 ?
b1001 i
b11100000000000010011000010010001 +
b11100000000000010011000010010001 7
b11100000000000010011000010010001 '"
b11100000000000010011000010010001 "#
b10000 $"
b10000 ^"
b10000 `"
b10100 ""
b10100 \"
b10100 p"
b10000 #"
b10000 X"
b10000 Z"
b10000 ]"
b1100 *
b1100 3
b1100 %"
b1100 Y"
b1100 a"
b1100 !#
1%
#55
0%
#60
b10110001111110101000000 |
b10110001111110101000000 _"
b10110001111110101000000 n"
b10110001111110101000000 u"
b10110001111110101000000 #
b10110001111110101000000 ,
b10110001111110101000000 4
b10110001111110101000000 &"
b10110001111110101000000 l"
b10110001111110101000000 m"
b10110001111110101000000 |"
b10110001111110101000000 ,"
b10110001111110101000000 9"
b10110001111110101000000 j"
b111111010010000 ("
b111111010010000 F"
b111111010010000 k"
b1010010000 Q"
b0 O"
b11111 L"
b11010010000 M"
b11111 J"
b111111101000100 4"
b111111010010000 1"
b111111010010000 {
b111111010010000 7"
b111111010010000 D"
b111111010010000 x"
b11 !"
b11 e"
b11 q"
b110011000010010001 <"
b11 t"
b11 b"
b11100000000000110011 >
b11100000000000110011000010010001 +
b11100000000000110011000010010001 7
b11100000000000110011000010010001 '"
b11100000000000110011000010010001 "#
b10100 $"
b10100 ^"
b10100 `"
b11000 ""
b11000 \"
b11000 p"
b10100 #"
b10100 X"
b10100 Z"
b10100 ]"
b10000 *
b10000 3
b10000 %"
b10000 Y"
b10000 a"
b10000 !#
1%
#65
0%
#70
b11001000 2"
b11001000 z
b11001000 6"
b11001000 C"
b11001000 {"
b11001000 !
b11001000 (
b11001000 -
b11001000 y
b11001000 w"
b11001000 y"
b11001000 ~"
b1000101100001011101101000000000 |
b1000101100001011101101000000000 _"
b1000101100001011101101000000000 n"
b1000101100001011101101000000000 u"
b1000 9
b1000 F
b1000 Q
b1000 f
b1000 )"
b1000 E"
1B"
b10010010 *"
b10010010 ="
b10010010 z"
b10 ~
b10 i"
b10 r"
b1000101100001011101101000000000 #
b1000101100001011101101000000000 ,
b1000101100001011101101000000000 4
b1000101100001011101101000000000 &"
b1000101100001011101101000000000 l"
b1000101100001011101101000000000 m"
b1000101100001011101101000000000 |"
b110011000010010010 <"
b10 f"
b1000101100001011101101000000000 ,"
b1000101100001011101101000000000 9"
b1000101100001011101101000000000 j"
b1111110101000000 ("
b1111110101000000 F"
b1111110101000000 k"
b10101000000000000000000000000000 H"
b1010 G"
1U"
b101000000 Q"
1V"
b0 O"
b10101000000 M"
1S"
b11100000000000110011000010010010 +
b11100000000000110011000010010010 7
b11100000000000110011000010010010 '"
b11100000000000110011000010010010 "#
b11000 $"
b11000 ^"
b11000 `"
b10110001111111000001000 4"
b10110001111110101000000 1"
b10110001111110101000000 {
b10110001111110101000000 7"
b10110001111110101000000 D"
b10110001111110101000000 x"
b11100 ""
b11100 \"
b11100 p"
b11000 #"
b11000 X"
b11000 Z"
b11000 ]"
b10100 *
b10100 3
b10100 %"
b10100 Y"
b10100 a"
b10100 !#
1%
#75
0%
#80
b0 9
b0 F
b0 Q
b0 f
b0 )"
b0 E"
0B"
b0 _
b10000000 2"
b10000000 z
b10000000 6"
b10000000 C"
b10000000 {"
0U"
0S"
1;
b0 M
b0 e
b0 !
b0 (
b0 -
b0 y
b0 w"
b0 y"
b0 ~"
b1010010 t
b0 <
b0 I
b0 T
b0 g
b0 -"
b0 8"
03"
b10000000 |
b10000000 _"
b10000000 n"
b10000000 u"
b10000000 *"
b10000000 ="
b10000000 z"
b0 ~
b0 i"
b0 r"
b0 !"
b0 e"
b0 q"
b101000 h
b1 k
b0 =
b0 J
b0 p
b0 u
b0 ."
b10000000 #
b10000000 ,
b10000000 4
b10000000 &"
b10000000 l"
b10000000 m"
b10000000 |"
b100000000001000010000000 <"
b0 t"
b1 s"
b1 g"
b0 f"
b0 b"
b11100010100000000001 >
b1000 ?
b1000 i
b10000000 ,"
b10000000 9"
b10000000 j"
b10000000 ("
b10000000 F"
b10000000 k"
b11000000000000000000000000000000 H"
b1010 G"
b10010000000 Q"
b0 L"
b10010000000 O"
b10000000000 M"
b0 J"
b11100010100000000001000010000000 +
b11100010100000000001000010000000 7
b11100010100000000001000010000000 '"
b11100010100000000001000010000000 "#
b11100 $"
b11100 ^"
b11100 `"
b10000000 4"
b0 1"
b0 {
b0 7"
b0 D"
b0 x"
b100000 ""
b100000 \"
b100000 p"
b11100 #"
b11100 X"
b11100 Z"
b11100 ]"
b11000 *
b11000 3
b11000 %"
b11000 Y"
b11000 a"
b11000 !#
1%
#85
0%
#90
b0 \
00"
0/"
b0 _
b100000000000000 |
b100000000000000 _"
b100000000000000 n"
b100000000000000 u"
b10010000000 ("
b10010000000 F"
b10010000000 k"
b1 L"
b10000000 Q"
0V"
b10010000000 O"
b10010000000 M"
0;
b0 M
b0 e
b100000000000000 #
b100000000000000 ,
b100000000000000 4
b100000000000000 &"
b100000000000000 l"
b100000000000000 m"
b100000000000000 |"
b10000000 2"
b10000000 z
b10000000 6"
b10000000 C"
b10000000 {"
b10000000 !
b10000000 (
b10000000 -
b10000000 y
b10000000 w"
b10000000 y"
b10000000 ~"
b10000000 1"
b10000000 {
b10000000 7"
b10000000 D"
b10000000 x"
b10010 t
b0 <
b0 I
b0 T
b0 g
b0 -"
b0 8"
03"
b100000000000000 ,"
b100000000000000 9"
b100000000000000 j"
b100000000 4"
b10010001 *"
b10010001 ="
b10010001 z"
b1 ~
b1 i"
b1 r"
b1 !"
b1 e"
b1 q"
b0 h
b10 k
05
b100 =
b100 J
b100 p
b100 u
b100 ."
b10010000010010001 <"
b1 t"
b10 s"
b10 g"
b1 f"
b1 b"
b11100000000000010010 >
b1001 ?
b1001 i
b11100000000000010010000010010001 +
b11100000000000010010000010010001 7
b11100000000000010010000010010001 '"
b11100000000000010010000010010001 "#
b100000 $"
b100000 ^"
b100000 `"
b100100 ""
b100100 \"
b100100 p"
b100000 #"
b100000 X"
b100000 Z"
b100000 ]"
b11100 *
b11100 3
b11100 %"
b11100 Y"
b11100 a"
b11100 !#
1%
#95
0%
#100
b10000 K"
b1000000000000000 |
b1000000000000000 _"
b1000000000000000 n"
b1000000000000000 u"
b100000000000000 2"
b100000000000000 z
b100000000000000 6"
b100000000000000 C"
b100000000000000 {"
b100010000000000 ("
b100010000000000 F"
b100010000000000 k"
b0 Q"
b10000000000 O"
b10001 L"
b10000000000 M"
b10000 J"
b1000000000000000 #
b1000000000000000 ,
b1000000000000000 4
b1000000000000000 &"
b1000000000000000 l"
b1000000000000000 m"
b1000000000000000 |"
b100000000000000 !
b100000000000000 (
b100000000000000 -
b100000000000000 y
b100000000000000 w"
b100000000000000 y"
b100000000000000 ~"
b1000000000000000 4"
b100000000000000 1"
b100000000000000 {
b100000000000000 7"
b100000000000000 D"
b100000000000000 x"
b1000000000000000 ,"
b1000000000000000 9"
b1000000000000000 j"
b10 *"
b10 ="
b10 z"
b10 ~
b10 i"
b10 r"
b10 !"
b10 e"
b10 q"
b1000 h
b0 =
b0 J
b0 p
b0 u
b0 ."
b100000100010000000000010 <"
b10 t"
b10 f"
b10 b"
b11100000100000100010 >
b0 ?
b0 i
b11100000100000100010000000000010 +
b11100000100000100010000000000010 7
b11100000100000100010000000000010 '"
b11100000100000100010000000000010 "#
b100100 $"
b100100 ^"
b100100 `"
b101000 ""
b101000 \"
b101000 p"
b100100 #"
b100100 X"
b100100 Z"
b100100 ]"
b100000 *
b100000 3
b100000 %"
b100000 Y"
b100000 a"
b100000 !#
1%
#105
0%
#110
b0 _
b0 M
b0 e
b0 <
b0 I
b0 T
b0 g
b0 -"
b0 8"
03"
b10000000000000000000000000000000 H"
b111 G"
1V"
b10010000000 O"
b1 =
b1 J
b1 p
b1 u
b1 ."
b111111110000000 |
b111111110000000 _"
b111111110000000 n"
b111111110000000 u"
b0 9
b0 F
b0 Q
b0 f
b0 )"
b0 E"
0B"
b1 *"
b1 ="
b1 z"
b1 ~
b1 i"
b1 r"
b100 h
b1 k
b111111110000000 #
b111111110000000 ,
b111111110000000 4
b111111110000000 &"
b111111110000000 l"
b111111110000000 m"
b111111110000000 |"
b10000100001000000000001 <"
b1 s"
b1 g"
b1 f"
b11100000010000100001 >
b111111110000000 ,"
b111111110000000 9"
b111111110000000 j"
b111010000000000 ("
b111010000000000 F"
b111010000000000 k"
0U"
b0 Q"
b11111111111111111111111111111101 L"
b0 K"
b0 J"
0T"
1S"
b10000000 2"
b10000000 z
b10000000 6"
b10000000 C"
b10000000 {"
b11100000010000100001000000000001 +
b11100000010000100001000000000001 7
b11100000010000100001000000000001 '"
b11100000010000100001000000000001 "#
b101000 $"
b101000 ^"
b101000 `"
b111111110000000 4"
b1000000000000000 1"
b1000000000000000 {
b1000000000000000 7"
b1000000000000000 D"
b1000000000000000 x"
b10000000 !
b10000000 (
b10000000 -
b10000000 y
b10000000 w"
b10000000 y"
b10000000 ~"
b101100 ""
b101100 \"
b101100 p"
b101000 #"
b101000 X"
b101000 Z"
b101000 ]"
b100100 *
b100100 3
b100100 %"
b100100 Y"
b100100 a"
b100100 !#
1%
#115
0%
#120
00"
b0 \
1T"
b0 _
b111111110000000000000000000000 |
b111111110000000000000000000000 _"
b111111110000000000000000000000 n"
b111111110000000000000000000000 u"
0/"
1V"
b11111 J"
0S"
05"
b0 M
b0 e
b111111110000000000000000000000 #
b111111110000000000000000000000 ,
b111111110000000000000000000000 4
b111111110000000000000000000000 &"
b111111110000000000000000000000 l"
b111111110000000000000000000000 m"
b111111110000000000000000000000 |"
b111111110000000 1"
b111111110000000 {
b111111110000000 7"
b111111110000000 D"
b111111110000000 x"
b0 <
b0 I
b0 T
b0 g
b0 -"
b0 8"
03"
b111111110000000000000000000000 ,"
b111111110000000000000000000000 9"
b111111110000000000000000000000 j"
b1111111110000000 4"
b10010010 *"
b10010010 ="
b10010010 z"
b10 ~
b10 i"
b10 r"
b1 !"
b1 e"
b1 q"
b0 h
b100 k
b100 =
b100 J
b100 p
b100 u
b100 ."
b111111110000000 ("
b111111110000000 F"
b111111110000000 k"
b11110000000000000000000000000000 H"
b1010 G"
b1110000000 Q"
b11110000000 M"
b11111 L"
b0 O"
b0 K"
b10100000010010010 <"
b1 t"
b100 s"
b100 g"
b10 f"
b1 b"
b11100000000000010100 >
b1001 ?
b1001 i
b1000000000000000 2"
b1000000000000000 z
b1000000000000000 6"
b1000000000000000 C"
b1000000000000000 {"
b11100000000000010100000010010010 +
b11100000000000010100000010010010 7
b11100000000000010100000010010010 '"
b11100000000000010100000010010010 "#
b101100 $"
b101100 ^"
b101100 `"
b1000000000000000 !
b1000000000000000 (
b1000000000000000 -
b1000000000000000 y
b1000000000000000 w"
b1000000000000000 y"
b1000000000000000 ~"
b110000 ""
b110000 \"
b110000 p"
b101100 #"
b101100 X"
b101100 Z"
b101100 ]"
b101000 *
b101000 3
b101000 %"
b101000 Y"
b101000 a"
b101000 !#
1%
#125
0%
#130
10"
0/"
b1111111 K"
0T"
b1 I"
15"
b1 :
b1 H
b1 q
b1 v
b1 >"
b0 _
b1000101100001011110011000000000 |
b1000101100001011110011000000000 _"
b1000101100001011110011000000000 n"
b1000101100001011110011000000000 u"
b111111110000000000000000000000 2"
b111111110000000000000000000000 z
b111111110000000000000000000000 6"
b111111110000000000000000000000 C"
b111111110000000000000000000000 {"
b1000101100001011110011000000000 ("
b1000101100001011110011000000000 F"
b1000101100001011110011000000000 k"
0U"
b1011110011000000000 Q"
0V"
b10001011 L"
b110000000000 O"
b100001011101101000000000 M"
b10001011 J"
0S"
0o
1.
b0 M
b0 e
b1000101100001011110011000000000 #
b1000101100001011110011000000000 ,
b1000101100001011110011000000000 4
b1000101100001011110011000000000 &"
b1000101100001011110011000000000 l"
b1000101100001011110011000000000 m"
b1000101100001011110011000000000 |"
b111111110000000000000000000000 !
b111111110000000000000000000000 (
b111111110000000000000000000000 -
b111111110000000000000000000000 y
b111111110000000000000000000000 w"
b111111110000000000000000000000 y"
b111111110000000000000000000000 ~"
b10000101010001011101101000000000 4"
b1000101100001011101101000000000 1"
b1000101100001011101101000000000 {
b1000101100001011101101000000000 7"
b1000101100001011101101000000000 D"
b1000101100001011101101000000000 x"
b10001 t
b1001 <
b1001 I
b1001 T
b1001 g
b1001 -"
b1001 8"
03"
b10000101010001011101101000000000 ,"
b10000101010001011101101000000000 9"
b10000101010001011101101000000000 j"
b100 *"
b100 ="
b100 z"
b100 ~
b100 i"
b100 r"
b11 !"
b11 e"
b11 q"
b11 j
b10 h
b101 k
b0 =
b0 J
b0 p
b0 u
b0 ."
b1000110101000000000100 <"
b11 t"
b101 s"
b101 g"
b100 f"
b11 b"
b11101100001000110101 >
b0 ?
b0 i
b11101100001000110101000000000100 +
b11101100001000110101000000000100 7
b11101100001000110101000000000100 '"
b11101100001000110101000000000100 "#
b110000 $"
b110000 ^"
b110000 `"
b110100 ""
b110100 \"
b110100 p"
b110000 #"
b110000 X"
b110000 Z"
b110000 ]"
b101100 *
b101100 3
b101100 %"
b101100 Y"
b101100 a"
b101100 !#
1%
#135
0%
