Single cycle processor/src/top.vcd
$date
	Wed Jul 28 14:51:15 2021
$end
$version
	Icarus Verilog
$end
$timescale
	1s
$end
$scope module testbench $end
$var wire 32 ! WriteData [31:0] $end
$var wire 1 " MemWrite $end
$var wire 32 # DataAdr [31:0] $end
$var reg 1 $ clk $end
$var reg 1 % reset $end
$scope module dut $end
$var wire 1 $ clk $end
$var wire 1 % reset $end
$var wire 32 & WriteData [31:0] $end
$var wire 32 ' ReadData [31:0] $end
$var wire 32 ( PC [31:0] $end
$var wire 1 " MemWrite $end
$var wire 32 ) Instr [31:0] $end
$var wire 32 * DataAdr [31:0] $end
$scope module arm $end
$var wire 1 $ clk $end
$var wire 1 % reset $end
$var wire 32 + WriteData [31:0] $end
$var wire 1 , ResSrc $end
$var wire 1 - RegWrite $end
$var wire 2 . RegSrc [1:0] $end
$var wire 32 / ReadData [31:0] $end
$var wire 1 0 PCSrc $end
$var wire 32 1 PC [31:0] $end
$var wire 32 2 OPResult [31:0] $end
$var wire 1 3 MulWrite $end
$var wire 1 4 MemtoReg $end
$var wire 1 " MemWrite $end
$var wire 32 5 Instr [31:0] $end
$var wire 2 6 ImmSrc [1:0] $end
$var wire 4 7 FPUFlags [3:0] $end
$var wire 2 8 FPUControl [1:0] $end
$var wire 1 9 ALUSrc $end
$var wire 4 : ALUFlags [3:0] $end
$var wire 3 ; ALUControl [2:0] $end
$scope module c $end
$var wire 20 < Instr [31:12] $end
$var wire 4 = MulOp [3:0] $end
$var wire 1 $ clk $end
$var wire 1 % reset $end
$var wire 1 , ResSrc $end
$var wire 1 - RegWrite $end
$var wire 1 > RegW $end
$var wire 2 ? RegSrc [1:0] $end
$var wire 1 0 PCSrc $end
$var wire 1 @ PCS $end
$var wire 1 3 MulWrite $end
$var wire 1 4 MemtoReg $end
$var wire 1 " MemWrite $end
$var wire 1 A MemW $end
$var wire 2 B ImmSrc [1:0] $end
$var wire 2 C FlagW [1:0] $end
$var wire 4 D FPUFlags [3:0] $end
$var wire 2 E FPUFlagW [1:0] $end
$var wire 2 F FPUControl [1:0] $end
$var wire 1 9 ALUSrc $end
$var wire 4 G ALUFlags [3:0] $end
$var wire 3 H ALUControl [2:0] $end
$scope module cl $end
$var wire 4 I Cond [3:0] $end
$var wire 2 J FlagWrite [1:0] $end
$var wire 1 " MemWrite $end
$var wire 1 0 PCSrc $end
$var wire 1 - RegWrite $end
$var wire 1 $ clk $end
$var wire 1 % reset $end
$var wire 1 , ResSrc $end
$var wire 1 > RegW $end
$var wire 1 @ PCS $end
$var wire 1 A MemW $end
$var wire 4 K Flagsmux [3:0] $end
$var wire 4 L Flags [3:0] $end
$var wire 2 M FlagWmux [1:0] $end
$var wire 2 N FlagW [1:0] $end
$var wire 4 O FPUFlags [3:0] $end
$var wire 2 P FPUFlagW [1:0] $end
$var wire 1 Q CondEx $end
$var wire 4 R ALUFlags [3:0] $end
$scope module cc $end
$var wire 4 S Cond [3:0] $end
$var wire 4 T Flags [3:0] $end
$var wire 1 U ge $end
$var wire 1 V zero $end
$var wire 1 W overflow $end
$var wire 1 X neg $end
$var wire 1 Y carry $end
$var reg 1 Q CondEx $end
$upscope $end
$scope module flagreg0 $end
$var wire 1 $ clk $end
$var wire 2 Z d [1:0] $end
$var wire 1 [ en $end
$var wire 1 % reset $end
$var reg 2 \ q [1:0] $end
$upscope $end
$scope module flagreg1 $end
$var wire 1 $ clk $end
$var wire 2 ] d [1:0] $end
$var wire 1 ^ en $end
$var wire 1 % reset $end
$var reg 2 _ q [1:0] $end
$upscope $end
$scope module muxFlagW $end
$var wire 2 ` y [1:0] $end
$var wire 1 , s $end
$var wire 2 a d1 [1:0] $end
$var wire 2 b d0 [1:0] $end
$upscope $end
$scope module muxFlags $end
$var wire 4 c y [3:0] $end
$var wire 1 , s $end
$var wire 4 d d1 [3:0] $end
$var wire 4 e d0 [3:0] $end
$upscope $end
$upscope $end
$scope module dec $end
$var wire 6 f Funct [5:0] $end
$var wire 4 g MulOp [3:0] $end
$var wire 2 h Op [1:0] $end
$var wire 1 @ PCS $end
$var wire 4 i Rd [3:0] $end
$var wire 1 , ResSrc $end
$var wire 1 > RegW $end
$var wire 2 j RegSrc [1:0] $end
$var wire 1 4 MemtoReg $end
$var wire 1 A MemW $end
$var wire 2 k ImmSrc [1:0] $end
$var wire 1 l Branch $end
$var wire 1 9 ALUSrc $end
$var wire 1 m ALUOp $end
$var reg 3 n ALUControl [2:0] $end
$var reg 2 o FPUControl [1:0] $end
$var reg 2 p FPUFlagW [1:0] $end
$var reg 2 q FlagW [1:0] $end
$var reg 1 3 MulWrite $end
$var reg 11 r controls [10:0] $end
$upscope $end
$upscope $end
$scope module dp $end
$var wire 3 s ALUControl [2:0] $end
$var wire 1 9 ALUSrc $end
$var wire 2 t FPUControl [1:0] $end
$var wire 2 u ImmSrc [1:0] $end
$var wire 1 4 MemtoReg $end
$var wire 1 3 MulWrite $end
$var wire 1 0 PCSrc $end
$var wire 2 v RegSrc [1:0] $end
$var wire 1 - RegWrite $end
$var wire 1 , ResSrc $end
$var wire 1 $ clk $end
$var wire 1 % reset $end
$var wire 32 w WriteData [31:0] $end
$var wire 32 x SrcB [31:0] $end
$var wire 32 y SrcA [31:0] $end
$var wire 32 z Result [31:0] $end
$var wire 32 { ReadData [31:0] $end
$var wire 4 | RA2 [3:0] $end
$var wire 4 } RA1 [3:0] $end
$var wire 32 ~ PCPlus8 [31:0] $end
$var wire 32 !" PCPlus4 [31:0] $end
$var wire 32 "" PCNext [31:0] $end
$var wire 32 #" PC [31:0] $end
$var wire 32 $" OPResult [31:0] $end
$var wire 32 %" Instr [31:0] $end
$var wire 32 &" FPUResult [31:0] $end
$var wire 4 '" FPUFlags [3:0] $end
$var wire 32 (" ExtImm [31:0] $end
$var wire 32 )" ALUResult2 [31:0] $end
$var wire 32 *" ALUResult1 [31:0] $end
$var wire 4 +" ALUFlags [3:0] $end
$scope module alu $end
$var wire 3 ," ALUControl [2:0] $end
$var wire 1 -" carry $end
$var wire 1 ." overflow $end
$var wire 32 /" signed_a [31:0] $end
$var wire 32 0" signed_b [31:0] $end
$var wire 1 1" zero $end
$var wire 33 2" sum [32:0] $end
$var wire 1 3" neg $end
$var wire 32 4" b [31:0] $end
$var wire 32 5" a [31:0] $end
$var wire 4 6" ALUFlags [3:0] $end
$var reg 32 7" Result1 [31:0] $end
$var reg 32 8" Result2 [31:0] $end
$upscope $end
$scope module ext $end
$var wire 2 9" ImmSrc [1:0] $end
$var wire 24 :" Instr [23:0] $end
$var reg 32 ;" ExtImm [31:0] $end
$upscope $end
$scope module fpu $end
$var wire 2 <" FPUControl [1:0] $end
$var wire 1 =" carry $end
$var wire 1 >" overflow $end
$var wire 1 ?" zero $end
$var wire 1 @" neg $end
$var wire 32 A" b [31:0] $end
$var wire 32 B" a [31:0] $end
$var wire 4 C" FPUFlags [3:0] $end
$var reg 32 D" Result [31:0] $end
$var reg 32 E" aux [31:0] $end
$var reg 48 F" aux2 [47:0] $end
$var reg 2 G" control [1:0] $end
$var reg 32 H" expoA [31:0] $end
$var reg 32 I" expoB [31:0] $end
$var reg 32 J" expoR [31:0] $end
$var reg 32 K" mantA [31:0] $end
$var reg 32 L" mantAshift [31:0] $end
$var reg 32 M" mantB [31:0] $end
$var reg 32 N" mantBshift [31:0] $end
$var reg 32 O" mantR [31:0] $end
$var reg 48 P" productoPosible [47:0] $end
$var reg 1 Q" signA $end
$var reg 1 R" signB $end
$var reg 1 S" signR $end
$var reg 1 T" sumaResta $end
$upscope $end
$scope module pcadd1 $end
$var wire 32 U" b [31:0] $end
$var wire 32 V" y [31:0] $end
$var wire 32 W" a [31:0] $end
$upscope $end
$scope module pcadd2 $end
$var wire 32 X" a [31:0] $end
$var wire 32 Y" b [31:0] $end
$var wire 32 Z" y [31:0] $end
$upscope $end
$scope module pcmux $end
$var wire 32 [" d0 [31:0] $end
$var wire 1 0 s $end
$var wire 32 \" y [31:0] $end
$var wire 32 ]" d1 [31:0] $end
$upscope $end
$scope module pcreg $end
$var wire 1 $ clk $end
$var wire 32 ^" d [31:0] $end
$var wire 1 % reset $end
$var reg 32 _" q [31:0] $end
$upscope $end
$scope module ra1mux $end
$var wire 4 `" d0 [3:0] $end
$var wire 4 a" d1 [3:0] $end
$var wire 1 b" s $end
$var wire 4 c" y [3:0] $end
$upscope $end
$scope module ra2mux $end
$var wire 4 d" d0 [3:0] $end
$var wire 4 e" d1 [3:0] $end
$var wire 1 f" s $end
$var wire 4 g" y [3:0] $end
$upscope $end
$scope module resSrcmux $end
$var wire 32 h" d0 [31:0] $end
$var wire 32 i" d1 [31:0] $end
$var wire 1 , s $end
$var wire 32 j" y [31:0] $end
$upscope $end
$scope module resmux $end
$var wire 32 k" d0 [31:0] $end
$var wire 1 4 s $end
$var wire 32 l" y [31:0] $end
$var wire 32 m" d1 [31:0] $end
$upscope $end
$scope module rf $end
$var wire 1 $ clk $end
$var wire 32 n" r15 [31:0] $end
$var wire 4 o" ra1 [3:0] $end
$var wire 4 p" ra2 [3:0] $end
$var wire 4 q" wa3 [3:0] $end
$var wire 4 r" wa4 [3:0] $end
$var wire 32 s" wd3 [31:0] $end
$var wire 32 t" wd4 [31:0] $end
$var wire 1 - we3 $end
$var wire 1 3 we4 $end
$var wire 32 u" rd2 [31:0] $end
$var wire 32 v" rd1 [31:0] $end
$upscope $end
$scope module srcbmux $end
$var wire 32 w" d0 [31:0] $end
$var wire 32 x" d1 [31:0] $end
$var wire 1 9 s $end
$var wire 32 y" y [31:0] $end
$upscope $end
$upscope $end
$upscope $end
$scope module dmem $end
$var wire 32 z" a [31:0] $end
$var wire 1 $ clk $end
$var wire 32 {" rd [31:0] $end
$var wire 32 |" wd [31:0] $end
$var wire 1 " we $end
$upscope $end
$scope module imem $end
$var wire 32 }" a [31:0] $end
$var wire 32 ~" rd [31:0] $end
$upscope $end
$upscope $end
$upscope $end
$enddefinitions $end
#0
$dumpvars
b11100000010011110000000000001111 ~"
b0 }"
b1000 |"
bx {"
b0 z"
b1000 y"
b1111 x"
b1000 w"
b1000 v"
b1000 u"
bx t"
b0 s"
b0 r"
b0 q"
b1111 p"
b1111 o"
b1000 n"
bx m"
b0 l"
b0 k"
b0 j"
b10000001000 i"
b0 h"
b1111 g"
0f"
b0 e"
b1111 d"
b1111 c"
0b"
b1111 a"
b1111 `"
b0 _"
b100 ^"
b0 ]"
b100 \"
b100 ["
b1000 Z"
b100 Y"
b100 X"
b0 W"
b100 V"
b100 U"
0T"
0S"
0R"
0Q"
bx P"
b1000 O"
bx N"
b10000001000 M"
bx L"
b10000001000 K"
b1 J"
b0 I"
b0 H"
b0 G"
bx F"
bx E"
b10000001000 D"
b0 C"
b1000 B"
b1000 A"
0@"
0?"
0>"
0="
b0 <"
b1111 ;"
b10011110000000000001111 :"
b0 9"
bx 8"
b0 7"
b100 6"
b1000 5"
b1000 4"
03"
b0 2"
11"
b1000 0"
b1000 /"
0."
0-"
b1 ,"
b100 +"
b0 *"
bx )"
b1111 ("
b0 '"
b10000001000 &"
b11100000010011110000000000001111 %"
b0 $"
b0 #"
b100 ""
b100 !"
b1000 ~
b1111 }
b1111 |
bx {
b0 z
b1000 y
b1000 x
b1000 w
b0 v
b0 u
b0 t
b1 s
b10010 r
b0 q
b0 p
b0 o
b1 n
1m
0l
b0 k
b0 j
b0 i
b0 h
b0 g
b100 f
b100 e
b0 d
b100 c
b0 b
b0 a
b0 `
b0 _
0^
b1 ]
b0 \
0[
b0 Z
0Y
0X
0W
0V
1U
b0 T
b1110 S
b100 R
1Q
b0 P
b0 O
b0 N
b0 M
b0 L
b100 K
b0 J
b1110 I
b1 H
b100 G
b0 F
b0 E
b0 D
b0 C
b0 B
0A
0@
b0 ?
1>
b0 =
b11100000010011110000 <
b1 ;
b100 :
09
b0 8
b0 7
b0 6
b11100000010011110000000000001111 5
04
03
b0 2
b0 1
00
bx /
b0 .
1-
0,
b1000 +
b0 *
b11100000010011110000000000001111 )
b0 (
bx '
b1000 &
1%
1$
b0 #
0"
b1000 !
$end
#5
0$
#10
1$
#15
0$
#20
1$
#22
0%
#25
0$
#30
0."
b0 Z
0-"
03"
19
b0 ;
b0 H
b0 n
b0 s
b0 ,"
b1010010 r
b0 ]
b10110100 z
b10110100 ]"
b10110100 l"
b10110100 s"
b10110100 ("
b10110100 ;"
b10110100 x"
b100 |
b100 g"
b100 p"
b0 }
b0 c"
b0 o"
b101000 f
b1 i
b0 K
b0 c
b10110100 #
b10110100 *
b10110100 2
b10110100 $"
b10110100 j"
b10110100 k"
b10110100 z"
b100000000001000010110100 :"
b1 q"
b1 e"
b100 d"
b0 `"
b11100010100000000001 <
b1011 =
b1011 g
b0 :
b0 G
b0 R
b0 e
b0 +"
b0 6"
01"
b10110100 *"
b10110100 7"
b10110100 h"
b10110100 &"
b10110100 D"
b10110100 i"
b10010110100 O"
b0 J"
b10010110100 M"
b10000000000 K"
b10110100 0"
b10110100 x
b10110100 4"
b10110100 A"
b10110100 y"
b11100010100000000001000010110100 )
b11100010100000000001000010110100 5
b11100010100000000001000010110100 %"
b11100010100000000001000010110100 ~"
b10110100 2"
b0 /"
b0 y
b0 5"
b0 B"
b0 v"
bx !
bx &
bx +
bx w
bx u"
bx w"
bx |"
b1000 ""
b1000 \"
b1000 ^"
b1100 ~
b1100 Z"
b1100 n"
b1000 !"
b1000 V"
b1000 X"
b1000 ["
b100 (
b100 1
b100 #"
b100 W"
b100 _"
b100 }"
1$
#35
0$
#40
b11001000 z
b11001000 ]"
b11001000 l"
b11001000 s"
b11001000 #
b11001000 *
b11001000 2
b11001000 $"
b11001000 j"
b11001000 k"
b11001000 z"
b11001000 *"
b11001000 7"
b11001000 h"
b11001000 2"
b11001000 &"
b11001000 D"
b11001000 i"
b10011001000 O"
b10011001000 M"
b11001000 0"
b11001000 x
b11001000 4"
b11001000 A"
b11001000 y"
b11001000 ("
b11001000 ;"
b11001000 x"
b1000 |
b1000 g"
b1000 p"
b10 i
b100000000010000011001000 :"
b10 q"
b10 e"
b1000 d"
b11100010100000000010 <
b1100 =
b1100 g
b11100010100000000010000011001000 )
b11100010100000000010000011001000 5
b11100010100000000010000011001000 %"
b11100010100000000010000011001000 ~"
b1100 ""
b1100 \"
b1100 ^"
b10000 ~
b10000 Z"
b10000 n"
b1100 !"
b1100 V"
b1100 X"
b1100 ["
b1000 (
b1000 1
b1000 #"
b1000 W"
b1000 _"
b1000 }"
1$
#45
0$
#50
b0 Z
0."
0-"
b0 ]
b111111010010000 z
b111111010010000 ]"
b111111010010000 l"
b111111010010000 s"
b10010110100 &"
b10010110100 D"
b10010110100 i"
b1 J"
b10110100 O"
b10010110100 M"
b10010110100 K"
09
b0 K
b0 c
b111111010010000 #
b111111010010000 *
b111111010010000 2
b111111010010000 $"
b111111010010000 j"
b111111010010000 k"
b111111010010000 z"
b10110100 0"
b10110100 x
b10110100 4"
b10110100 A"
b10110100 y"
b10110100 !
b10110100 &
b10110100 +
b10110100 w
b10110100 u"
b10110100 w"
b10110100 |"
b10110100 /"
b10110100 y
b10110100 5"
b10110100 B"
b10110100 v"
b10010 r
b0 :
b0 G
b0 R
b0 e
b0 +"
b0 6"
01"
b111111010010000 *"
b111111010010000 7"
b111111010010000 h"
b0 )"
b0 8"
b0 t"
b101101000 2"
b10010001 ("
b10010001 ;"
b10010001 x"
b1 |
b1 g"
b1 p"
b1 }
b1 c"
b1 o"
b0 f
b11 i
03
b100 ;
b100 H
b100 n
b100 s
b100 ,"
b10011000010010001 :"
b11 q"
b11 e"
b1 d"
b1 `"
b11100000000000010011 <
b1001 =
b1001 g
b11100000000000010011000010010001 )
b11100000000000010011000010010001 5
b11100000000000010011000010010001 %"
b11100000000000010011000010010001 ~"
b10000 ""
b10000 \"
b10000 ^"
b10100 ~
b10100 Z"
b10100 n"
b10000 !"
b10000 V"
b10000 X"
b10000 ["
b1100 (
b1100 1
b1100 #"
b1100 W"
b1100 _"
b1100 }"
1$
#55
0$
#60
b10110001111110101000000 z
b10110001111110101000000 ]"
b10110001111110101000000 l"
b10110001111110101000000 s"
b10110001111110101000000 #
b10110001111110101000000 *
b10110001111110101000000 2
b10110001111110101000000 $"
b10110001111110101000000 j"
b10110001111110101000000 k"
b10110001111110101000000 z"
b10110001111110101000000 *"
b10110001111110101000000 7"
b10110001111110101000000 h"
b111111010010000 &"
b111111010010000 D"
b111111010010000 i"
b1010010000 O"
b0 M"
b11111 J"
b11010010000 K"
b11111 H"
b111111101000100 2"
b111111010010000 /"
b111111010010000 y
b111111010010000 5"
b111111010010000 B"
b111111010010000 v"
b11 }
b11 c"
b11 o"
b110011000010010001 :"
b11 `"
b11100000000000110011 <
b11100000000000110011000010010001 )
b11100000000000110011000010010001 5
b11100000000000110011000010010001 %"
b11100000000000110011000010010001 ~"
b10100 ""
b10100 \"
b10100 ^"
b11000 ~
b11000 Z"
b11000 n"
b10100 !"
b10100 V"
b10100 X"
b10100 ["
b10000 (
b10000 1
b10000 #"
b10000 W"
b10000 _"
b10000 }"
1$
#65
0$
#70
b11001000 0"
b11001000 x
b11001000 4"
b11001000 A"
b11001000 y"
b11001000 !
b11001000 &
b11001000 +
b11001000 w
b11001000 u"
b11001000 w"
b11001000 |"
b1000101100001011101101000000000 z
b1000101100001011101101000000000 ]"
b1000101100001011101101000000000 l"
b1000101100001011101101000000000 s"
b1000 7
b1000 D
b1000 O
b1000 d
b1000 '"
b1000 C"
1@"
b10010010 ("
b10010010 ;"
b10010010 x"
b10 |
b10 g"
b10 p"
b1000101100001011101101000000000 #
b1000101100001011101101000000000 *
b1000101100001011101101000000000 2
b1000101100001011101101000000000 $"
b1000101100001011101101000000000 j"
b1000101100001011101101000000000 k"
b1000101100001011101101000000000 z"
b110011000010010010 :"
b10 d"
b1000101100001011101101000000000 *"
b1000101100001011101101000000000 7"
b1000101100001011101101000000000 h"
b1111110101000000 &"
b1111110101000000 D"
b1111110101000000 i"
b10101000000000000000000000000000 F"
b1010 E"
1S"
b101000000 O"
1T"
b0 M"
b10101000000 K"
1Q"
b11100000000000110011000010010010 )
b11100000000000110011000010010010 5
b11100000000000110011000010010010 %"
b11100000000000110011000010010010 ~"
b11000 ""
b11000 \"
b11000 ^"
b10110001111111000001000 2"
b10110001111110101000000 /"
b10110001111110101000000 y
b10110001111110101000000 5"
b10110001111110101000000 B"
b10110001111110101000000 v"
b11100 ~
b11100 Z"
b11100 n"
b11000 !"
b11000 V"
b11000 X"
b11000 ["
b10100 (
b10100 1
b10100 #"
b10100 W"
b10100 _"
b10100 }"
1$
#75
0$
#80
b0 7
b0 D
b0 O
b0 d
b0 '"
b0 C"
0@"
b0 ]
b10000000 0"
b10000000 x
b10000000 4"
b10000000 A"
b10000000 y"
0S"
0Q"
19
b0 K
b0 c
b0 !
b0 &
b0 +
b0 w
b0 u"
b0 w"
b0 |"
b1010010 r
b0 :
b0 G
b0 R
b0 e
b0 +"
b0 6"
01"
b10000000 z
b10000000 ]"
b10000000 l"
b10000000 s"
b10000000 ("
b10000000 ;"
b10000000 x"
b0 |
b0 g"
b0 p"
b0 }
b0 c"
b0 o"
b101000 f
b1 i
b0 ;
b0 H
b0 n
b0 s
b0 ,"
b10000000 #
b10000000 *
b10000000 2
b10000000 $"
b10000000 j"
b10000000 k"
b10000000 z"
b100000000001000010000000 :"
b1 q"
b1 e"
b0 d"
b0 `"
b11100010100000000001 <
b1000 =
b1000 g
b10000000 *"
b10000000 7"
b10000000 h"
b10000000 &"
b10000000 D"
b10000000 i"
b11000000000000000000000000000000 F"
b1010 E"
b10010000000 O"
b0 J"
b10010000000 M"
b10000000000 K"
b0 H"
b11100010100000000001000010000000 )
b11100010100000000001000010000000 5
b11100010100000000001000010000000 %"
b11100010100000000001000010000000 ~"
b11100 ""
b11100 \"
b11100 ^"
b10000000 2"
b0 /"
b0 y
b0 5"
b0 B"
b0 v"
b100000 ~
b100000 Z"
b100000 n"
b11100 !"
b11100 V"
b11100 X"
b11100 ["
b11000 (
b11000 1
b11000 #"
b11000 W"
b11000 _"
b11000 }"
1$
#85
0$
#90
b0 Z
0."
0-"
b0 ]
b100000000000000 z
b100000000000000 ]"
b100000000000000 l"
b100000000000000 s"
b10010000000 &"
b10010000000 D"
b10010000000 i"
b1 J"
b10000000 O"
0T"
b10010000000 M"
b10010000000 K"
09
b0 K
b0 c
b100000000000000 #
b100000000000000 *
b100000000000000 2
b100000000000000 $"
b100000000000000 j"
b100000000000000 k"
b100000000000000 z"
b10000000 0"
b10000000 x
b10000000 4"
b10000000 A"
b10000000 y"
b10000000 !
b10000000 &
b10000000 +
b10000000 w
b10000000 u"
b10000000 w"
b10000000 |"
b10000000 /"
b10000000 y
b10000000 5"
b10000000 B"
b10000000 v"
b10010 r
b0 :
b0 G
b0 R
b0 e
b0 +"
b0 6"
01"
b100000000000000 *"
b100000000000000 7"
b100000000000000 h"
b100000000 2"
b10010001 ("
b10010001 ;"
b10010001 x"
b1 |
b1 g"
b1 p"
b1 }
b1 c"
b1 o"
b0 f
b10 i
03
b100 ;
b100 H
b100 n
b100 s
b100 ,"
b10010000010010001 :"
b10 q"
b10 e"
b1 d"
b1 `"
b11100000000000010010 <
b1001 =
b1001 g
b11100000000000010010000010010001 )
b11100000000000010010000010010001 5
b11100000000000010010000010010001 %"
b11100000000000010010000010010001 ~"
b100000 ""
b100000 \"
b100000 ^"
b100100 ~
b100100 Z"
b100100 n"
b100000 !"
b100000 V"
b100000 X"
b100000 ["
b11100 (
b11100 1
b11100 #"
b11100 W"
b11100 _"
b11100 }"
1$
#95
0$
#100
b10000 I"
b1000000000000000 z
b1000000000000000 ]"
b1000000000000000 l"
b1000000000000000 s"
b100000000000000 0"
b100000000000000 x
b100000000000000 4"
b100000000000000 A"
b100000000000000 y"
b100010000000000 &"
b100010000000000 D"
b100010000000000 i"
b0 O"
b10000000000 M"
b10001 J"
b10000000000 K"
b10000 H"
b1000000000000000 #
b1000000000000000 *
b1000000000000000 2
b1000000000000000 $"
b1000000000000000 j"
b1000000000000000 k"
b1000000000000000 z"
b100000000000000 !
b100000000000000 &
b100000000000000 +
b100000000000000 w
b100000000000000 u"
b100000000000000 w"
b100000000000000 |"
b1000000000000000 2"
b100000000000000 /"
b100000000000000 y
b100000000000000 5"
b100000000000000 B"
b100000000000000 v"
b1000000000000000 *"
b1000000000000000 7"
b1000000000000000 h"
b10 ("
b10 ;"
b10 x"
b10 |
b10 g"
b10 p"
b10 }
b10 c"
b10 o"
b1000 f
b0 ;
b0 H
b0 n
b0 s
b0 ,"
b100000100010000000000010 :"
b10 d"
b10 `"
b11100000100000100010 <
b0 =
b0 g
b11100000100000100010000000000010 )
b11100000100000100010000000000010 5
b11100000100000100010000000000010 %"
b11100000100000100010000000000010 ~"
b100100 ""
b100100 \"
b100100 ^"
b101000 ~
b101000 Z"
b101000 n"
b100100 !"
b100100 V"
b100100 X"
b100100 ["
b100000 (
b100000 1
b100000 #"
b100000 W"
b100000 _"
b100000 }"
1$
#105
0$
#110
b0 ]
b0 K
b0 c
b0 :
b0 G
b0 R
b0 e
b0 +"
b0 6"
01"
b10000000000000000000000000000000 F"
b111 E"
1T"
b10010000000 M"
b1 ;
b1 H
b1 n
b1 s
b1 ,"
b111111110000000 z
b111111110000000 ]"
b111111110000000 l"
b111111110000000 s"
b0 7
b0 D
b0 O
b0 d
b0 '"
b0 C"
0@"
b1 ("
b1 ;"
b1 x"
b1 |
b1 g"
b1 p"
b100 f
b1 i
b111111110000000 #
b111111110000000 *
b111111110000000 2
b111111110000000 $"
b111111110000000 j"
b111111110000000 k"
b111111110000000 z"
b10000100001000000000001 :"
b1 q"
b1 e"
b1 d"
b11100000010000100001 <
b111111110000000 *"
b111111110000000 7"
b111111110000000 h"
b111010000000000 &"
b111010000000000 D"
b111010000000000 i"
0S"
b0 O"
b11111111111111111111111111111101 J"
b0 I"
b0 H"
0R"
1Q"
b10000000 0"
b10000000 x
b10000000 4"
b10000000 A"
b10000000 y"
b11100000010000100001000000000001 )
b11100000010000100001000000000001 5
b11100000010000100001000000000001 %"
b11100000010000100001000000000001 ~"
b101000 ""
b101000 \"
b101000 ^"
b111111110000000 2"
b1000000000000000 /"
b1000000000000000 y
b1000000000000000 5"
b1000000000000000 B"
b1000000000000000 v"
b10000000 !
b10000000 &
b10000000 +
b10000000 w
b10000000 u"
b10000000 w"
b10000000 |"
b101100 ~
b101100 Z"
b101100 n"
b101000 !"
b101000 V"
b101000 X"
b101000 ["
b100100 (
b100100 1
b100100 #"
b100100 W"
b100100 _"
b100100 }"
1$
#115
0$
#120
0."
b0 Z
1R"
b0 ]
b111111110000000000000000000000 z
b111111110000000000000000000000 ]"
b111111110000000000000000000000 l"
b111111110000000000000000000000 s"
0-"
1T"
b11111 H"
0Q"
03"
b0 K
b0 c
b111111110000000000000000000000 #
b111111110000000000000000000000 *
b111111110000000000000000000000 2
b111111110000000000000000000000 $"
b111111110000000000000000000000 j"
b111111110000000000000000000000 k"
b111111110000000000000000000000 z"
b111111110000000 /"
b111111110000000 y
b111111110000000 5"
b111111110000000 B"
b111111110000000 v"
b0 :
b0 G
b0 R
b0 e
b0 +"
b0 6"
01"
b111111110000000000000000000000 *"
b111111110000000000000000000000 7"
b111111110000000000000000000000 h"
b1111111110000000 2"
b10010010 ("
b10010010 ;"
b10010010 x"
b10 |
b10 g"
b10 p"
b1 }
b1 c"
b1 o"
b0 f
b100 i
b100 ;
b100 H
b100 n
b100 s
b100 ,"
b111111110000000 &"
b111111110000000 D"
b111111110000000 i"
b11110000000000000000000000000000 F"
b1010 E"
b1110000000 O"
b11110000000 K"
b11111 J"
b0 M"
b0 I"
b10100000010010010 :"
b100 q"
b100 e"
b10 d"
b1 `"
b11100000000000010100 <
b1001 =
b1001 g
b1000000000000000 0"
b1000000000000000 x
b1000000000000000 4"
b1000000000000000 A"
b1000000000000000 y"
b11100000000000010100000010010010 )
b11100000000000010100000010010010 5
b11100000000000010100000010010010 %"
b11100000000000010100000010010010 ~"
b101100 ""
b101100 \"
b101100 ^"
b1000000000000000 !
b1000000000000000 &
b1000000000000000 +
b1000000000000000 w
b1000000000000000 u"
b1000000000000000 w"
b1000000000000000 |"
b110000 ~
b110000 Z"
b110000 n"
b101100 !"
b101100 V"
b101100 X"
b101100 ["
b101000 (
b101000 1
b101000 #"
b101000 W"
b101000 _"
b101000 }"
1$
#125
0$
#130
1."
0-"
b1111111 I"
0R"
b1 G"
13"
b1 8
b1 F
b1 o
b1 t
b1 <"
b0 ]
b1000101100001011110011000000000 z
b1000101100001011110011000000000 ]"
b1000101100001011110011000000000 l"
b1000101100001011110011000000000 s"
b111111110000000000000000000000 0"
b111111110000000000000000000000 x
b111111110000000000000000000000 4"
b111111110000000000000000000000 A"
b111111110000000000000000000000 y"
b1000101100001011110011000000000 &"
b1000101100001011110011000000000 D"
b1000101100001011110011000000000 i"
0S"
b1011110011000000000 O"
0T"
b10001011 J"
b110000000000 M"
b100001011101101000000000 K"
b10001011 H"
0Q"
0m
1,
b0 K
b0 c
b1000101100001011110011000000000 #
b1000101100001011110011000000000 *
b1000101100001011110011000000000 2
b1000101100001011110011000000000 $"
b1000101100001011110011000000000 j"
b1000101100001011110011000000000 k"
b1000101100001011110011000000000 z"
b111111110000000000000000000000 !
b111111110000000000000000000000 &
b111111110000000000000000000000 +
b111111110000000000000000000000 w
b111111110000000000000000000000 u"
b111111110000000000000000000000 w"
b111111110000000000000000000000 |"
b10000101010001011101101000000000 2"
b1000101100001011101101000000000 /"
b1000101100001011101101000000000 y
b1000101100001011101101000000000 5"
b1000101100001011101101000000000 B"
b1000101100001011101101000000000 v"
b10001 r
b1001 :
b1001 G
b1001 R
b1001 e
b1001 +"
b1001 6"
01"
b10000101010001011101101000000000 *"
b10000101010001011101101000000000 7"
b10000101010001011101101000000000 h"
b100 ("
b100 ;"
b100 x"
b100 |
b100 g"
b100 p"
b11 }
b11 c"
b11 o"
b11 h
b10 f
b101 i
b0 ;
b0 H
b0 n
b0 s
b0 ,"
b1000110101000000000100 :"
b101 q"
b101 e"
b100 d"
b11 `"
b11101100001000110101 <
b0 =
b0 g
b11101100001000110101000000000100 )
b11101100001000110101000000000100 5
b11101100001000110101000000000100 %"
b11101100001000110101000000000100 ~"
b110000 ""
b110000 \"
b110000 ^"
b110100 ~
b110100 Z"
b110100 n"
b110000 !"
b110000 V"
b110000 X"
b110000 ["
b101100 (
b101100 1
b101100 #"
b101100 W"
b101100 _"
b101100 }"
1$
#135
0$
