Single cycle processor/src/top.vcd
$date
	Mon Jul 26 22:00:26 2021
$end
$version
	Icarus Verilog
$end
$timescale
	1s
$end
$scope module testbench $end
$var wire 32 ! WriteData [31:0] $end
$var wire 1 " MemWrite $end
$var wire 32 # DataAdr [31:0] $end
$var reg 1 $ clk $end
$var reg 1 % reset $end
$scope module dut $end
$var wire 1 $ clk $end
$var wire 1 % reset $end
$var wire 32 & WriteData [31:0] $end
$var wire 32 ' ReadData [31:0] $end
$var wire 32 ( PC [31:0] $end
$var wire 1 " MemWrite $end
$var wire 32 ) Instr [31:0] $end
$var wire 32 * DataAdr [31:0] $end
$scope module arm $end
$var wire 1 $ clk $end
$var wire 1 % reset $end
$var wire 32 + WriteData [31:0] $end
$var wire 1 , ResSrc $end
$var wire 1 - RegWrite $end
$var wire 2 . RegSrc [1:0] $end
$var wire 32 / ReadData [31:0] $end
$var wire 1 0 PCSrc $end
$var wire 32 1 PC [31:0] $end
$var wire 32 2 OPResult [31:0] $end
$var wire 1 3 MemtoReg $end
$var wire 1 " MemWrite $end
$var wire 32 4 Instr [31:0] $end
$var wire 2 5 ImmSrc [1:0] $end
$var wire 4 6 FPUFlags [3:0] $end
$var wire 2 7 FPUControl [1:0] $end
$var wire 1 8 ALUSrc $end
$var wire 4 9 ALUFlags [3:0] $end
$var wire 2 : ALUControl [1:0] $end
$scope module c $end
$var wire 20 ; Instr [31:12] $end
$var wire 1 $ clk $end
$var wire 1 % reset $end
$var wire 1 , ResSrc $end
$var wire 1 - RegWrite $end
$var wire 1 < RegW $end
$var wire 2 = RegSrc [1:0] $end
$var wire 1 0 PCSrc $end
$var wire 1 > PCS $end
$var wire 1 3 MemtoReg $end
$var wire 1 " MemWrite $end
$var wire 1 ? MemW $end
$var wire 2 @ ImmSrc [1:0] $end
$var wire 2 A FlagW [1:0] $end
$var wire 1 B FlagSrc $end
$var wire 4 C FPUFlags [3:0] $end
$var wire 2 D FPUFlagW [1:0] $end
$var wire 2 E FPUControl [1:0] $end
$var wire 1 8 ALUSrc $end
$var wire 4 F ALUFlags [3:0] $end
$var wire 2 G ALUControl [1:0] $end
$scope module cl $end
$var wire 4 H Cond [3:0] $end
$var wire 2 I FlagWrite [1:0] $end
$var wire 1 " MemWrite $end
$var wire 1 0 PCSrc $end
$var wire 1 - RegWrite $end
$var wire 1 $ clk $end
$var wire 1 % reset $end
$var wire 1 < RegW $end
$var wire 1 > PCS $end
$var wire 1 ? MemW $end
$var wire 4 J Flagsmux [3:0] $end
$var wire 4 K Flags [3:0] $end
$var wire 2 L FlagWmux [1:0] $end
$var wire 2 M FlagW [1:0] $end
$var wire 1 B FlagSrc $end
$var wire 4 N FPUFlags [3:0] $end
$var wire 2 O FPUFlagW [1:0] $end
$var wire 1 P CondEx $end
$var wire 4 Q ALUFlags [3:0] $end
$scope module cc $end
$var wire 4 R Cond [3:0] $end
$var wire 4 S Flags [3:0] $end
$var wire 1 T ge $end
$var wire 1 U zero $end
$var wire 1 V overflow $end
$var wire 1 W neg $end
$var wire 1 X carry $end
$var reg 1 P CondEx $end
$upscope $end
$scope module flagreg0 $end
$var wire 1 $ clk $end
$var wire 2 Y d [1:0] $end
$var wire 1 Z en $end
$var wire 1 % reset $end
$var reg 2 [ q [1:0] $end
$upscope $end
$scope module flagreg1 $end
$var wire 1 $ clk $end
$var wire 2 \ d [1:0] $end
$var wire 1 ] en $end
$var wire 1 % reset $end
$var reg 2 ^ q [1:0] $end
$upscope $end
$scope module muxFlagW $end
$var wire 2 _ y [1:0] $end
$var wire 1 B s $end
$var wire 2 ` d1 [1:0] $end
$var wire 2 a d0 [1:0] $end
$upscope $end
$scope module muxFlags $end
$var wire 4 b y [3:0] $end
$var wire 1 B s $end
$var wire 4 c d1 [3:0] $end
$var wire 4 d d0 [3:0] $end
$upscope $end
$upscope $end
$scope module dec $end
$var wire 6 e Funct [5:0] $end
$var wire 2 f Op [1:0] $end
$var wire 1 > PCS $end
$var wire 4 g Rd [3:0] $end
$var wire 1 , ResSrc $end
$var wire 1 < RegW $end
$var wire 2 h RegSrc [1:0] $end
$var wire 1 3 MemtoReg $end
$var wire 1 ? MemW $end
$var wire 2 i ImmSrc [1:0] $end
$var wire 1 B FlagSrc $end
$var wire 1 j FPUOp $end
$var wire 1 k Branch $end
$var wire 1 8 ALUSrc $end
$var wire 1 l ALUOp $end
$var reg 2 m ALUControl [1:0] $end
$var reg 2 n FPUControl [1:0] $end
$var reg 2 o FPUFlagW [1:0] $end
$var reg 2 p FlagW [1:0] $end
$var reg 13 q controls [12:0] $end
$upscope $end
$upscope $end
$scope module dp $end
$var wire 2 r ALUControl [1:0] $end
$var wire 1 8 ALUSrc $end
$var wire 2 s FPUControl [1:0] $end
$var wire 2 t ImmSrc [1:0] $end
$var wire 1 3 MemtoReg $end
$var wire 1 0 PCSrc $end
$var wire 2 u RegSrc [1:0] $end
$var wire 1 - RegWrite $end
$var wire 1 , ResSrc $end
$var wire 1 $ clk $end
$var wire 1 % reset $end
$var wire 32 v WriteData [31:0] $end
$var wire 32 w SrcB [31:0] $end
$var wire 32 x SrcA [31:0] $end
$var wire 32 y Result [31:0] $end
$var wire 32 z ReadData [31:0] $end
$var wire 4 { RA2 [3:0] $end
$var wire 4 | RA1 [3:0] $end
$var wire 32 } PCPlus8 [31:0] $end
$var wire 32 ~ PCPlus4 [31:0] $end
$var wire 32 !" PCNext [31:0] $end
$var wire 32 "" PC [31:0] $end
$var wire 32 #" OPResult [31:0] $end
$var wire 32 $" Instr [31:0] $end
$var wire 32 %" FPUResult [31:0] $end
$var wire 4 &" FPUFlags [3:0] $end
$var wire 32 '" ExtImm [31:0] $end
$var wire 32 (" ALUResult [31:0] $end
$var wire 4 )" ALUFlags [3:0] $end
$scope module alu $end
$var wire 2 *" ALUControl [1:0] $end
$var wire 1 +" carry $end
$var wire 1 ," overflow $end
$var wire 1 -" zero $end
$var wire 33 ." sum [32:0] $end
$var wire 1 /" neg $end
$var wire 32 0" b [31:0] $end
$var wire 32 1" a [31:0] $end
$var wire 4 2" ALUFlags [3:0] $end
$var reg 32 3" Result [31:0] $end
$upscope $end
$scope module ext $end
$var wire 2 4" ImmSrc [1:0] $end
$var wire 24 5" Instr [23:0] $end
$var reg 32 6" ExtImm [31:0] $end
$upscope $end
$scope module fpu $end
$var wire 2 7" FPUControl [1:0] $end
$var wire 1 8" carry $end
$var wire 1 9" overflow $end
$var wire 1 :" zero $end
$var wire 1 ;" neg $end
$var wire 32 <" b [31:0] $end
$var wire 32 =" a [31:0] $end
$var wire 4 >" FPUFlags [3:0] $end
$var reg 32 ?" Result [31:0] $end
$var reg 32 @" aux [31:0] $end
$var reg 48 A" aux2 [47:0] $end
$var reg 2 B" control [1:0] $end
$var reg 32 C" expoA [31:0] $end
$var reg 32 D" expoB [31:0] $end
$var reg 32 E" expoR [31:0] $end
$var reg 32 F" mantA [31:0] $end
$var reg 32 G" mantAshift [31:0] $end
$var reg 32 H" mantB [31:0] $end
$var reg 32 I" mantBshift [31:0] $end
$var reg 32 J" mantR [31:0] $end
$var reg 48 K" productoPosible [47:0] $end
$var reg 1 L" signA $end
$var reg 1 M" signB $end
$var reg 1 N" signR $end
$var reg 1 O" sumaResta $end
$upscope $end
$scope module pcadd1 $end
$var wire 32 P" b [31:0] $end
$var wire 32 Q" y [31:0] $end
$var wire 32 R" a [31:0] $end
$upscope $end
$scope module pcadd2 $end
$var wire 32 S" a [31:0] $end
$var wire 32 T" b [31:0] $end
$var wire 32 U" y [31:0] $end
$upscope $end
$scope module pcmux $end
$var wire 32 V" d0 [31:0] $end
$var wire 1 0 s $end
$var wire 32 W" y [31:0] $end
$var wire 32 X" d1 [31:0] $end
$upscope $end
$scope module pcreg $end
$var wire 1 $ clk $end
$var wire 32 Y" d [31:0] $end
$var wire 1 % reset $end
$var reg 32 Z" q [31:0] $end
$upscope $end
$scope module ra1mux $end
$var wire 4 [" d0 [3:0] $end
$var wire 4 \" d1 [3:0] $end
$var wire 1 ]" s $end
$var wire 4 ^" y [3:0] $end
$upscope $end
$scope module ra2mux $end
$var wire 4 _" d0 [3:0] $end
$var wire 4 `" d1 [3:0] $end
$var wire 1 a" s $end
$var wire 4 b" y [3:0] $end
$upscope $end
$scope module resSrcmux $end
$var wire 32 c" d0 [31:0] $end
$var wire 32 d" d1 [31:0] $end
$var wire 1 , s $end
$var wire 32 e" y [31:0] $end
$upscope $end
$scope module resmux $end
$var wire 32 f" d0 [31:0] $end
$var wire 1 3 s $end
$var wire 32 g" y [31:0] $end
$var wire 32 h" d1 [31:0] $end
$upscope $end
$scope module rf $end
$var wire 1 $ clk $end
$var wire 32 i" r15 [31:0] $end
$var wire 4 j" ra1 [3:0] $end
$var wire 4 k" ra2 [3:0] $end
$var wire 4 l" wa3 [3:0] $end
$var wire 32 m" wd3 [31:0] $end
$var wire 1 - we3 $end
$var wire 32 n" rd2 [31:0] $end
$var wire 32 o" rd1 [31:0] $end
$upscope $end
$scope module srcbmux $end
$var wire 32 p" d0 [31:0] $end
$var wire 32 q" d1 [31:0] $end
$var wire 1 8 s $end
$var wire 32 r" y [31:0] $end
$upscope $end
$upscope $end
$upscope $end
$scope module dmem $end
$var wire 32 s" a [31:0] $end
$var wire 1 $ clk $end
$var wire 32 t" rd [31:0] $end
$var wire 32 u" wd [31:0] $end
$var wire 1 " we $end
$upscope $end
$scope module imem $end
$var wire 32 v" a [31:0] $end
$var wire 32 w" rd [31:0] $end
$upscope $end
$upscope $end
$upscope $end
$enddefinitions $end
#0
$dumpvars
b11100000010011110001000000001111 w"
b0 v"
b1000 u"
bx t"
b0 s"
b1000 r"
b1111 q"
b1000 p"
b1000 o"
b1000 n"
b0 m"
b1 l"
b1111 k"
b1111 j"
b1000 i"
bx h"
b0 g"
b0 f"
b0 e"
b0 d"
b10000001000 c"
b1111 b"
0a"
b1 `"
b1111 _"
b1111 ^"
0]"
b1111 \"
b1111 ["
b0 Z"
b100 Y"
b0 X"
b100 W"
b100 V"
b1000 U"
b100 T"
b100 S"
b0 R"
b100 Q"
b100 P"
0O"
0N"
0M"
0L"
bx K"
b1000 J"
bx I"
b10000001000 H"
bx G"
b10000001000 F"
b1 E"
b0 D"
b0 C"
b0 B"
bx A"
bx @"
b10000001000 ?"
b0 >"
b1000 ="
b1000 <"
0;"
0:"
09"
08"
b0 7"
b1111 6"
b10011110001000000001111 5"
b0 4"
b0 3"
b100 2"
b1000 1"
b1000 0"
0/"
b0 ."
1-"
0,"
0+"
b1 *"
b100 )"
b0 ("
b1111 '"
b0 &"
b10000001000 %"
b11100000010011110001000000001111 $"
b0 #"
b0 ""
b100 !"
b100 ~
b1000 }
b1111 |
b1111 {
bx z
b0 y
b1000 x
b1000 w
b1000 v
b0 u
b0 t
b0 s
b1 r
b1001010 q
b0 p
b0 o
b0 n
b1 m
1l
0k
0j
b0 i
b0 h
b1 g
b0 f
b100 e
b100 d
b0 c
b100 b
b0 a
b0 `
b0 _
b0 ^
0]
b1 \
b0 [
0Z
b0 Y
0X
0W
0V
0U
1T
b0 S
b1110 R
b100 Q
1P
b0 O
b0 N
b0 M
b0 L
b0 K
b100 J
b0 I
b1110 H
b1 G
b100 F
b0 E
b0 D
b0 C
0B
b0 A
b0 @
0?
0>
b0 =
1<
b11100000010011110001 ;
b1 :
b100 9
08
b0 7
b0 6
b0 5
b11100000010011110001000000001111 4
03
b0 2
b0 1
00
bx /
b0 .
1-
1,
b1000 +
b0 *
b11100000010011110001000000001111 )
b0 (
bx '
b1000 &
1%
1$
b0 #
0"
b1000 !
$end
#5
0$
#10
1$
#15
0$
#20
1$
#22
0%
#25
0$
#30
0,"
b0 Y
0+"
0/"
18
b0 :
b0 G
b0 m
b0 r
b0 *"
b101001010 q
b0 \
b11111111 y
b11111111 X"
b11111111 g"
b11111111 m"
b11111111 '"
b11111111 6"
b11111111 q"
b1 |
b1 ^"
b1 j"
b101000 e
b10 g
b0 J
b0 b
b11111111 #
b11111111 *
b11111111 2
b11111111 #"
b11111111 e"
b11111111 f"
b11111111 s"
b100000010010000011111111 5"
b10 l"
b10 `"
b1 ["
b11100010100000010010 ;
b0 9
b0 F
b0 Q
b0 d
b0 )"
b0 2"
0-"
b11111111 ("
b11111111 3"
b11111111 d"
b11111111 %"
b11111111 ?"
b11111111 c"
b10011111111 J"
b0 E"
b10011111111 H"
b10000000000 F"
b11111111 w
b11111111 0"
b11111111 <"
b11111111 r"
b11100010100000010010000011111111 )
b11100010100000010010000011111111 4
b11100010100000010010000011111111 $"
b11100010100000010010000011111111 w"
b11111111 ."
b0 x
b0 1"
b0 ="
b0 o"
b1100 !
b1100 &
b1100 +
b1100 v
b1100 n"
b1100 p"
b1100 u"
b1000 !"
b1000 W"
b1000 Y"
b1100 }
b1100 U"
b1100 i"
b1000 ~
b1000 Q"
b1000 S"
b1000 V"
b100 (
b100 1
b100 ""
b100 R"
b100 Z"
b100 v"
1$
#35
0$
#40
b100000000 y
b100000000 X"
b100000000 g"
b100000000 m"
b100000000 #
b100000000 *
b100000000 2
b100000000 #"
b100000000 e"
b100000000 f"
b100000000 s"
b100000000 ("
b100000000 3"
b100000000 d"
b10010000000 %"
b10010000000 ?"
b10010000000 c"
b1 E"
b10000000 J"
b10000000001 H"
b10011111111 F"
b1 w
b1 0"
b1 <"
b1 r"
b100000000 ."
b11111111 x
b11111111 1"
b11111111 ="
b11111111 o"
b1 '"
b1 6"
b1 q"
b1 {
b1 b"
b1 k"
b10 |
b10 ^"
b10 j"
b100000100010000000000001 5"
b1 _"
b10 ["
b11100010100000100010 ;
b11100010100000100010000000000001 )
b11100010100000100010000000000001 4
b11100010100000100010000000000001 $"
b11100010100000100010000000000001 w"
b0 !
b0 &
b0 +
b0 v
b0 n"
b0 p"
b0 u"
b1100 !"
b1100 W"
b1100 Y"
b10000 }
b10000 U"
b10000 i"
b1100 ~
b1100 Q"
b1100 S"
b1100 V"
b1000 (
b1000 1
b1000 ""
b1000 R"
b1000 Z"
b1000 v"
1$
#45
0$
#50
b10100000000 %"
b10100000000 ?"
b10100000000 c"
b10100000000 H"
08
b100000000 w
b100000000 0"
b100000000 <"
b100000000 r"
b100000000 !
b100000000 &
b100000000 +
b100000000 v
b100000000 n"
b100000000 p"
b100000000 u"
b1001010 q
b1000000000 y
b1000000000 X"
b1000000000 g"
b1000000000 m"
b10 '"
b10 6"
b10 q"
b10 {
b10 b"
b10 k"
b1000 e
b1000000000 #
b1000000000 *
b1000000000 2
b1000000000 #"
b1000000000 e"
b1000000000 f"
b1000000000 s"
b100000100010000000000010 5"
b10 _"
b11100000100000100010 ;
b1000000000 ("
b1000000000 3"
b1000000000 d"
b100000000 J"
b1 E"
b10100000000 F"
b11100000100000100010000000000010 )
b11100000100000100010000000000010 4
b11100000100000100010000000000010 $"
b11100000100000100010000000000010 w"
b10000 !"
b10000 W"
b10000 Y"
b1000000000 ."
b100000000 x
b100000000 1"
b100000000 ="
b100000000 o"
b10100 }
b10100 U"
b10100 i"
b10000 ~
b10000 Q"
b10000 S"
b10000 V"
b1100 (
b1100 1
b1100 ""
b1100 R"
b1100 Z"
b1100 v"
1$
#55
0$
#60
b10000000000 y
b10000000000 X"
b10000000000 g"
b10000000000 m"
b10000000000 #
b10000000000 *
b10000000000 2
b10000000000 #"
b10000000000 e"
b10000000000 f"
b10000000000 s"
b10000000000 ("
b10000000000 3"
b10000000000 d"
b11000000000 %"
b11000000000 ?"
b11000000000 c"
b1000000000 J"
b1 E"
b11000000000 H"
b11000000000 F"
b1000000000 w
b1000000000 0"
b1000000000 <"
b1000000000 r"
b10100 !"
b10100 W"
b10100 Y"
b10000000000 ."
b1000000000 x
b1000000000 1"
b1000000000 ="
b1000000000 o"
b1000000000 !
b1000000000 &
b1000000000 +
b1000000000 v
b1000000000 n"
b1000000000 p"
b1000000000 u"
b11000 }
b11000 U"
b11000 i"
b10100 ~
b10100 Q"
b10100 S"
b10100 V"
b10000 (
b10000 1
b10000 ""
b10000 R"
b10000 Z"
b10000 v"
1$
#65
0$
#70
b100000000000 y
b100000000000 X"
b100000000000 g"
b100000000000 m"
b100000000000 #
b100000000000 *
b100000000000 2
b100000000000 #"
b100000000000 e"
b100000000000 f"
b100000000000 s"
b100000000000 ("
b100000000000 3"
b100000000000 d"
b100000000000 %"
b100000000000 ?"
b100000000000 c"
b10 E"
b0 J"
b10000000000 H"
b10000000000 F"
b1 D"
b1 C"
b10000000000 w
b10000000000 0"
b10000000000 <"
b10000000000 r"
b11000 !"
b11000 W"
b11000 Y"
b100000000000 ."
b10000000000 x
b10000000000 1"
b10000000000 ="
b10000000000 o"
b10000000000 !
b10000000000 &
b10000000000 +
b10000000000 v
b10000000000 n"
b10000000000 p"
b10000000000 u"
b11100 }
b11100 U"
b11100 i"
b11000 ~
b11000 Q"
b11000 S"
b11000 V"
b10100 (
b10100 1
b10100 ""
b10100 R"
b10100 Z"
b10100 v"
1$
#75
0$
#80
b1000000000000 y
b1000000000000 X"
b1000000000000 g"
b1000000000000 m"
b1000000000000 #
b1000000000000 *
b1000000000000 2
b1000000000000 #"
b1000000000000 e"
b1000000000000 f"
b1000000000000 s"
b1000000000000 ("
b1000000000000 3"
b1000000000000 d"
b110000000000 %"
b110000000000 ?"
b110000000000 c"
b11 E"
b0 J"
b10 D"
b10 C"
b100000000000 w
b100000000000 0"
b100000000000 <"
b100000000000 r"
b11100 !"
b11100 W"
b11100 Y"
b1000000000000 ."
b100000000000 x
b100000000000 1"
b100000000000 ="
b100000000000 o"
b100000000000 !
b100000000000 &
b100000000000 +
b100000000000 v
b100000000000 n"
b100000000000 p"
b100000000000 u"
b100000 }
b100000 U"
b100000 i"
b11100 ~
b11100 Q"
b11100 S"
b11100 V"
b11000 (
b11000 1
b11000 ""
b11000 R"
b11000 Z"
b11000 v"
1$
#85
0$
#90
b10000000000000 y
b10000000000000 X"
b10000000000000 g"
b10000000000000 m"
b10000000000000 #
b10000000000000 *
b10000000000000 2
b10000000000000 #"
b10000000000000 e"
b10000000000000 f"
b10000000000000 s"
b10000000000000 ("
b10000000000000 3"
b10000000000000 d"
b1010000000000 %"
b1010000000000 ?"
b1010000000000 c"
b0 J"
b101 E"
b100 D"
b100 C"
b1000000000000 w
b1000000000000 0"
b1000000000000 <"
b1000000000000 r"
b100000 !"
b100000 W"
b100000 Y"
b10000000000000 ."
b1000000000000 x
b1000000000000 1"
b1000000000000 ="
b1000000000000 o"
b1000000000000 !
b1000000000000 &
b1000000000000 +
b1000000000000 v
b1000000000000 n"
b1000000000000 p"
b1000000000000 u"
b100100 }
b100100 U"
b100100 i"
b100000 ~
b100000 Q"
b100000 S"
b100000 V"
b11100 (
b11100 1
b11100 ""
b11100 R"
b11100 Z"
b11100 v"
1$
#95
0$
#100
b100000000000000 y
b100000000000000 X"
b100000000000000 g"
b100000000000000 m"
b100000000000000 #
b100000000000000 *
b100000000000000 2
b100000000000000 #"
b100000000000000 e"
b100000000000000 f"
b100000000000000 s"
b100000000000000 ("
b100000000000000 3"
b100000000000000 d"
b10010000000000 %"
b10010000000000 ?"
b10010000000000 c"
b0 J"
b1001 E"
b1000 D"
b1000 C"
b10000000000000 w
b10000000000000 0"
b10000000000000 <"
b10000000000000 r"
b100100 !"
b100100 W"
b100100 Y"
b100000000000000 ."
b10000000000000 x
b10000000000000 1"
b10000000000000 ="
b10000000000000 o"
b10000000000000 !
b10000000000000 &
b10000000000000 +
b10000000000000 v
b10000000000000 n"
b10000000000000 p"
b10000000000000 u"
b101000 }
b101000 U"
b101000 i"
b100100 ~
b100100 Q"
b100100 S"
b100100 V"
b100000 (
b100000 1
b100000 ""
b100000 R"
b100000 Z"
b100000 v"
1$
#105
0$
#110
b1000000000000000 y
b1000000000000000 X"
b1000000000000000 g"
b1000000000000000 m"
b1000000000000000 #
b1000000000000000 *
b1000000000000000 2
b1000000000000000 #"
b1000000000000000 e"
b1000000000000000 f"
b1000000000000000 s"
b1000000000000000 ("
b1000000000000000 3"
b1000000000000000 d"
b100010000000000 %"
b100010000000000 ?"
b100010000000000 c"
b0 J"
b10001 E"
b10000 D"
b10000 C"
b100000000000000 w
b100000000000000 0"
b100000000000000 <"
b100000000000000 r"
b101000 !"
b101000 W"
b101000 Y"
b1000000000000000 ."
b100000000000000 x
b100000000000000 1"
b100000000000000 ="
b100000000000000 o"
b100000000000000 !
b100000000000000 &
b100000000000000 +
b100000000000000 v
b100000000000000 n"
b100000000000000 p"
b100000000000000 u"
b101100 }
b101100 U"
b101100 i"
b101000 ~
b101000 Q"
b101000 S"
b101000 V"
b100100 (
b100100 1
b100100 ""
b100100 R"
b100100 Z"
b100100 v"
1$
#115
0$
#120
b10000000000000000 y
b10000000000000000 X"
b10000000000000000 g"
b10000000000000000 m"
b1000 6
b1000 C
b1000 N
b1000 c
b1000 &"
b1000 >"
1;"
b10000000000000000 #
b10000000000000000 *
b10000000000000000 2
b10000000000000000 #"
b10000000000000000 e"
b10000000000000000 f"
b10000000000000000 s"
b10000000000000000 ("
b10000000000000000 3"
b10000000000000000 d"
b1000010000000000 %"
b1000010000000000 ?"
b1000010000000000 c"
1N"
b0 J"
b1 E"
b0 D"
b0 C"
1M"
1L"
b1000000000000000 w
b1000000000000000 0"
b1000000000000000 <"
b1000000000000000 r"
b101100 !"
b101100 W"
b101100 Y"
b10000000000000000 ."
b1000000000000000 x
b1000000000000000 1"
b1000000000000000 ="
b1000000000000000 o"
b1000000000000000 !
b1000000000000000 &
b1000000000000000 +
b1000000000000000 v
b1000000000000000 n"
b1000000000000000 p"
b1000000000000000 u"
b110000 }
b110000 U"
b110000 i"
b101100 ~
b101100 Q"
b101100 S"
b101100 V"
b101000 (
b101000 1
b101000 ""
b101000 R"
b101000 Z"
b101000 v"
1$
#125
0$
#130
b100000000000000000 y
b100000000000000000 X"
b100000000000000000 g"
b100000000000000000 m"
b0 6
b0 C
b0 N
b0 c
b0 &"
b0 >"
0;"
b100000000000000000 #
b100000000000000000 *
b100000000000000000 2
b100000000000000000 #"
b100000000000000000 e"
b100000000000000000 f"
b100000000000000000 s"
b100000000000000000 ("
b100000000000000000 3"
b100000000000000000 d"
b10000000000 %"
b10000000000 ?"
b10000000000 c"
0N"
b0 J"
b1 E"
0M"
0L"
b10000000000000000 w
b10000000000000000 0"
b10000000000000000 <"
b10000000000000000 r"
b110000 !"
b110000 W"
b110000 Y"
b100000000000000000 ."
b10000000000000000 x
b10000000000000000 1"
b10000000000000000 ="
b10000000000000000 o"
b10000000000000000 !
b10000000000000000 &
b10000000000000000 +
b10000000000000000 v
b10000000000000000 n"
b10000000000000000 p"
b10000000000000000 u"
b110100 }
b110100 U"
b110100 i"
b110000 ~
b110000 Q"
b110000 S"
b110000 V"
b101100 (
b101100 1
b101100 ""
b101100 R"
b101100 Z"
b101100 v"
1$
#135
0$
#140
b1000000000000000000 y
b1000000000000000000 X"
b1000000000000000000 g"
b1000000000000000000 m"
b1000000000000000000 #
b1000000000000000000 *
b1000000000000000000 2
b1000000000000000000 #"
b1000000000000000000 e"
b1000000000000000000 f"
b1000000000000000000 s"
b1000000000000000000 ("
b1000000000000000000 3"
b1000000000000000000 d"
b0 J"
b1 E"
b100000000000000000 w
b100000000000000000 0"
b100000000000000000 <"
b100000000000000000 r"
b110100 !"
b110100 W"
b110100 Y"
b1000000000000000000 ."
b100000000000000000 x
b100000000000000000 1"
b100000000000000000 ="
b100000000000000000 o"
b100000000000000000 !
b100000000000000000 &
b100000000000000000 +
b100000000000000000 v
b100000000000000000 n"
b100000000000000000 p"
b100000000000000000 u"
b111000 }
b111000 U"
b111000 i"
b110100 ~
b110100 Q"
b110100 S"
b110100 V"
b110000 (
b110000 1
b110000 ""
b110000 R"
b110000 Z"
b110000 v"
1$
#145
0$
#150
b10000000000000000000 y
b10000000000000000000 X"
b10000000000000000000 g"
b10000000000000000000 m"
b10000000000000000000 #
b10000000000000000000 *
b10000000000000000000 2
b10000000000000000000 #"
b10000000000000000000 e"
b10000000000000000000 f"
b10000000000000000000 s"
b10000000000000000000 ("
b10000000000000000000 3"
b10000000000000000000 d"
b0 J"
b1 E"
b1000000000000000000 w
b1000000000000000000 0"
b1000000000000000000 <"
b1000000000000000000 r"
b111000 !"
b111000 W"
b111000 Y"
b10000000000000000000 ."
b1000000000000000000 x
b1000000000000000000 1"
b1000000000000000000 ="
b1000000000000000000 o"
b1000000000000000000 !
b1000000000000000000 &
b1000000000000000000 +
b1000000000000000000 v
b1000000000000000000 n"
b1000000000000000000 p"
b1000000000000000000 u"
b111100 }
b111100 U"
b111100 i"
b111000 ~
b111000 Q"
b111000 S"
b111000 V"
b110100 (
b110100 1
b110100 ""
b110100 R"
b110100 Z"
b110100 v"
1$
#155
0$
#160
b100000000000000000000 y
b100000000000000000000 X"
b100000000000000000000 g"
b100000000000000000000 m"
b100000000000000000000 #
b100000000000000000000 *
b100000000000000000000 2
b100000000000000000000 #"
b100000000000000000000 e"
b100000000000000000000 f"
b100000000000000000000 s"
b100000000000000000000 ("
b100000000000000000000 3"
b100000000000000000000 d"
b0 J"
b1 E"
b10000000000000000000 w
b10000000000000000000 0"
b10000000000000000000 <"
b10000000000000000000 r"
b111100 !"
b111100 W"
b111100 Y"
b100000000000000000000 ."
b10000000000000000000 x
b10000000000000000000 1"
b10000000000000000000 ="
b10000000000000000000 o"
b10000000000000000000 !
b10000000000000000000 &
b10000000000000000000 +
b10000000000000000000 v
b10000000000000000000 n"
b10000000000000000000 p"
b10000000000000000000 u"
b1000000 }
b1000000 U"
b1000000 i"
b111100 ~
b111100 Q"
b111100 S"
b111100 V"
b111000 (
b111000 1
b111000 ""
b111000 R"
b111000 Z"
b111000 v"
1$
#165
0$
#170
b1000000000000000000000 y
b1000000000000000000000 X"
b1000000000000000000000 g"
b1000000000000000000000 m"
b1000000000000000000000 #
b1000000000000000000000 *
b1000000000000000000000 2
b1000000000000000000000 #"
b1000000000000000000000 e"
b1000000000000000000000 f"
b1000000000000000000000 s"
b1000000000000000000000 ("
b1000000000000000000000 3"
b1000000000000000000000 d"
b0 J"
b1 E"
b100000000000000000000 w
b100000000000000000000 0"
b100000000000000000000 <"
b100000000000000000000 r"
b1000000 !"
b1000000 W"
b1000000 Y"
b1000000000000000000000 ."
b100000000000000000000 x
b100000000000000000000 1"
b100000000000000000000 ="
b100000000000000000000 o"
b100000000000000000000 !
b100000000000000000000 &
b100000000000000000000 +
b100000000000000000000 v
b100000000000000000000 n"
b100000000000000000000 p"
b100000000000000000000 u"
b1000100 }
b1000100 U"
b1000100 i"
b1000000 ~
b1000000 Q"
b1000000 S"
b1000000 V"
b111100 (
b111100 1
b111100 ""
b111100 R"
b111100 Z"
b111100 v"
1$
#175
0$
#180
b10000000000000000000000 y
b10000000000000000000000 X"
b10000000000000000000000 g"
b10000000000000000000000 m"
b10000000000000000000000 #
b10000000000000000000000 *
b10000000000000000000000 2
b10000000000000000000000 #"
b10000000000000000000000 e"
b10000000000000000000000 f"
b10000000000000000000000 s"
b10000000000000000000000 ("
b10000000000000000000000 3"
b10000000000000000000000 d"
b0 J"
b1 E"
b1000000000000000000000 w
b1000000000000000000000 0"
b1000000000000000000000 <"
b1000000000000000000000 r"
b1000100 !"
b1000100 W"
b1000100 Y"
b10000000000000000000000 ."
b1000000000000000000000 x
b1000000000000000000000 1"
b1000000000000000000000 ="
b1000000000000000000000 o"
b1000000000000000000000 !
b1000000000000000000000 &
b1000000000000000000000 +
b1000000000000000000000 v
b1000000000000000000000 n"
b1000000000000000000000 p"
b1000000000000000000000 u"
b1001000 }
b1001000 U"
b1001000 i"
b1000100 ~
b1000100 Q"
b1000100 S"
b1000100 V"
b1000000 (
b1000000 1
b1000000 ""
b1000000 R"
b1000000 Z"
b1000000 v"
1$
#185
0$
#190
b100000000000000000000000 y
b100000000000000000000000 X"
b100000000000000000000000 g"
b100000000000000000000000 m"
b100000000000000000000000 #
b100000000000000000000000 *
b100000000000000000000000 2
b100000000000000000000000 #"
b100000000000000000000000 e"
b100000000000000000000000 f"
b100000000000000000000000 s"
b100000000000000000000000 ("
b100000000000000000000000 3"
b100000000000000000000000 d"
b0 J"
b1 E"
b10000000000000000000000 w
b10000000000000000000000 0"
b10000000000000000000000 <"
b10000000000000000000000 r"
b1001000 !"
b1001000 W"
b1001000 Y"
b100000000000000000000000 ."
b10000000000000000000000 x
b10000000000000000000000 1"
b10000000000000000000000 ="
b10000000000000000000000 o"
b10000000000000000000000 !
b10000000000000000000000 &
b10000000000000000000000 +
b10000000000000000000000 v
b10000000000000000000000 n"
b10000000000000000000000 p"
b10000000000000000000000 u"
b1001100 }
b1001100 U"
b1001100 i"
b1001000 ~
b1001000 Q"
b1001000 S"
b1001000 V"
b1000100 (
b1000100 1
b1000100 ""
b1000100 R"
b1000100 Z"
b1000100 v"
1$
#195
0$
