Single cycle processor/src/top.vcd
$date
	Thu Jul 29 11:03:35 2021
$end
$version
	Icarus Verilog
$end
$timescale
	1s
$end
$scope module testbench $end
$var wire 32 ! WriteData [31:0] $end
$var wire 1 " MemWrite $end
$var wire 32 # DataAdr [31:0] $end
$var reg 1 $ clk $end
$var reg 1 % reset $end
$scope module dut $end
$var wire 1 $ clk $end
$var wire 1 % reset $end
$var wire 32 & WriteData [31:0] $end
$var wire 32 ' ReadData [31:0] $end
$var wire 32 ( PC [31:0] $end
$var wire 1 " MemWrite $end
$var wire 32 ) Instr [31:0] $end
$var wire 32 * DataAdr [31:0] $end
$scope module arm $end
$var wire 1 $ clk $end
$var wire 1 % reset $end
$var wire 32 + WriteData [31:0] $end
$var wire 1 , ResSrc $end
$var wire 1 - RegWrite $end
$var wire 2 . RegSrc [1:0] $end
$var wire 32 / ReadData [31:0] $end
$var wire 1 0 PCSrc $end
$var wire 32 1 PC [31:0] $end
$var wire 32 2 OPResult [31:0] $end
$var wire 1 3 MulWrite $end
$var wire 1 4 MemtoReg $end
$var wire 1 " MemWrite $end
$var wire 32 5 Instr [31:0] $end
$var wire 2 6 ImmSrc [1:0] $end
$var wire 4 7 FPUFlags [3:0] $end
$var wire 2 8 FPUControl [1:0] $end
$var wire 1 9 ALUSrc $end
$var wire 4 : ALUFlags [3:0] $end
$var wire 3 ; ALUControl [2:0] $end
$scope module c $end
$var wire 20 < Instr [31:12] $end
$var wire 4 = MulOp [3:0] $end
$var wire 1 $ clk $end
$var wire 1 % reset $end
$var wire 1 , ResSrc $end
$var wire 1 - RegWrite $end
$var wire 1 > RegW $end
$var wire 2 ? RegSrc [1:0] $end
$var wire 1 0 PCSrc $end
$var wire 1 @ PCS $end
$var wire 1 3 MulWrite $end
$var wire 1 4 MemtoReg $end
$var wire 1 " MemWrite $end
$var wire 1 A MemW $end
$var wire 2 B ImmSrc [1:0] $end
$var wire 2 C FlagW [1:0] $end
$var wire 4 D FPUFlags [3:0] $end
$var wire 2 E FPUFlagW [1:0] $end
$var wire 2 F FPUControl [1:0] $end
$var wire 1 9 ALUSrc $end
$var wire 4 G ALUFlags [3:0] $end
$var wire 3 H ALUControl [2:0] $end
$scope module cl $end
$var wire 4 I Cond [3:0] $end
$var wire 2 J FlagWrite [1:0] $end
$var wire 1 " MemWrite $end
$var wire 1 0 PCSrc $end
$var wire 1 - RegWrite $end
$var wire 1 $ clk $end
$var wire 1 % reset $end
$var wire 1 , ResSrc $end
$var wire 1 > RegW $end
$var wire 1 @ PCS $end
$var wire 1 A MemW $end
$var wire 4 K Flagsmux [3:0] $end
$var wire 4 L Flags [3:0] $end
$var wire 2 M FlagWmux [1:0] $end
$var wire 2 N FlagW [1:0] $end
$var wire 4 O FPUFlags [3:0] $end
$var wire 2 P FPUFlagW [1:0] $end
$var wire 1 Q CondEx $end
$var wire 4 R ALUFlags [3:0] $end
$scope module cc $end
$var wire 4 S Cond [3:0] $end
$var wire 4 T Flags [3:0] $end
$var wire 1 U ge $end
$var wire 1 V zero $end
$var wire 1 W overflow $end
$var wire 1 X neg $end
$var wire 1 Y carry $end
$var reg 1 Q CondEx $end
$upscope $end
$scope module flagreg0 $end
$var wire 1 $ clk $end
$var wire 2 Z d [1:0] $end
$var wire 1 [ en $end
$var wire 1 % reset $end
$var reg 2 \ q [1:0] $end
$upscope $end
$scope module flagreg1 $end
$var wire 1 $ clk $end
$var wire 2 ] d [1:0] $end
$var wire 1 ^ en $end
$var wire 1 % reset $end
$var reg 2 _ q [1:0] $end
$upscope $end
$scope module muxFlagW $end
$var wire 2 ` y [1:0] $end
$var wire 1 , s $end
$var wire 2 a d1 [1:0] $end
$var wire 2 b d0 [1:0] $end
$upscope $end
$scope module muxFlags $end
$var wire 4 c y [3:0] $end
$var wire 1 , s $end
$var wire 4 d d1 [3:0] $end
$var wire 4 e d0 [3:0] $end
$upscope $end
$upscope $end
$scope module dec $end
$var wire 6 f Funct [5:0] $end
$var wire 4 g MulOp [3:0] $end
$var wire 2 h Op [1:0] $end
$var wire 1 @ PCS $end
$var wire 4 i Rd [3:0] $end
$var wire 1 , ResSrc $end
$var wire 1 > RegW $end
$var wire 2 j RegSrc [1:0] $end
$var wire 1 4 MemtoReg $end
$var wire 1 A MemW $end
$var wire 2 k ImmSrc [1:0] $end
$var wire 1 l Branch $end
$var wire 1 9 ALUSrc $end
$var wire 1 m ALUOp $end
$var reg 3 n ALUControl [2:0] $end
$var reg 2 o FPUControl [1:0] $end
$var reg 2 p FPUFlagW [1:0] $end
$var reg 2 q FlagW [1:0] $end
$var reg 1 3 MulWrite $end
$var reg 11 r controls [10:0] $end
$upscope $end
$upscope $end
$scope module dp $end
$var wire 3 s ALUControl [2:0] $end
$var wire 1 9 ALUSrc $end
$var wire 2 t FPUControl [1:0] $end
$var wire 2 u ImmSrc [1:0] $end
$var wire 1 4 MemtoReg $end
$var wire 1 3 MulWrite $end
$var wire 1 0 PCSrc $end
$var wire 2 v RegSrc [1:0] $end
$var wire 1 - RegWrite $end
$var wire 1 , ResSrc $end
$var wire 1 $ clk $end
$var wire 1 % reset $end
$var wire 32 w WriteData [31:0] $end
$var wire 32 x SrcB [31:0] $end
$var wire 32 y SrcA [31:0] $end
$var wire 32 z Result [31:0] $end
$var wire 32 { ReadData [31:0] $end
$var wire 4 | RA2 [3:0] $end
$var wire 4 } RA1 [3:0] $end
$var wire 32 ~ PCPlus8 [31:0] $end
$var wire 32 !" PCPlus4 [31:0] $end
$var wire 32 "" PCNext [31:0] $end
$var wire 32 #" PC [31:0] $end
$var wire 32 $" OPResult [31:0] $end
$var wire 32 %" Instr [31:0] $end
$var wire 32 &" FPUResult [31:0] $end
$var wire 4 '" FPUFlags [3:0] $end
$var wire 32 (" ExtImm [31:0] $end
$var wire 32 )" ALUResult2 [31:0] $end
$var wire 32 *" ALUResult1 [31:0] $end
$var wire 4 +" ALUFlags [3:0] $end
$scope module alu $end
$var wire 3 ," ALUControl [2:0] $end
$var wire 1 -" carry $end
$var wire 1 ." overflow $end
$var wire 32 /" signed_a [31:0] $end
$var wire 32 0" signed_b [31:0] $end
$var wire 1 1" zero $end
$var wire 33 2" sum [32:0] $end
$var wire 1 3" neg $end
$var wire 32 4" b [31:0] $end
$var wire 32 5" a [31:0] $end
$var wire 4 6" ALUFlags [3:0] $end
$var reg 32 7" Result1 [31:0] $end
$var reg 32 8" Result2 [31:0] $end
$upscope $end
$scope module ext $end
$var wire 2 9" ImmSrc [1:0] $end
$var wire 24 :" Instr [23:0] $end
$var reg 32 ;" ExtImm [31:0] $end
$upscope $end
$scope module fpu $end
$var wire 2 <" FPUControl [1:0] $end
$var wire 1 =" carry $end
$var wire 1 >" overflow $end
$var wire 1 ?" zero $end
$var wire 1 @" neg $end
$var wire 32 A" b [31:0] $end
$var wire 32 B" a [31:0] $end
$var wire 4 C" FPUFlags [3:0] $end
$var reg 32 D" Result [31:0] $end
$var reg 32 E" aux [31:0] $end
$var reg 48 F" aux2 [47:0] $end
$var reg 2 G" control [1:0] $end
$var reg 32 H" expoA [31:0] $end
$var reg 32 I" expoB [31:0] $end
$var reg 32 J" expoR [31:0] $end
$var reg 32 K" mantA [31:0] $end
$var reg 32 L" mantAshift [31:0] $end
$var reg 32 M" mantB [31:0] $end
$var reg 32 N" mantBshift [31:0] $end
$var reg 32 O" mantR [31:0] $end
$var reg 48 P" productoPosible [47:0] $end
$var reg 1 Q" signA $end
$var reg 1 R" signB $end
$var reg 1 S" signR $end
$var reg 1 T" sumaResta $end
$upscope $end
$scope module pcadd1 $end
$var wire 32 U" b [31:0] $end
$var wire 32 V" y [31:0] $end
$var wire 32 W" a [31:0] $end
$upscope $end
$scope module pcadd2 $end
$var wire 32 X" a [31:0] $end
$var wire 32 Y" b [31:0] $end
$var wire 32 Z" y [31:0] $end
$upscope $end
$scope module pcmux $end
$var wire 32 [" d0 [31:0] $end
$var wire 1 0 s $end
$var wire 32 \" y [31:0] $end
$var wire 32 ]" d1 [31:0] $end
$upscope $end
$scope module pcreg $end
$var wire 1 $ clk $end
$var wire 32 ^" d [31:0] $end
$var wire 1 % reset $end
$var reg 32 _" q [31:0] $end
$upscope $end
$scope module ra1mux $end
$var wire 4 `" d0 [3:0] $end
$var wire 4 a" d1 [3:0] $end
$var wire 1 b" s $end
$var wire 4 c" y [3:0] $end
$upscope $end
$scope module ra2mux $end
$var wire 4 d" d0 [3:0] $end
$var wire 4 e" d1 [3:0] $end
$var wire 1 f" s $end
$var wire 4 g" y [3:0] $end
$upscope $end
$scope module resSrcmux $end
$var wire 32 h" d0 [31:0] $end
$var wire 32 i" d1 [31:0] $end
$var wire 1 , s $end
$var wire 32 j" y [31:0] $end
$upscope $end
$scope module resmux $end
$var wire 32 k" d0 [31:0] $end
$var wire 1 4 s $end
$var wire 32 l" y [31:0] $end
$var wire 32 m" d1 [31:0] $end
$upscope $end
$scope module rf $end
$var wire 1 $ clk $end
$var wire 32 n" r15 [31:0] $end
$var wire 4 o" ra1 [3:0] $end
$var wire 4 p" ra2 [3:0] $end
$var wire 4 q" wa3 [3:0] $end
$var wire 4 r" wa4 [3:0] $end
$var wire 32 s" wd3 [31:0] $end
$var wire 32 t" wd4 [31:0] $end
$var wire 1 - we3 $end
$var wire 1 3 we4 $end
$var wire 32 u" rd2 [31:0] $end
$var wire 32 v" rd1 [31:0] $end
$upscope $end
$scope module srcbmux $end
$var wire 32 w" d0 [31:0] $end
$var wire 32 x" d1 [31:0] $end
$var wire 1 9 s $end
$var wire 32 y" y [31:0] $end
$upscope $end
$upscope $end
$upscope $end
$scope module dmem $end
$var wire 32 z" a [31:0] $end
$var wire 1 $ clk $end
$var wire 32 {" rd [31:0] $end
$var wire 32 |" wd [31:0] $end
$var wire 1 " we $end
$upscope $end
$scope module imem $end
$var wire 32 }" a [31:0] $end
$var wire 32 ~" rd [31:0] $end
$upscope $end
$upscope $end
$upscope $end
$enddefinitions $end
#0
$dumpvars
b11100000010011110000000000001111 ~"
b0 }"
b1000 |"
bx {"
b0 z"
b1000 y"
b1111 x"
b1000 w"
b1000 v"
b1000 u"
bx t"
b0 s"
b0 r"
b0 q"
b1111 p"
b1111 o"
b1000 n"
bx m"
b0 l"
b0 k"
b0 j"
b10000001000 i"
b0 h"
b1111 g"
0f"
b0 e"
b1111 d"
b1111 c"
0b"
b1111 a"
b1111 `"
b0 _"
b100 ^"
b0 ]"
b100 \"
b100 ["
b1000 Z"
b100 Y"
b100 X"
b0 W"
b100 V"
b100 U"
0T"
0S"
0R"
0Q"
bx P"
b1000 O"
bx N"
b10000001000 M"
bx L"
b10000001000 K"
b1 J"
b0 I"
b0 H"
b0 G"
bx F"
bx E"
b10000001000 D"
b0 C"
b1000 B"
b1000 A"
0@"
0?"
0>"
0="
b0 <"
b1111 ;"
b10011110000000000001111 :"
b0 9"
bx 8"
b0 7"
b100 6"
b1000 5"
b1000 4"
03"
b0 2"
11"
b1000 0"
b1000 /"
0."
0-"
b1 ,"
b100 +"
b0 *"
bx )"
b1111 ("
b0 '"
b10000001000 &"
b11100000010011110000000000001111 %"
b0 $"
b0 #"
b100 ""
b100 !"
b1000 ~
b1111 }
b1111 |
bx {
b0 z
b1000 y
b1000 x
b1000 w
b0 v
b0 u
b0 t
b1 s
b10010 r
b0 q
b0 p
b0 o
b1 n
1m
0l
b0 k
b0 j
b0 i
b0 h
b0 g
b100 f
b100 e
b0 d
b100 c
b0 b
b0 a
b0 `
b0 _
0^
b1 ]
b0 \
0[
b0 Z
0Y
0X
0W
0V
1U
b0 T
b1110 S
b100 R
1Q
b0 P
b0 O
b0 N
b0 M
b0 L
b100 K
b0 J
b1110 I
b1 H
b100 G
b0 F
b0 E
b0 D
b0 C
b0 B
0A
0@
b0 ?
1>
b0 =
b11100000010011110000 <
b1 ;
b100 :
09
b0 8
b0 7
b0 6
b11100000010011110000000000001111 5
04
03
b0 2
b0 1
00
bx /
b0 .
1-
0,
b1000 +
b0 *
b11100000010011110000000000001111 )
b0 (
bx '
b1000 &
1%
1$
b0 #
0"
b1000 !
$end
#5
0$
#10
1$
#15
0$
#20
1$
#22
0%
#25
0$
#30
0."
b0 Z
0-"
03"
19
b0 ;
b0 H
b0 n
b0 s
b0 ,"
b1010010 r
b0 ]
b10011 z
b10011 ]"
b10011 l"
b10011 s"
b10011 ("
b10011 ;"
b10011 x"
b11 |
b11 g"
b11 p"
b0 }
b0 c"
b0 o"
b101000 f
b1 i
b0 K
b0 c
b10011 #
b10011 *
b10011 2
b10011 $"
b10011 j"
b10011 k"
b10011 z"
b100000000001000000010011 :"
b1 q"
b1 e"
b11 d"
b0 `"
b11100010100000000001 <
b1 =
b1 g
b0 :
b0 G
b0 R
b0 e
b0 +"
b0 6"
01"
b10011 *"
b10011 7"
b10011 h"
b10011 &"
b10011 D"
b10011 i"
b10000010011 O"
b0 J"
b10000010011 M"
b10000000000 K"
b10011 0"
b10011 x
b10011 4"
b10011 A"
b10011 y"
b11100010100000000001000000010011 )
b11100010100000000001000000010011 5
b11100010100000000001000000010011 %"
b11100010100000000001000000010011 ~"
b10011 2"
b0 /"
b0 y
b0 5"
b0 B"
b0 v"
bx !
bx &
bx +
bx w
bx u"
bx w"
bx |"
b1000 ""
b1000 \"
b1000 ^"
b1100 ~
b1100 Z"
b1100 n"
b1000 !"
b1000 V"
b1000 X"
b1000 ["
b100 (
b100 1
b100 #"
b100 W"
b100 _"
b100 }"
1$
#35
0$
#40
b1100 z
b1100 ]"
b1100 l"
b1100 s"
b1100 #
b1100 *
b1100 2
b1100 $"
b1100 j"
b1100 k"
b1100 z"
b1100 *"
b1100 7"
b1100 h"
b1100 2"
b1100 &"
b1100 D"
b1100 i"
b10000001100 O"
b10000001100 M"
b1100 0"
b1100 x
b1100 4"
b1100 A"
b1100 y"
b1100 ("
b1100 ;"
b1100 x"
b1100 |
b1100 g"
b1100 p"
b10 i
b100000000010000000001100 :"
b10 q"
b10 e"
b1100 d"
b11100010100000000010 <
b0 =
b0 g
b11100010100000000010000000001100 )
b11100010100000000010000000001100 5
b11100010100000000010000000001100 %"
b11100010100000000010000000001100 ~"
b1100 ""
b1100 \"
b1100 ^"
b10000 ~
b10000 Z"
b10000 n"
b1100 !"
b1100 V"
b1100 X"
b1100 ["
b1000 (
b1000 1
b1000 #"
b1000 W"
b1000 _"
b1000 }"
1$
#45
0$
#50
b10 Z
b10 ]
b1010 K
b1010 c
1-"
b1010 :
b1010 G
b1010 R
b1010 e
b1010 +"
b1010 6"
13"
b11111111111111111111111111111111 z
b11111111111111111111111111111111 ]"
b11111111111111111111111111111111 l"
b11111111111111111111111111111111 s"
b11111111111111111111111111111111 #
b11111111111111111111111111111111 *
b11111111111111111111111111111111 2
b11111111111111111111111111111111 $"
b11111111111111111111111111111111 j"
b11111111111111111111111111111111 k"
b11111111111111111111111111111111 z"
b10000010011 &"
b10000010011 D"
b10000010011 i"
b1 J"
b10011 O"
b10000010100 M"
b10000010011 K"
b11111111111111111111111111111111 *"
b11111111111111111111111111111111 7"
b11111111111111111111111111111111 h"
b10100 0"
b10100 x
b10100 4"
b10100 A"
b10100 y"
b111111111111111111111111111111111 2"
b10011 /"
b10011 y
b10011 5"
b10011 B"
b10011 v"
b1 ;
b1 H
b1 n
b1 s
b1 ,"
b10100 ("
b10100 ;"
b10100 x"
b100 |
b100 g"
b100 p"
b1 }
b1 c"
b1 o"
b100100 f
b11 i
b10000010011000000010100 :"
b11 q"
b11 e"
b100 d"
b1 `"
b11100010010000010011 <
b1 =
b1 g
b11100010010000010011000000010100 )
b11100010010000010011000000010100 5
b11100010010000010011000000010100 %"
b11100010010000010011000000010100 ~"
b10000 ""
b10000 \"
b10000 ^"
b10100 ~
b10100 Z"
b10100 n"
b10000 !"
b10000 V"
b10000 X"
b10000 ["
b1100 (
b1100 1
b1100 #"
b1100 W"
b1100 _"
b1100 }"
1$
#55
0$
#60
b1000 7
b1000 D
b1000 O
b1000 d
b1000 '"
b1000 C"
1@"
b11111111111000000000000000000000 F"
b1010 E"
1S"
1T"
b0 K"
b11111 I"
1R"
b0 Z
0."
b10 ]
b11111111111111111111111111111111 z
b11111111111111111111111111111111 ]"
b11111111111111111111111111111111 l"
b11111111111111111111111111111111 s"
0-"
b1111111111111111 &"
b1111111111111111 D"
b1111111111111111 i"
b1111111111 O"
b11111 J"
b11111111111 M"
b11111111111111111111111111101101 )"
b11111111111111111111111111101101 8"
b11111111111111111111111111101101 t"
09
13"
b1000 K
b1000 c
b11111111111111111111111111111111 #
b11111111111111111111111111111111 *
b11111111111111111111111111111111 2
b11111111111111111111111111111111 $"
b11111111111111111111111111111111 j"
b11111111111111111111111111111111 k"
b11111111111111111111111111111111 z"
b11111111111111111111111111111111 0"
b11111111111111111111111111111111 x
b11111111111111111111111111111111 4"
b11111111111111111111111111111111 A"
b11111111111111111111111111111111 y"
b11111111111111111111111111111111 !
b11111111111111111111111111111111 &
b11111111111111111111111111111111 +
b11111111111111111111111111111111 w
b11111111111111111111111111111111 u"
b11111111111111111111111111111111 w"
b11111111111111111111111111111111 |"
13
b10010 r
b1000 :
b1000 G
b1000 R
b1000 e
b1000 +"
b1000 6"
01"
b11111111111111111111111111111111 *"
b11111111111111111111111111111111 7"
b11111111111111111111111111111111 h"
b100000000000000000000000000010010 2"
b10010011 ("
b10010011 ;"
b10010011 x"
b11 |
b11 g"
b11 p"
b1100 f
b1 i
b110 ;
b110 H
b110 n
b110 s
b110 ,"
b110000010001010010010011 :"
b100 r"
b1 q"
b1 e"
b11 d"
b11100000110000010001 <
b1001 =
b1001 g
b11100000110000010001010010010011 )
b11100000110000010001010010010011 5
b11100000110000010001010010010011 %"
b11100000110000010001010010010011 ~"
b10100 ""
b10100 \"
b10100 ^"
b11000 ~
b11000 Z"
b11000 n"
b10100 !"
b10100 V"
b10100 X"
b10100 ["
b10000 (
b10000 1
b10000 #"
b10000 W"
b10000 _"
b10000 }"
1$
#65
0$
#70
b1 ]
b0 z
b0 ]"
b0 l"
b0 s"
03"
b100 K
b100 c
b0 #
b0 *
b0 2
b0 $"
b0 j"
b0 k"
b0 z"
b100 :
b100 G
b100 R
b100 e
b100 +"
b100 6"
11"
b0 *"
b0 7"
b0 h"
b1 )"
b1 8"
b1 t"
b1000001111111111 &"
b1000001111111111 D"
b1000001111111111 i"
b100000 J"
b1111111111 O"
0T"
b11111111111 K"
b11111 H"
1Q"
b11000 ""
b11000 \"
b11000 ^"
b111111111111111111111111111111110 2"
b11111111111111111111111111111111 /"
b11111111111111111111111111111111 y
b11111111111111111111111111111111 5"
b11111111111111111111111111111111 B"
b11111111111111111111111111111111 v"
b11100 ~
b11100 Z"
b11100 n"
b11000 !"
b11000 V"
b11000 X"
b11000 ["
b10100 (
b10100 1
b10100 #"
b10100 W"
b10100 _"
b10100 }"
1$
#75
0$
#80
b0 7
b0 D
b0 O
b0 d
b0 '"
b0 C"
0@"
b0 Z
0."
0S"
b10000000001 M"
b0 I"
0R"
b0 ]
b1 z
b1 ]"
b1 l"
b1 s"
0-"
b1 0"
b1 x
b1 4"
b1 A"
b1 y"
19
03"
b0 K
b0 c
b1 #
b1 *
b1 2
b1 $"
b1 j"
b1 k"
b1 z"
b0 !
b0 &
b0 +
b0 w
b0 u"
b0 w"
b0 |"
b1010010 r
b0 :
b0 G
b0 R
b0 e
b0 +"
b0 6"
01"
b1 *"
b1 7"
b1 h"
b1 ("
b1 ;"
b1 x"
b1 |
b1 g"
b1 p"
b0 }
b0 c"
b0 o"
b101000 f
b100 i
03
b0 ;
b0 H
b0 n
b0 s
b0 ,"
b100000000100000000000001 :"
b0 r"
b100 q"
b100 e"
b1 d"
b0 `"
b11100010100000000100 <
b0 =
b0 g
b0 )"
b0 8"
b0 t"
b1 &"
b1 D"
b1 i"
b10000000001 O"
b0 J"
b10000000000 K"
b0 H"
0Q"
b11100010100000000100000000000001 )
b11100010100000000100000000000001 5
b11100010100000000100000000000001 %"
b11100010100000000100000000000001 ~"
b11100 ""
b11100 \"
b11100 ^"
b1 2"
b0 /"
b0 y
b0 5"
b0 B"
b0 v"
b100000 ~
b100000 Z"
b100000 n"
b11100 !"
b11100 V"
b11100 X"
b11100 ["
b11000 (
b11000 1
b11000 #"
b11000 W"
b11000 _"
b11000 }"
1$
#85
0$
#90
b101 i
b100000000101000000000001 :"
b101 q"
b101 e"
b11100010100000000101 <
b11100010100000000101000000000001 )
b11100010100000000101000000000001 5
b11100010100000000101000000000001 %"
b11100010100000000101000000000001 ~"
b100000 ""
b100000 \"
b100000 ^"
b100100 ~
b100100 Z"
b100100 n"
b100000 !"
b100000 V"
b100000 X"
b100000 ["
b11100 (
b11100 1
b11100 #"
b11100 W"
b11100 _"
b11100 }"
1$
#95
0$
#100
b10 Z
b10 ]
b1010 K
b1010 c
1-"
b1010 :
b1010 G
b1010 R
b1010 e
b1010 +"
b1010 6"
13"
1^
1[
b11111111111111111111111111110101 z
b11111111111111111111111111110101 ]"
b11111111111111111111111111110101 l"
b11111111111111111111111111110101 s"
b11 J
b11111111111111111111111111110101 #
b11111111111111111111111111110101 *
b11111111111111111111111111110101 2
b11111111111111111111111111110101 $"
b11111111111111111111111111110101 j"
b11111111111111111111111111110101 k"
b11111111111111111111111111110101 z"
b10000000110 &"
b10000000110 D"
b10000000110 i"
b1 J"
b110 O"
b10000001100 M"
b10000000001 K"
b11 M
b11 `
b11111111111111111111111111110101 *"
b11111111111111111111111111110101 7"
b11111111111111111111111111110101 h"
09
b1100 0"
b1100 x
b1100 4"
b1100 A"
b1100 y"
b1100 !
b1100 &
b1100 +
b1100 w
b1100 u"
b1100 w"
b1100 |"
b111111111111111111111111111110101 2"
b1 /"
b1 y
b1 5"
b1 B"
b1 v"
b11 C
b11 N
b11 b
b11 q
b1 ;
b1 H
b1 n
b1 s
b1 ,"
b10010 r
b10 ("
b10 ;"
b10 x"
b10 |
b10 g"
b10 p"
b100 }
b100 c"
b100 o"
b101 f
b110 i
b10101000110000000000010 :"
b110 q"
b110 e"
b10 d"
b100 `"
b11100000010101000110 <
b11100000010101000110000000000010 )
b11100000010101000110000000000010 5
b11100000010101000110000000000010 %"
b11100000010101000110000000000010 ~"
b100100 ""
b100100 \"
b100100 ^"
b101000 ~
b101000 Z"
b101000 n"
b100100 !"
b100100 V"
b100100 X"
b100100 ["
b100000 (
b100000 1
b100000 #"
b100000 W"
b100000 _"
b100000 }"
1$
#105
0$
#110
b0 Z
b0 ]
b110100 z
b110100 ]"
b110100 l"
b110100 s"
0-"
b10000001000 M"
03"
b0 K
b0 c
b110100 #
b110100 *
b110100 2
b110100 $"
b110100 j"
b110100 k"
b110100 z"
1b"
b1000 ("
b1000 ;"
b1000 x"
b1000 0"
b1000 x
b1000 4"
b1000 A"
b1000 y"
1@
0^
0[
b10000011010 &"
b10000011010 D"
b10000011010 i"
b11010 O"
b1 J"
b10000101100 K"
b0 M
b0 `
b0 :
b0 G
b0 R
b0 e
b0 +"
b0 6"
01"
b110100 *"
b110100 7"
b110100 h"
b1 .
b1 ?
b1 j
b1 v
b10 6
b10 B
b10 k
b10 u
b10 9"
19
0>
1l
0m
b0 J
0-
b110100 2"
b101100 /"
b101100 y
b101100 5"
b101100 B"
b101100 v"
b0 C
b0 N
b0 b
b0 q
b0 ;
b0 H
b0 n
b0 s
b0 ,"
b1101000100 r
0Q
b1111 }
b1111 c"
b1111 o"
b10 h
b100000 f
b0 i
b1100 I
b1100 S
b10 :"
b0 q"
b0 e"
b0 `"
b11001010000000000000 <
0U
b11001010000000000000000000000010 )
b11001010000000000000000000000010 5
b11001010000000000000000000000010 %"
b11001010000000000000000000000010 ~"
b101000 ""
b101000 \"
b101000 ^"
1Y
1X
b101100 ~
b101100 Z"
b101100 n"
b101000 !"
b101000 V"
b101000 X"
b101000 ["
b100100 (
b100100 1
b100100 #"
b100100 W"
b100100 _"
b100100 }"
b10 \
b1010 L
b1010 T
b10 _
1$
#115
0$
#120
b101 }
b101 c"
b101 o"
0b"
1-
0@
b100 ;
b100 H
b100 n
b100 s
b100 ,"
b10000000001 M"
b0 I"
b0 .
b0 ?
b0 j
b0 v
b0 6
b0 B
b0 k
b0 u
b0 9"
09
1>
0l
1m
00
b1 0"
b1 x
b1 4"
b1 A"
b1 y"
b1 !
b1 &
b1 +
b1 w
b1 u"
b1 w"
b1 |"
b10010 r
1Q
b1 z
b1 ]"
b1 l"
b1 s"
b10010100 ("
b10010100 ;"
b10010100 x"
b100 |
b100 g"
b100 p"
b0 h
b0 f
b101 i
b1110 I
b1110 S
b1 #
b1 *
b1 2
b1 $"
b1 j"
b1 k"
b1 z"
b1010101000010010100 :"
b101 q"
b101 e"
b100 d"
b101 `"
b11100000000001010101 <
b1001 =
b1001 g
b1 *"
b1 7"
b1 h"
b10000000001 &"
b10000000001 D"
b10000000001 i"
b1 O"
b1 J"
b10000000001 K"
b11100000000001010101000010010100 )
b11100000000001010101000010010100 5
b11100000000001010101000010010100 %"
b11100000000001010101000010010100 ~"
b10 2"
b1 /"
b1 y
b1 5"
b1 B"
b1 v"
b101100 ""
b101100 \"
b101100 ^"
b110000 ~
b110000 Z"
b110000 n"
b101100 !"
b101100 V"
b101100 X"
b101100 ["
b101000 (
b101000 1
b101000 #"
b101000 W"
b101000 _"
b101000 }"
1$
#125
0$
#130
b10 z
b10 ]"
b10 l"
b10 s"
b10 #
b10 *
b10 2
b10 $"
b10 j"
b10 k"
b10 z"
b10 *"
b10 7"
b10 h"
19
b0 !
b0 &
b0 +
b0 w
b0 u"
b0 w"
b0 |"
b1010010 r
b1 ("
b1 ;"
b1 x"
b1 |
b1 g"
b1 p"
b100 }
b100 c"
b100 o"
b101000 f
b100 i
b0 ;
b0 H
b0 n
b0 s
b0 ,"
b100001000100000000000001 :"
b100 q"
b100 e"
b1 d"
b100 `"
b11100010100001000100 <
b0 =
b0 g
b11100010100001000100000000000001 )
b11100010100001000100000000000001 5
b11100010100001000100000000000001 %"
b11100010100001000100000000000001 ~"
b110000 ""
b110000 \"
b110000 ^"
b110100 ~
b110100 Z"
b110100 n"
b110000 !"
b110000 V"
b110000 X"
b110000 ["
b101100 (
b101100 1
b101100 #"
b101100 W"
b101100 _"
b101100 }"
1$
#135
0$
#140
b1000 7
b1000 D
b1000 O
b1000 d
b1000 '"
b1000 C"
1@"
0."
b10 Z
b11111101000000000000000000000000 F"
b1010 E"
1S"
1T"
b11111 I"
1R"
0^
0[
b0 ]
1-"
b0 J
03"
b10 K
b10 c
1b"
0-
10
b1111111111101000 &"
b1111111111101000 D"
b1111111111101000 i"
b11111101000 M"
b0 M
b0 `
b10 :
b10 G
b10 R
b10 e
b10 +"
b10 6"
01"
b1 .
b1 ?
b1 j
b1 v
b10 6
b10 B
b10 k
b10 u
b10 9"
0>
1l
0m
1@
b11111111111111111111111111101000 0"
b11111111111111111111111111101000 x
b11111111111111111111111111101000 4"
b11111111111111111111111111101000 A"
b11111111111111111111111111101000 y"
bx !
bx &
bx +
bx w
bx u"
bx w"
bx |"
b0 C
b0 N
b0 b
b0 q
b0 ;
b0 H
b0 n
b0 s
b0 ,"
b1101000100 r
b100000 z
b100000 ]"
b100000 l"
b100000 s"
b11111111111111111111111111101000 ("
b11111111111111111111111111101000 ;"
b11111111111111111111111111101000 x"
b1010 |
b1010 g"
b1010 p"
b1111 }
b1111 c"
b1111 o"
b10 h
b101111 f
b1111 i
b100000 #
b100000 *
b100000 2
b100000 $"
b100000 j"
b100000 k"
b100000 z"
b111111111111111111111010 :"
b1111 r"
b1111 q"
b1111 e"
b1010 d"
b1111 `"
b11101010111111111111 <
b1111 =
b1111 g
b100000 *"
b100000 7"
b100000 h"
b1111101000 O"
b11111 J"
b0 K"
b11101010111111111111111111111010 )
b11101010111111111111111111111010 5
b11101010111111111111111111111010 %"
b11101010111111111111111111111010 ~"
b100000 ""
b100000 \"
b100000 ^"
b100000000000000000000000000100000 2"
b111000 /"
b111000 y
b111000 5"
b111000 B"
b111000 v"
b111000 ~
b111000 Z"
b111000 n"
b110100 !"
b110100 V"
b110100 X"
b110100 ["
b110000 (
b110000 1
b110000 #"
b110000 W"
b110000 _"
b110000 }"
1$
#145
0$
