Multi cycle processor/src/arm_multi.vcd
$date
	Sun Jul 18 13:49:11 2021
$end
$version
	Icarus Verilog
$end
$timescale
	1s
$end
$scope module testbench $end
$var wire 32 ! WriteData [31:0] $end
$var wire 1 " MemWrite $end
$var wire 32 # Adr [31:0] $end
$var reg 1 $ clk $end
$var reg 32 % cycle [31:0] $end
$var reg 1 & reset $end
$scope module dut $end
$var wire 1 $ clk $end
$var wire 1 & reset $end
$var wire 32 ' WriteData [31:0] $end
$var wire 32 ( ReadData [31:0] $end
$var wire 1 " MemWrite $end
$var wire 32 ) Adr [31:0] $end
$scope module arm $end
$var wire 1 $ clk $end
$var wire 1 & reset $end
$var wire 32 * WriteData [31:0] $end
$var wire 2 + ResultSrc [1:0] $end
$var wire 1 , RegWrite $end
$var wire 2 - RegSrc [1:0] $end
$var wire 32 . ReadData [31:0] $end
$var wire 1 / PCWrite $end
$var wire 1 " MemWrite $end
$var wire 32 0 Instr [31:0] $end
$var wire 2 1 ImmSrc [1:0] $end
$var wire 1 2 IRWrite $end
$var wire 1 3 AdrSrc $end
$var wire 32 4 Adr [31:0] $end
$var wire 2 5 ALUSrcB [1:0] $end
$var wire 2 6 ALUSrcA [1:0] $end
$var wire 4 7 ALUFlags [3:0] $end
$var wire 2 8 ALUControl [1:0] $end
$scope module c $end
$var wire 20 9 Instr [31:12] $end
$var wire 1 $ clk $end
$var wire 1 & reset $end
$var wire 2 : ResultSrc [1:0] $end
$var wire 1 , RegWrite $end
$var wire 1 ; RegW $end
$var wire 2 < RegSrc [1:0] $end
$var wire 1 / PCWrite $end
$var wire 1 = PCS $end
$var wire 1 > NextPC $end
$var wire 1 " MemWrite $end
$var wire 1 ? MemW $end
$var wire 2 @ ImmSrc [1:0] $end
$var wire 1 2 IRWrite $end
$var wire 2 A FlagW [1:0] $end
$var wire 1 3 AdrSrc $end
$var wire 2 B ALUSrcB [1:0] $end
$var wire 2 C ALUSrcA [1:0] $end
$var wire 4 D ALUFlags [3:0] $end
$var wire 2 E ALUControl [1:0] $end
$scope module cl $end
$var wire 4 F Cond [3:0] $end
$var wire 1 " MemWrite $end
$var wire 1 / PCWrite $end
$var wire 1 , RegWrite $end
$var wire 1 $ clk $end
$var wire 1 & reset $end
$var wire 1 ; RegW $end
$var wire 1 = PCS $end
$var wire 1 > NextPC $end
$var wire 1 ? MemW $end
$var wire 4 G Flags [3:0] $end
$var wire 2 H FlagWrite [1:0] $end
$var wire 2 I FlagW [1:0] $end
$var wire 1 J CondExReg $end
$var wire 1 K CondEx $end
$var wire 4 L ALUFlags [3:0] $end
$scope module cc $end
$var wire 4 M Cond [3:0] $end
$var wire 4 N Flags [3:0] $end
$var wire 1 O ge $end
$var wire 1 P zero $end
$var wire 1 Q overflow $end
$var wire 1 R neg $end
$var wire 1 S carry $end
$var reg 1 K CondEx $end
$upscope $end
$scope module condexreg $end
$var wire 1 $ clk $end
$var wire 1 K d $end
$var wire 1 & reset $end
$var reg 1 J q $end
$upscope $end
$scope module flagsreg0 $end
$var wire 1 $ clk $end
$var wire 2 T d [1:0] $end
$var wire 1 U en $end
$var wire 1 & reset $end
$var reg 2 V q [1:0] $end
$upscope $end
$scope module flagsreg1 $end
$var wire 1 $ clk $end
$var wire 2 W d [1:0] $end
$var wire 1 X en $end
$var wire 1 & reset $end
$var reg 2 Y q [1:0] $end
$upscope $end
$upscope $end
$scope module dec $end
$var wire 6 Z Funct [5:0] $end
$var wire 2 [ ImmSrc [1:0] $end
$var wire 2 \ Op [1:0] $end
$var wire 1 = PCS $end
$var wire 4 ] Rd [3:0] $end
$var wire 1 $ clk $end
$var wire 1 & reset $end
$var wire 2 ^ ResultSrc [1:0] $end
$var wire 1 ; RegW $end
$var wire 2 _ RegSrc [1:0] $end
$var wire 1 > NextPC $end
$var wire 1 ? MemW $end
$var wire 1 2 IRWrite $end
$var wire 1 ` Branch $end
$var wire 1 3 AdrSrc $end
$var wire 2 a ALUSrcB [1:0] $end
$var wire 2 b ALUSrcA [1:0] $end
$var wire 1 c ALUOp $end
$var reg 2 d ALUControl [1:0] $end
$var reg 2 e FlagW [1:0] $end
$scope module fsm $end
$var wire 6 f Funct [5:0] $end
$var wire 2 g Op [1:0] $end
$var wire 1 $ clk $end
$var wire 1 & reset $end
$var wire 2 h ResultSrc [1:0] $end
$var wire 1 ; RegW $end
$var wire 1 > NextPC $end
$var wire 1 ? MemW $end
$var wire 1 2 IRWrite $end
$var wire 1 ` Branch $end
$var wire 1 3 AdrSrc $end
$var wire 2 i ALUSrcB [1:0] $end
$var wire 2 j ALUSrcA [1:0] $end
$var wire 1 c ALUOp $end
$var reg 13 k controls [12:0] $end
$var reg 4 l nextstate [3:0] $end
$var reg 4 m state [3:0] $end
$upscope $end
$upscope $end
$upscope $end
$scope module dp $end
$var wire 2 n ALUControl [1:0] $end
$var wire 2 o ALUSrcA [1:0] $end
$var wire 2 p ALUSrcB [1:0] $end
$var wire 1 3 AdrSrc $end
$var wire 1 2 IRWrite $end
$var wire 2 q ImmSrc [1:0] $end
$var wire 1 / PCWrite $end
$var wire 2 r RegSrc [1:0] $end
$var wire 1 , RegWrite $end
$var wire 2 s ResultSrc [1:0] $end
$var wire 1 $ clk $end
$var wire 1 & reset $end
$var wire 32 t WriteData [31:0] $end
$var wire 32 u SrcB [31:0] $end
$var wire 32 v SrcA [31:0] $end
$var wire 32 w Result [31:0] $end
$var wire 32 x ReadData [31:0] $end
$var wire 32 y RD2 [31:0] $end
$var wire 32 z RD1 [31:0] $end
$var wire 4 { RA2 [3:0] $end
$var wire 4 | RA1 [3:0] $end
$var wire 32 } PC [31:0] $end
$var wire 32 ~ Instr [31:0] $end
$var wire 32 !" ExtImm [31:0] $end
$var wire 32 "" Data [31:0] $end
$var wire 32 #" Adr [31:0] $end
$var wire 32 $" ALUResult [31:0] $end
$var wire 32 %" ALUOut [31:0] $end
$var wire 4 &" ALUFlags [3:0] $end
$var wire 32 '" A [31:0] $end
$scope module alu $end
$var wire 2 (" ALUControl [1:0] $end
$var wire 1 )" carry $end
$var wire 1 *" overflow $end
$var wire 1 +" zero $end
$var wire 33 ," sum [32:0] $end
$var wire 1 -" neg $end
$var wire 32 ." b [31:0] $end
$var wire 32 /" a [31:0] $end
$var wire 4 0" ALUFlags [3:0] $end
$var reg 32 1" Result [31:0] $end
$upscope $end
$scope module aluoutmux $end
$var wire 32 2" d2 [31:0] $end
$var wire 2 3" s [1:0] $end
$var wire 32 4" y [31:0] $end
$var wire 32 5" d1 [31:0] $end
$var wire 32 6" d0 [31:0] $end
$upscope $end
$scope module aluoutreg $end
$var wire 1 $ clk $end
$var wire 32 7" d [31:0] $end
$var wire 1 & reset $end
$var reg 32 8" q [31:0] $end
$upscope $end
$scope module datareg $end
$var wire 1 $ clk $end
$var wire 1 & reset $end
$var wire 32 9" d [31:0] $end
$var reg 32 :" q [31:0] $end
$upscope $end
$scope module ext $end
$var wire 2 ;" ImmSrc [1:0] $end
$var wire 24 <" Instr [23:0] $end
$var reg 32 =" ExtImm [31:0] $end
$upscope $end
$scope module instrreg $end
$var wire 1 $ clk $end
$var wire 1 2 en $end
$var wire 1 & reset $end
$var wire 32 >" d [31:0] $end
$var reg 32 ?" q [31:0] $end
$upscope $end
$scope module pcmux $end
$var wire 32 @" d1 [31:0] $end
$var wire 1 3 s $end
$var wire 32 A" y [31:0] $end
$var wire 32 B" d0 [31:0] $end
$upscope $end
$scope module pcreg $end
$var wire 1 $ clk $end
$var wire 32 C" d [31:0] $end
$var wire 1 / en $end
$var wire 1 & reset $end
$var reg 32 D" q [31:0] $end
$upscope $end
$scope module ra1mux $end
$var wire 4 E" d0 [3:0] $end
$var wire 4 F" d1 [3:0] $end
$var wire 1 G" s $end
$var wire 4 H" y [3:0] $end
$upscope $end
$scope module ra2mux $end
$var wire 4 I" d0 [3:0] $end
$var wire 4 J" d1 [3:0] $end
$var wire 1 K" s $end
$var wire 4 L" y [3:0] $end
$upscope $end
$scope module rd1reg $end
$var wire 1 $ clk $end
$var wire 1 & reset $end
$var wire 32 M" d [31:0] $end
$var reg 32 N" q [31:0] $end
$upscope $end
$scope module rd2reg $end
$var wire 1 $ clk $end
$var wire 1 & reset $end
$var wire 32 O" d [31:0] $end
$var reg 32 P" q [31:0] $end
$upscope $end
$scope module rf $end
$var wire 1 $ clk $end
$var wire 32 Q" r15 [31:0] $end
$var wire 4 R" ra1 [3:0] $end
$var wire 4 S" ra2 [3:0] $end
$var wire 4 T" wa3 [3:0] $end
$var wire 32 U" wd3 [31:0] $end
$var wire 1 , we3 $end
$var wire 32 V" rd2 [31:0] $end
$var wire 32 W" rd1 [31:0] $end
$upscope $end
$scope module srcAmux $end
$var wire 32 X" d0 [31:0] $end
$var wire 32 Y" d1 [31:0] $end
$var wire 32 Z" d2 [31:0] $end
$var wire 2 [" s [1:0] $end
$var wire 32 \" y [31:0] $end
$upscope $end
$scope module srcBmux $end
$var wire 32 ]" d0 [31:0] $end
$var wire 32 ^" d1 [31:0] $end
$var wire 32 _" d2 [31:0] $end
$var wire 2 `" s [1:0] $end
$var wire 32 a" y [31:0] $end
$upscope $end
$upscope $end
$upscope $end
$scope module mem $end
$var wire 32 b" a [31:0] $end
$var wire 1 $ clk $end
$var wire 32 c" rd [31:0] $end
$var wire 32 d" wd [31:0] $end
$var wire 1 " we $end
$upscope $end
$upscope $end
$upscope $end
$enddefinitions $end
#0
$dumpvars
b0 d"
b11100000010011110000000000001111 c"
b0 b"
b100 a"
b10 `"
b100 _"
b0 ^"
b0 ]"
b0 \"
b1 ["
b0 Z"
b0 Y"
b0 X"
bx W"
bx V"
b100 U"
b0 T"
b0 S"
b0 R"
b100 Q"
b0 P"
bx O"
b0 N"
bx M"
b0 L"
0K"
b0 J"
b0 I"
b0 H"
0G"
b1111 F"
b0 E"
b0 D"
b100 C"
b0 B"
b0 A"
b100 @"
b0 ?"
b11100000010011110000000000001111 >"
b0 ="
b0 <"
b0 ;"
b0 :"
b11100000010011110000000000001111 9"
b0 8"
b100 7"
b0 6"
b0 5"
b100 4"
b10 3"
b100 2"
b100 1"
b0 0"
b0 /"
b100 ."
0-"
b100 ,"
0+"
0*"
0)"
b0 ("
b0 '"
b0 &"
b0 %"
b100 $"
b0 #"
b0 ""
b0 !"
b0 ~
b0 }
b0 |
b0 {
bx z
bx y
b11100000010011110000000000001111 x
b100 w
b0 v
b100 u
b0 t
b10 s
b0 r
b0 q
b10 p
b1 o
b0 n
b0 m
b1 l
b1000101001100 k
b1 j
b10 i
b10 h
b0 g
b0 f
b0 e
b0 d
0c
b1 b
b10 a
0`
b0 _
b10 ^
b0 ]
b0 \
b0 [
b0 Z
b0 Y
0X
b0 W
b0 V
0U
b0 T
0S
0R
0Q
0P
1O
b0 N
b0 M
b0 L
0K
0J
b0 I
b0 H
b0 G
b0 F
b0 E
b0 D
b1 C
b10 B
b0 A
b0 @
0?
1>
0=
b0 <
0;
b10 :
b0 9
b0 8
b0 7
b1 6
b10 5
b0 4
03
12
b0 1
b0 0
1/
b11100000010011110000000000001111 .
b0 -
0,
b10 +
b0 *
b0 )
b11100000010011110000000000001111 (
b0 '
1&
b1 %
1$
b0 #
0"
b0 !
$end
#5
0$
#10
1$
#15
0$
#20
1$
#22
0&
#25
0$
#30
b1000 w
b1000 4"
b1000 @"
b1000 C"
b1000 Q"
b1000 U"
b1000 y
b1000 O"
b1000 V"
b1000 z
b1000 M"
b1000 W"
1K
b1000 $"
b1000 1"
b1000 2"
b1000 7"
0/
b1111 !"
b1111 ="
b1111 ^"
b1111 {
b1111 L"
b1111 S"
b1111 |
b1111 H"
b1111 R"
b100 Z
b100 f
b1110 F
b1110 M
b1000 ,"
b100 v
b100 /"
b100 \"
b11100010100000000010000000000101 (
b11100010100000000010000000000101 .
b11100010100000000010000000000101 x
b11100010100000000010000000000101 9"
b11100010100000000010000000000101 >"
b11100010100000000010000000000101 c"
0>
02
b10011110000000000001111 <"
b1111 I"
b1111 E"
b11100000010011110000 9
b100 #
b100 )
b100 4
b100 #"
b100 A"
b100 b"
b1001100 k
b110 l
b100 %"
b100 6"
b100 8"
b100 Z"
bx !
bx '
bx *
bx t
bx P"
bx ]"
bx d"
bx '"
bx N"
bx X"
b11100000010011110000000000001111 ""
b11100000010011110000000000001111 5"
b11100000010011110000000000001111 :"
b11100000010011110000000000001111 0
b11100000010011110000000000001111 ~
b11100000010011110000000000001111 ?"
b100 }
b100 B"
b100 D"
b100 Y"
b1 m
1$
b10 %
#35
0$
#40
b1 W
b0 z
b0 M"
b0 W"
b0 y
b0 O"
b0 V"
b1000 v
b1000 /"
b1000 \"
b100 7
b100 D
b100 L
b100 &"
b100 0"
1+"
b0 w
b0 4"
b0 @"
b0 C"
b0 Q"
b0 U"
b1000 u
b1000 ."
b1000 a"
b0 $"
b0 1"
b0 2"
b0 7"
b0 ,"
b1 8
b1 E
b1 d
b1 n
b1 ("
b0 6
b0 C
b0 b
b0 j
b0 o
b0 ["
b0 5
b0 B
b0 a
b0 i
b0 p
b0 `"
1c
b1000001 k
b1000 l
b110 m
1J
b11100010100000000010000000000101 ""
b11100010100000000010000000000101 5"
b11100010100000000010000000000101 :"
b1000 '"
b1000 N"
b1000 X"
b1000 !
b1000 '
b1000 *
b1000 t
b1000 P"
b1000 ]"
b1000 d"
b1000 %"
b1000 6"
b1000 8"
b1000 Z"
1$
b11 %
#45
0$
#50
b0 T
0)"
0-"
b0 W
b0 7
b0 D
b0 L
b0 &"
b0 0"
0+"
b1111 $"
b1111 1"
b1111 2"
b1111 7"
1,
b0 8
b0 E
b0 d
b0 n
b0 ("
b1111 u
b1111 ."
b1111 a"
b1111 ,"
b0 v
b0 /"
b0 \"
1;
b0 +
b0 :
b0 ^
b0 h
b0 s
b0 3"
b1 5
b1 B
b1 a
b1 i
b1 p
b1 `"
0c
b1000000010 k
b0 l
b0 %"
b0 6"
b0 8"
b0 Z"
b0 !
b0 '
b0 *
b0 t
b0 P"
b0 ]"
b0 d"
b0 '"
b0 N"
b0 X"
b1000 m
1$
b100 %
#55
0$
#60
b1000 $"
b1000 1"
b1000 2"
b1000 7"
b100 v
b100 /"
b100 \"
b1000 ,"
b100 u
b100 ."
b100 a"
1/
0,
b1000 z
b1000 M"
b1000 W"
b1000 y
b1000 O"
b1000 V"
1>
0;
12
b10 +
b10 :
b10 ^
b10 h
b10 s
b10 3"
b1 6
b1 C
b1 b
b1 j
b1 o
b1 ["
b10 5
b10 B
b10 a
b10 i
b10 p
b10 `"
b1000 w
b1000 4"
b1000 @"
b1000 C"
b1000 Q"
b1000 U"
b1000101001100 k
b1 l
b0 m
b1111 %"
b1111 6"
b1111 8"
b1111 Z"
1$
b101 %
#65
0$
#70
b1100 w
b1100 4"
b1100 @"
b1100 C"
b1100 Q"
b1100 U"
bx y
bx O"
bx V"
b0 z
b0 M"
b0 W"
b1100 $"
b1100 1"
b1100 2"
b1100 7"
0/
b101 !"
b101 ="
b101 ^"
b101 {
b101 L"
b101 S"
b0 |
b0 H"
b0 R"
b101000 Z
b101000 f
b10 ]
b1100 ,"
b1000 v
b1000 /"
b1000 \"
b11100010100000000011000000001100 (
b11100010100000000011000000001100 .
b11100010100000000011000000001100 x
b11100010100000000011000000001100 9"
b11100010100000000011000000001100 >"
b11100010100000000011000000001100 c"
0>
02
b100000000010000000000101 <"
b10 T"
b10 J"
b101 I"
b0 E"
b11100010100000000010 9
b1000 #
b1000 )
b1000 4
b1000 #"
b1000 A"
b1000 b"
b1001100 k
b111 l
b1000 %"
b1000 6"
b1000 8"
b1000 Z"
b1000 !
b1000 '
b1000 *
b1000 t
b1000 P"
b1000 ]"
b1000 d"
b1000 '"
b1000 N"
b1000 X"
b11100010100000000010000000000101 0
b11100010100000000010000000000101 ~
b11100010100000000010000000000101 ?"
b1000 }
b1000 B"
b1000 D"
b1000 Y"
b1 m
1$
b110 %
#75
0$
#80
b101 w
b101 4"
b101 @"
b101 C"
b101 Q"
b101 U"
b101 $"
b101 1"
b101 2"
b101 7"
b0 v
b0 /"
b0 \"
b101 ,"
b101 u
b101 ."
b101 a"
b0 6
b0 C
b0 b
b0 j
b0 o
b0 ["
b1 5
b1 B
b1 a
b1 i
b1 p
b1 `"
1c
b1000011 k
b1000 l
b111 m
b11100010100000000011000000001100 ""
b11100010100000000011000000001100 5"
b11100010100000000011000000001100 :"
b0 '"
b0 N"
b0 X"
bx !
bx '
bx *
bx t
bx P"
bx ]"
bx d"
b1100 %"
b1100 6"
b1100 8"
b1100 Z"
1$
b111 %
#85
0$
#90
1,
1;
b0 +
b0 :
b0 ^
b0 h
b0 s
b0 3"
0c
b1000000010 k
b0 l
b101 %"
b101 6"
b101 8"
b101 Z"
b1000 m
1$
b1000 %
#95
0$
#100
b1100 w
b1100 4"
b1100 @"
b1100 C"
b1100 Q"
b1100 U"
b1100 $"
b1100 1"
b1100 2"
b1100 7"
b1000 v
b1000 /"
b1000 \"
b1100 ,"
b100 u
b100 ."
b100 a"
1/
0,
1>
0;
12
b10 +
b10 :
b10 ^
b10 h
b10 s
b10 3"
b1 6
b1 C
b1 b
b1 j
b1 o
b1 ["
b10 5
b10 B
b10 a
b10 i
b10 p
b10 `"
b1000101001100 k
b1 l
b0 m
1$
b1001 %
#105
0$
#110
b10000 w
b10000 4"
b10000 @"
b10000 C"
b10000 Q"
b10000 U"
b10000 $"
b10000 1"
b10000 2"
b10000 7"
0/
b1100 !"
b1100 ="
b1100 ^"
b1100 {
b1100 L"
b1100 S"
b11 ]
b10000 ,"
b1100 v
b1100 /"
b1100 \"
b11100010010000110111000000001001 (
b11100010010000110111000000001001 .
b11100010010000110111000000001001 x
b11100010010000110111000000001001 9"
b11100010010000110111000000001001 >"
b11100010010000110111000000001001 c"
0>
02
b100000000011000000001100 <"
b11 T"
b11 J"
b1100 I"
b11100010100000000011 9
b1100 #
b1100 )
b1100 4
b1100 #"
b1100 A"
b1100 b"
b1001100 k
b111 l
b1100 %"
b1100 6"
b1100 8"
b1100 Z"
b11100010100000000011000000001100 0
b11100010100000000011000000001100 ~
b11100010100000000011000000001100 ?"
b1100 }
b1100 B"
b1100 D"
b1100 Y"
b1 m
1$
b1010 %
#115
0$
#120
b1100 w
b1100 4"
b1100 @"
b1100 C"
b1100 Q"
b1100 U"
b1100 $"
b1100 1"
b1100 2"
b1100 7"
b0 v
b0 /"
b0 \"
b1100 ,"
b1100 u
b1100 ."
b1100 a"
b0 6
b0 C
b0 b
b0 j
b0 o
b0 ["
b1 5
b1 B
b1 a
b1 i
b1 p
b1 `"
1c
b1000011 k
b1000 l
b111 m
b11100010010000110111000000001001 ""
b11100010010000110111000000001001 5"
b11100010010000110111000000001001 :"
b10000 %"
b10000 6"
b10000 8"
b10000 Z"
1$
b1011 %
#125
0$
#130
1,
1;
b0 +
b0 :
b0 ^
b0 h
b0 s
b0 3"
0c
b1000000010 k
b0 l
b1100 %"
b1100 6"
b1100 8"
b1100 Z"
b1000 m
1$
b1100 %
#135
0$
#140
b10000 w
b10000 4"
b10000 @"
b10000 C"
b10000 Q"
b10000 U"
b10000 $"
b10000 1"
b10000 2"
b10000 7"
b1100 v
b1100 /"
b1100 \"
b10000 ,"
b100 u
b100 ."
b100 a"
1/
0,
1>
0;
12
b10 +
b10 :
b10 ^
b10 h
b10 s
b10 3"
b1 6
b1 C
b1 b
b1 j
b1 o
b1 ["
b10 5
b10 B
b10 a
b10 i
b10 p
b10 `"
b1000101001100 k
b1 l
b0 m
1$
b1101 %
#145
0$
#150
b10100 w
b10100 4"
b10100 @"
b10100 C"
b10100 Q"
b10100 U"
b1100 z
b1100 M"
b1100 W"
b10100 $"
b10100 1"
b10100 2"
b10100 7"
0/
b1001 !"
b1001 ="
b1001 ^"
b1001 {
b1001 L"
b1001 S"
b11 |
b11 H"
b11 R"
b100100 Z
b100100 f
b111 ]
b10100 ,"
b10000 v
b10000 /"
b10000 \"
b11100001100001110100000000000010 (
b11100001100001110100000000000010 .
b11100001100001110100000000000010 x
b11100001100001110100000000000010 9"
b11100001100001110100000000000010 >"
b11100001100001110100000000000010 c"
0>
02
b10000110111000000001001 <"
b111 T"
b111 J"
b1001 I"
b11 E"
b11100010010000110111 9
b10000 #
b10000 )
b10000 4
b10000 #"
b10000 A"
b10000 b"
b1001100 k
b111 l
b10000 %"
b10000 6"
b10000 8"
b10000 Z"
b11100010010000110111000000001001 0
b11100010010000110111000000001001 ~
b11100010010000110111000000001001 ?"
b10000 }
b10000 B"
b10000 D"
b10000 Y"
b1 m
1$
b1110 %
#155
0$
#160
b1100 v
b1100 /"
b1100 \"
b11 w
b11 4"
b11 @"
b11 C"
b11 Q"
b11 U"
b1001 u
b1001 ."
b1001 a"
b11 $"
b11 1"
b11 2"
b11 7"
b11 ,"
b1 8
b1 E
b1 d
b1 n
b1 ("
b0 6
b0 C
b0 b
b0 j
b0 o
b0 ["
b1 5
b1 B
b1 a
b1 i
b1 p
b1 `"
1c
b1000011 k
b1000 l
b111 m
b11100001100001110100000000000010 ""
b11100001100001110100000000000010 5"
b11100001100001110100000000000010 :"
b1100 '"
b1100 N"
b1100 X"
b10100 %"
b10100 6"
b10100 8"
b10100 Z"
1$
b1111 %
#165
0$
#170
b10101 $"
b10101 1"
b10101 2"
b10101 7"
b10101 ,"
1,
b0 8
b0 E
b0 d
b0 n
b0 ("
1;
b0 +
b0 :
b0 ^
b0 h
b0 s
b0 3"
0c
b1000000010 k
b0 l
b11 %"
b11 6"
b11 8"
b11 Z"
b1000 m
1$
b10000 %
#175
0$
#180
b10100 $"
b10100 1"
b10100 2"
b10100 7"
b10000 v
b10000 /"
b10000 \"
b10100 ,"
b100 u
b100 ."
b100 a"
1/
0,
1>
0;
12
b10 +
b10 :
b10 ^
b10 h
b10 s
b10 3"
b1 6
b1 C
b1 b
b1 j
b1 o
b1 ["
b10 5
b10 B
b10 a
b10 i
b10 p
b10 `"
b10100 w
b10100 4"
b10100 @"
b10100 C"
b10100 Q"
b10100 U"
b1000101001100 k
b1 l
b0 m
b10101 %"
b10101 6"
b10101 8"
b10101 Z"
1$
b10001 %
#185
0$
#190
b11000 w
b11000 4"
b11000 @"
b11000 C"
b11000 Q"
b11000 U"
b101 y
b101 O"
b101 V"
b11 z
b11 M"
b11 W"
b11000 $"
b11000 1"
b11000 2"
b11000 7"
0/
b10 !"
b10 ="
b10 ^"
b10 {
b10 L"
b10 S"
b111 |
b111 H"
b111 R"
b11000 Z
b11000 f
b100 ]
b11000 ,"
b10100 v
b10100 /"
b10100 \"
b11100000000000110101000000000100 (
b11100000000000110101000000000100 .
b11100000000000110101000000000100 x
b11100000000000110101000000000100 9"
b11100000000000110101000000000100 >"
b11100000000000110101000000000100 c"
0>
02
b100001110100000000000010 <"
b100 T"
b100 J"
b10 I"
b111 E"
b11100001100001110100 9
b10100 #
b10100 )
b10100 4
b10100 #"
b10100 A"
b10100 b"
b1001100 k
b110 l
b10100 %"
b10100 6"
b10100 8"
b10100 Z"
b11100001100001110100000000000010 0
b11100001100001110100000000000010 ~
b11100001100001110100000000000010 ?"
b10100 }
b10100 B"
b10100 D"
b10100 Y"
b1 m
1$
b10010 %
#195
0$
#200
b11 v
b11 /"
b11 \"
b111 w
b111 4"
b111 @"
b111 C"
b111 Q"
b111 U"
b101 u
b101 ."
b101 a"
b111 $"
b111 1"
b111 2"
b111 7"
b111111111111111111111111111111110 ,"
b11 8
b11 E
b11 d
b11 n
b11 ("
b0 6
b0 C
b0 b
b0 j
b0 o
b0 ["
b0 5
b0 B
b0 a
b0 i
b0 p
b0 `"
1c
b1000001 k
b1000 l
b110 m
b11100000000000110101000000000100 ""
b11100000000000110101000000000100 5"
b11100000000000110101000000000100 :"
b11 '"
b11 N"
b11 X"
b101 !
b101 '
b101 *
b101 t
b101 P"
b101 ]"
b101 d"
b11000 %"
b11000 6"
b11000 8"
b11000 Z"
1$
b10011 %
#205
0$
#210
b0 T
0*"
b0 W
0)"
b10 u
b10 ."
b10 a"
b0 7
b0 D
b0 L
b0 &"
b0 0"
0-"
b101 $"
b101 1"
b101 2"
b101 7"
b101 ,"
1,
b0 8
b0 E
b0 d
b0 n
b0 ("
1;
b0 +
b0 :
b0 ^
b0 h
b0 s
b0 3"
b1 5
b1 B
b1 a
b1 i
b1 p
b1 `"
0c
b1000000010 k
b0 l
b111 %"
b111 6"
b111 8"
b111 Z"
b1000 m
1$
b10100 %
#215
0$
#220
b11000 $"
b11000 1"
b11000 2"
b11000 7"
b10100 v
b10100 /"
b10100 \"
b11000 ,"
b100 u
b100 ."
b100 a"
1/
0,
1>
0;
12
b10 +
b10 :
b10 ^
b10 h
b10 s
b10 3"
b1 6
b1 C
b1 b
b1 j
b1 o
b1 ["
b10 5
b10 B
b10 a
b10 i
b10 p
b10 `"
b11000 w
b11000 4"
b11000 @"
b11000 C"
b11000 Q"
b11000 U"
b1000101001100 k
b1 l
b0 m
b101 %"
b101 6"
b101 8"
b101 Z"
1$
b10101 %
#225
0$
#230
b11100 w
b11100 4"
b11100 @"
b11100 C"
b11100 Q"
b11100 U"
b111 y
b111 O"
b111 V"
b1100 z
b1100 M"
b1100 W"
b11100 $"
b11100 1"
b11100 2"
b11100 7"
0/
b100 !"
b100 ="
b100 ^"
b100 {
b100 L"
b100 S"
b11 |
b11 H"
b11 R"
b0 Z
b0 f
b101 ]
b11100 ,"
b11000 v
b11000 /"
b11000 \"
b11100000100001010101000000000100 (
b11100000100001010101000000000100 .
b11100000100001010101000000000100 x
b11100000100001010101000000000100 9"
b11100000100001010101000000000100 >"
b11100000100001010101000000000100 c"
0>
02
b110101000000000100 <"
b101 T"
b101 J"
b100 I"
b11 E"
b11100000000000110101 9
b11000 #
b11000 )
b11000 4
b11000 #"
b11000 A"
b11000 b"
b1001100 k
b110 l
b11000 %"
b11000 6"
b11000 8"
b11000 Z"
b11100000000000110101000000000100 0
b11100000000000110101000000000100 ~
b11100000000000110101000000000100 ?"
b11000 }
b11000 B"
b11000 D"
b11000 Y"
b1 m
1$
b10110 %
#235
0$
#240
b1100 v
b1100 /"
b1100 \"
b10011 ,"
b0 W
b100 w
b100 4"
b100 @"
b100 C"
b100 Q"
b100 U"
b111 u
b111 ."
b111 a"
b0 7
b0 D
b0 L
b0 &"
b0 0"
0+"
b100 $"
b100 1"
b100 2"
b100 7"
b10 8
b10 E
b10 d
b10 n
b10 ("
b0 6
b0 C
b0 b
b0 j
b0 o
b0 ["
b0 5
b0 B
b0 a
b0 i
b0 p
b0 `"
1c
b1000001 k
b1000 l
b110 m
b11100000100001010101000000000100 ""
b11100000100001010101000000000100 5"
b11100000100001010101000000000100 :"
b1100 '"
b1100 N"
b1100 X"
b111 !
b111 '
b111 *
b111 t
b111 P"
b111 ]"
b111 d"
b11100 %"
b11100 6"
b11100 8"
b11100 Z"
1$
b10111 %
#245
0$
#250
b10000 ,"
b100 u
b100 ."
b100 a"
b10000 $"
b10000 1"
b10000 2"
b10000 7"
1,
b0 8
b0 E
b0 d
b0 n
b0 ("
1;
b0 +
b0 :
b0 ^
b0 h
b0 s
b0 3"
b1 5
b1 B
b1 a
b1 i
b1 p
b1 `"
0c
b1000000010 k
b0 l
b100 %"
b100 6"
b100 8"
b100 Z"
b1000 m
1$
b11000 %
#255
0$
#260
b11100 $"
b11100 1"
b11100 2"
b11100 7"
b11100 ,"
b11000 v
b11000 /"
b11000 \"
1/
0,
1>
0;
12
b10 +
b10 :
b10 ^
b10 h
b10 s
b10 3"
b1 6
b1 C
b1 b
b1 j
b1 o
b1 ["
b10 5
b10 B
b10 a
b10 i
b10 p
b10 `"
b11100 w
b11100 4"
b11100 @"
b11100 C"
b11100 Q"
b11100 U"
b1000101001100 k
b1 l
b0 m
b10000 %"
b10000 6"
b10000 8"
b10000 Z"
1$
b11001 %
#265
0$
#270
b100000 w
b100000 4"
b100000 @"
b100000 C"
b100000 Q"
b100000 U"
b100 z
b100 M"
b100 W"
b100000 $"
b100000 1"
b100000 2"
b100000 7"
0/
b101 |
b101 H"
b101 R"
b1000 Z
b1000 f
b100000 ,"
b11100 v
b11100 /"
b11100 \"
b11100000010101011000000000000111 (
b11100000010101011000000000000111 .
b11100000010101011000000000000111 x
b11100000010101011000000000000111 9"
b11100000010101011000000000000111 >"
b11100000010101011000000000000111 c"
0>
02
b100001010101000000000100 <"
b101 E"
b11100000100001010101 9
b11100 #
b11100 )
b11100 4
b11100 #"
b11100 A"
b11100 b"
b1001100 k
b110 l
b11100 %"
b11100 6"
b11100 8"
b11100 Z"
b11100000100001010101000000000100 0
b11100000100001010101000000000100 ~
b11100000100001010101000000000100 ?"
b11100 }
b11100 B"
b11100 D"
b11100 Y"
b1 m
1$
b11010 %
#275
0$
#280
b1011 w
b1011 4"
b1011 @"
b1011 C"
b1011 Q"
b1011 U"
b1011 $"
b1011 1"
b1011 2"
b1011 7"
b100 v
b100 /"
b100 \"
b1011 ,"
b111 u
b111 ."
b111 a"
b0 6
b0 C
b0 b
b0 j
b0 o
b0 ["
b0 5
b0 B
b0 a
b0 i
b0 p
b0 `"
1c
b1000001 k
b1000 l
b110 m
b11100000010101011000000000000111 ""
b11100000010101011000000000000111 5"
b11100000010101011000000000000111 :"
b100 '"
b100 N"
b100 X"
b100000 %"
b100000 6"
b100000 8"
b100000 Z"
1$
b11011 %
#285
0$
#290
b1000 $"
b1000 1"
b1000 2"
b1000 7"
b1000 ,"
b100 u
b100 ."
b100 a"
1,
1;
b0 +
b0 :
b0 ^
b0 h
b0 s
b0 3"
b1 5
b1 B
b1 a
b1 i
b1 p
b1 `"
0c
b1000000010 k
b0 l
b1011 %"
b1011 6"
b1011 8"
b1011 Z"
b1000 m
1$
b11100 %
#295
0$
