Multi cycle processor/src/arm_multi.vcd
$date
	Wed Jul 28 14:52:23 2021
$end
$version
	Icarus Verilog
$end
$timescale
	1s
$end
$scope module testbench $end
$var wire 32 ! WriteData [31:0] $end
$var wire 1 " MemWrite $end
$var wire 32 # Adr [31:0] $end
$var reg 1 $ clk $end
$var reg 32 % cycle [31:0] $end
$var reg 1 & reset $end
$scope module dut $end
$var wire 1 $ clk $end
$var wire 1 & reset $end
$var wire 32 ' WriteData [31:0] $end
$var wire 32 ( ReadData [31:0] $end
$var wire 1 " MemWrite $end
$var wire 32 ) Adr [31:0] $end
$scope module arm $end
$var wire 1 $ clk $end
$var wire 1 & reset $end
$var wire 32 * WriteData [31:0] $end
$var wire 2 + ResultSrc [1:0] $end
$var wire 1 , ResSrc $end
$var wire 1 - RegWrite $end
$var wire 2 . RegSrc [1:0] $end
$var wire 32 / ReadData [31:0] $end
$var wire 1 0 PCWrite $end
$var wire 1 1 MulWrite $end
$var wire 1 " MemWrite $end
$var wire 32 2 Instr [31:0] $end
$var wire 2 3 ImmSrc [1:0] $end
$var wire 1 4 IRWrite $end
$var wire 4 5 FPUFlags [3:0] $end
$var wire 2 6 FPUControl [1:0] $end
$var wire 1 7 AdrSrc $end
$var wire 32 8 Adr [31:0] $end
$var wire 2 9 ALUSrcB [1:0] $end
$var wire 2 : ALUSrcA [1:0] $end
$var wire 4 ; ALUFlags [3:0] $end
$var wire 3 < ALUControl [2:0] $end
$scope module c $end
$var wire 20 = Instr [31:12] $end
$var wire 4 > MulOp [3:0] $end
$var wire 1 $ clk $end
$var wire 1 & reset $end
$var wire 2 ? ResultSrc [1:0] $end
$var wire 1 , ResSrc $end
$var wire 1 - RegWrite $end
$var wire 1 @ RegW $end
$var wire 2 A RegSrc [1:0] $end
$var wire 1 0 PCWrite $end
$var wire 1 B PCS $end
$var wire 1 C NextPC $end
$var wire 1 1 MulWrite $end
$var wire 1 " MemWrite $end
$var wire 1 D MemW $end
$var wire 2 E ImmSrc [1:0] $end
$var wire 1 4 IRWrite $end
$var wire 2 F FlagW [1:0] $end
$var wire 4 G FPUFlags [3:0] $end
$var wire 2 H FPUFlagW [1:0] $end
$var wire 2 I FPUControl [1:0] $end
$var wire 1 7 AdrSrc $end
$var wire 2 J ALUSrcB [1:0] $end
$var wire 2 K ALUSrcA [1:0] $end
$var wire 4 L ALUFlags [3:0] $end
$var wire 3 M ALUControl [2:0] $end
$scope module cl $end
$var wire 4 N Cond [3:0] $end
$var wire 1 " MemWrite $end
$var wire 1 0 PCWrite $end
$var wire 1 - RegWrite $end
$var wire 1 $ clk $end
$var wire 1 & reset $end
$var wire 1 , ResSrc $end
$var wire 1 @ RegW $end
$var wire 1 B PCS $end
$var wire 1 C NextPC $end
$var wire 1 D MemW $end
$var wire 4 O Flagsmux [3:0] $end
$var wire 4 P Flags [3:0] $end
$var wire 2 Q FlagWrite [1:0] $end
$var wire 2 R FlagWmux [1:0] $end
$var wire 2 S FlagW [1:0] $end
$var wire 4 T FPUFlags [3:0] $end
$var wire 2 U FPUFlagW [1:0] $end
$var wire 1 V CondExReg $end
$var wire 1 W CondEx $end
$var wire 4 X ALUFlags [3:0] $end
$scope module cc $end
$var wire 4 Y Cond [3:0] $end
$var wire 4 Z Flags [3:0] $end
$var wire 1 [ ge $end
$var wire 1 \ zero $end
$var wire 1 ] overflow $end
$var wire 1 ^ neg $end
$var wire 1 _ carry $end
$var reg 1 W CondEx $end
$upscope $end
$scope module condexreg $end
$var wire 1 $ clk $end
$var wire 1 W d $end
$var wire 1 & reset $end
$var reg 1 V q $end
$upscope $end
$scope module flagsreg0 $end
$var wire 1 $ clk $end
$var wire 2 ` d [1:0] $end
$var wire 1 a en $end
$var wire 1 & reset $end
$var reg 2 b q [1:0] $end
$upscope $end
$scope module flagsreg1 $end
$var wire 1 $ clk $end
$var wire 2 c d [1:0] $end
$var wire 1 d en $end
$var wire 1 & reset $end
$var reg 2 e q [1:0] $end
$upscope $end
$scope module muxFlagW $end
$var wire 2 f y [1:0] $end
$var wire 1 , s $end
$var wire 2 g d1 [1:0] $end
$var wire 2 h d0 [1:0] $end
$upscope $end
$scope module muxFlags $end
$var wire 4 i y [3:0] $end
$var wire 1 , s $end
$var wire 4 j d1 [3:0] $end
$var wire 4 k d0 [3:0] $end
$upscope $end
$upscope $end
$scope module dec $end
$var wire 6 l Funct [5:0] $end
$var wire 2 m ImmSrc [1:0] $end
$var wire 4 n MulOp [3:0] $end
$var wire 2 o Op [1:0] $end
$var wire 1 B PCS $end
$var wire 4 p Rd [3:0] $end
$var wire 1 $ clk $end
$var wire 1 & reset $end
$var wire 2 q ResultSrc [1:0] $end
$var wire 1 @ RegW $end
$var wire 2 r RegSrc [1:0] $end
$var wire 1 C NextPC $end
$var wire 1 D MemW $end
$var wire 1 4 IRWrite $end
$var wire 1 s Branch $end
$var wire 1 7 AdrSrc $end
$var wire 2 t ALUSrcB [1:0] $end
$var wire 2 u ALUSrcA [1:0] $end
$var wire 1 v ALUOp $end
$var reg 3 w ALUControl [2:0] $end
$var reg 2 x FPUControl [1:0] $end
$var reg 2 y FPUFlagW [1:0] $end
$var reg 2 z FlagW [1:0] $end
$var reg 1 1 MulWrite $end
$var reg 1 , ResSrc $end
$scope module fsm $end
$var wire 6 { Funct [5:0] $end
$var wire 2 | Op [1:0] $end
$var wire 1 $ clk $end
$var wire 1 & reset $end
$var wire 2 } ResultSrc [1:0] $end
$var wire 1 @ RegW $end
$var wire 1 C NextPC $end
$var wire 1 D MemW $end
$var wire 1 4 IRWrite $end
$var wire 1 s Branch $end
$var wire 1 7 AdrSrc $end
$var wire 2 ~ ALUSrcB [1:0] $end
$var wire 2 !" ALUSrcA [1:0] $end
$var wire 1 v ALUOp $end
$var reg 13 "" controls [12:0] $end
$var reg 4 #" nextstate [3:0] $end
$var reg 4 $" state [3:0] $end
$upscope $end
$upscope $end
$upscope $end
$scope module dp $end
$var wire 3 %" ALUControl [2:0] $end
$var wire 2 &" ALUSrcA [1:0] $end
$var wire 2 '" ALUSrcB [1:0] $end
$var wire 1 7 AdrSrc $end
$var wire 2 (" FPUControl [1:0] $end
$var wire 1 4 IRWrite $end
$var wire 2 )" ImmSrc [1:0] $end
$var wire 1 1 MulWrite $end
$var wire 1 0 PCWrite $end
$var wire 2 *" RegSrc [1:0] $end
$var wire 1 - RegWrite $end
$var wire 1 , ResSrc $end
$var wire 2 +" ResultSrc [1:0] $end
$var wire 1 $ clk $end
$var wire 1 & reset $end
$var wire 32 ," WriteData [31:0] $end
$var wire 32 -" SrcB [31:0] $end
$var wire 32 ." SrcA [31:0] $end
$var wire 32 /" Result [31:0] $end
$var wire 32 0" ReadData [31:0] $end
$var wire 32 1" RD2 [31:0] $end
$var wire 32 2" RD1 [31:0] $end
$var wire 4 3" RA2 [3:0] $end
$var wire 4 4" RA1 [3:0] $end
$var wire 32 5" PC [31:0] $end
$var wire 32 6" OpResult [31:0] $end
$var wire 32 7" Instr [31:0] $end
$var wire 32 8" FPUResult [31:0] $end
$var wire 4 9" FPUFlags [3:0] $end
$var wire 32 :" ExtImm [31:0] $end
$var wire 32 ;" Data [31:0] $end
$var wire 32 <" Adr [31:0] $end
$var wire 32 =" ALUResult2 [31:0] $end
$var wire 32 >" ALUResult1 [31:0] $end
$var wire 32 ?" ALUOut [31:0] $end
$var wire 4 @" ALUFlags [3:0] $end
$var wire 32 A" A [31:0] $end
$scope module alu $end
$var wire 3 B" ALUControl [2:0] $end
$var wire 1 C" carry $end
$var wire 1 D" overflow $end
$var wire 32 E" signed_a [31:0] $end
$var wire 32 F" signed_b [31:0] $end
$var wire 1 G" zero $end
$var wire 33 H" sum [32:0] $end
$var wire 1 I" neg $end
$var wire 32 J" b [31:0] $end
$var wire 32 K" a [31:0] $end
$var wire 4 L" ALUFlags [3:0] $end
$var reg 32 M" Result1 [31:0] $end
$var reg 32 N" Result2 [31:0] $end
$upscope $end
$scope module aluoutmux $end
$var wire 2 O" s [1:0] $end
$var wire 32 P" y [31:0] $end
$var wire 32 Q" d2 [31:0] $end
$var wire 32 R" d1 [31:0] $end
$var wire 32 S" d0 [31:0] $end
$upscope $end
$scope module aluoutreg $end
$var wire 1 $ clk $end
$var wire 1 & reset $end
$var wire 32 T" d [31:0] $end
$var reg 32 U" q [31:0] $end
$upscope $end
$scope module datareg $end
$var wire 1 $ clk $end
$var wire 1 & reset $end
$var wire 32 V" d [31:0] $end
$var reg 32 W" q [31:0] $end
$upscope $end
$scope module ext $end
$var wire 2 X" ImmSrc [1:0] $end
$var wire 24 Y" Instr [23:0] $end
$var reg 32 Z" ExtImm [31:0] $end
$upscope $end
$scope module fpu $end
$var wire 2 [" FPUControl [1:0] $end
$var wire 1 \" carry $end
$var wire 1 ]" overflow $end
$var wire 1 ^" zero $end
$var wire 1 _" neg $end
$var wire 32 `" b [31:0] $end
$var wire 32 a" a [31:0] $end
$var wire 4 b" FPUFlags [3:0] $end
$var reg 32 c" Result [31:0] $end
$var reg 32 d" aux [31:0] $end
$var reg 48 e" aux2 [47:0] $end
$var reg 2 f" control [1:0] $end
$var reg 32 g" expoA [31:0] $end
$var reg 32 h" expoB [31:0] $end
$var reg 32 i" expoR [31:0] $end
$var reg 32 j" mantA [31:0] $end
$var reg 32 k" mantAshift [31:0] $end
$var reg 32 l" mantB [31:0] $end
$var reg 32 m" mantBshift [31:0] $end
$var reg 32 n" mantR [31:0] $end
$var reg 48 o" productoPosible [47:0] $end
$var reg 1 p" signA $end
$var reg 1 q" signB $end
$var reg 1 r" signR $end
$var reg 1 s" sumaResta $end
$upscope $end
$scope module instrreg $end
$var wire 1 $ clk $end
$var wire 1 4 en $end
$var wire 1 & reset $end
$var wire 32 t" d [31:0] $end
$var reg 32 u" q [31:0] $end
$upscope $end
$scope module pcmux $end
$var wire 32 v" d1 [31:0] $end
$var wire 1 7 s $end
$var wire 32 w" y [31:0] $end
$var wire 32 x" d0 [31:0] $end
$upscope $end
$scope module pcreg $end
$var wire 1 $ clk $end
$var wire 32 y" d [31:0] $end
$var wire 1 0 en $end
$var wire 1 & reset $end
$var reg 32 z" q [31:0] $end
$upscope $end
$scope module ra1mux $end
$var wire 4 {" d0 [3:0] $end
$var wire 4 |" d1 [3:0] $end
$var wire 1 }" s $end
$var wire 4 ~" y [3:0] $end
$upscope $end
$scope module ra2mux $end
$var wire 4 !# d0 [3:0] $end
$var wire 4 "# d1 [3:0] $end
$var wire 1 ## s $end
$var wire 4 $# y [3:0] $end
$upscope $end
$scope module rd1reg $end
$var wire 1 $ clk $end
$var wire 1 & reset $end
$var wire 32 %# d [31:0] $end
$var reg 32 &# q [31:0] $end
$upscope $end
$scope module rd2reg $end
$var wire 1 $ clk $end
$var wire 1 & reset $end
$var wire 32 '# d [31:0] $end
$var reg 32 (# q [31:0] $end
$upscope $end
$scope module resSrcmux $end
$var wire 32 )# d0 [31:0] $end
$var wire 32 *# d1 [31:0] $end
$var wire 1 , s $end
$var wire 32 +# y [31:0] $end
$upscope $end
$scope module rf $end
$var wire 1 $ clk $end
$var wire 32 ,# r15 [31:0] $end
$var wire 4 -# ra1 [3:0] $end
$var wire 4 .# ra2 [3:0] $end
$var wire 4 /# wa3 [3:0] $end
$var wire 4 0# wa4 [3:0] $end
$var wire 32 1# wd3 [31:0] $end
$var wire 32 2# wd4 [31:0] $end
$var wire 1 - we3 $end
$var wire 1 1 we4 $end
$var wire 32 3# rd2 [31:0] $end
$var wire 32 4# rd1 [31:0] $end
$upscope $end
$scope module srcAmux $end
$var wire 32 5# d0 [31:0] $end
$var wire 32 6# d1 [31:0] $end
$var wire 32 7# d2 [31:0] $end
$var wire 2 8# s [1:0] $end
$var wire 32 9# y [31:0] $end
$upscope $end
$scope module srcBmux $end
$var wire 32 :# d0 [31:0] $end
$var wire 32 ;# d1 [31:0] $end
$var wire 32 <# d2 [31:0] $end
$var wire 2 =# s [1:0] $end
$var wire 32 ># y [31:0] $end
$upscope $end
$upscope $end
$upscope $end
$scope module mem $end
$var wire 32 ?# a [31:0] $end
$var wire 1 $ clk $end
$var wire 32 @# rd [31:0] $end
$var wire 32 A# wd [31:0] $end
$var wire 1 " we $end
$upscope $end
$upscope $end
$upscope $end
$enddefinitions $end
#0
$dumpvars
b0 A#
b11100000010011110000000000001111 @#
b0 ?#
b100 >#
b10 =#
b100 <#
b0 ;#
b0 :#
b0 9#
b1 8#
b0 7#
b0 6#
b0 5#
bx 4#
bx 3#
bx 2#
b100 1#
b0 0#
b0 /#
b0 .#
b0 -#
b100 ,#
b100 +#
b100 *#
b100 )#
b0 (#
bx '#
b0 &#
bx %#
b0 $#
0##
b0 "#
b0 !#
b0 ~"
0}"
b1111 |"
b0 {"
b0 z"
b100 y"
b0 x"
b0 w"
b100 v"
b0 u"
b11100000010011110000000000001111 t"
xs"
0r"
0q"
0p"
bx o"
b10000000100 n"
bx m"
b10000000100 l"
bx k"
b10000000000 j"
b0 i"
b0 h"
b0 g"
b0 f"
bx e"
bx d"
b100 c"
b0 b"
b0 a"
b100 `"
0_"
0^"
0]"
0\"
b0 ["
b0 Z"
b0 Y"
b0 X"
b0 W"
b11100000010011110000000000001111 V"
b0 U"
b100 T"
b0 S"
b0 R"
b100 Q"
b100 P"
b10 O"
bx N"
b100 M"
b0 L"
b0 K"
b100 J"
0I"
b100 H"
0G"
b100 F"
b0 E"
0D"
0C"
b0 B"
b0 A"
b0 @"
b0 ?"
b100 >"
bx ="
b0 <"
b0 ;"
b0 :"
b0 9"
b100 8"
b0 7"
b100 6"
b0 5"
b0 4"
b0 3"
bx 2"
bx 1"
b11100000010011110000000000001111 0"
b100 /"
b0 ."
b100 -"
b0 ,"
b10 +"
b0 *"
b0 )"
b0 ("
b10 '"
b1 &"
b0 %"
b0 $"
b1 #"
b1000101001100 ""
b1 !"
b10 ~
b10 }
b0 |
b0 {
b0 z
b0 y
b0 x
b0 w
0v
b1 u
b10 t
0s
b0 r
b10 q
b0 p
b0 o
b0 n
b0 m
b0 l
b0 k
b0 j
b0 i
b0 h
b0 g
b0 f
b0 e
0d
b0 c
b0 b
0a
b0 `
0_
0^
0]
0\
1[
b0 Z
b0 Y
b0 X
0W
0V
b0 U
b0 T
b0 S
b0 R
b0 Q
b0 P
b0 O
b0 N
b0 M
b0 L
b1 K
b10 J
b0 I
b0 H
b0 G
b0 F
b0 E
0D
1C
0B
b0 A
0@
b10 ?
b0 >
b0 =
b0 <
b0 ;
b1 :
b10 9
b0 8
07
b0 6
b0 5
14
b0 3
b0 2
01
10
b11100000010011110000000000001111 /
b0 .
0-
0,
b10 +
b0 *
b0 )
b11100000010011110000000000001111 (
b0 '
1&
b1 %
1$
b0 #
0"
b0 !
$end
#5
0$
#10
1$
#15
0$
#20
1$
#22
0&
#25
0$
#30
b1000 /"
b1000 P"
b1000 v"
b1000 y"
b1000 ,#
b1000 1#
b1000 6"
b1000 Q"
b1000 T"
b1000 +#
b1000 1"
b1000 '#
b1000 3#
b1000 2"
b1000 %#
b1000 4#
1W
b1000 >"
b1000 M"
b1000 )#
b10000000100 8"
b10000000100 c"
b10000000100 *#
b1 i"
b100 n"
0s"
b10000000100 j"
00
b1111 :"
b1111 Z"
b1111 ;#
b1111 3"
b1111 $#
b1111 .#
b1111 4"
b1111 ~"
b1111 -#
b100 l
b100 {
b1110 N
b1110 Y
b1000 H"
b100 E"
b100 ."
b100 K"
b100 a"
b100 9#
b11100010100000000001000010110100 (
b11100010100000000001000010110100 /
b11100010100000000001000010110100 0"
b11100010100000000001000010110100 V"
b11100010100000000001000010110100 t"
b11100010100000000001000010110100 @#
0C
04
b10011110000000000001111 Y"
b1111 !#
b1111 {"
b11100000010011110000 =
b100 #
b100 )
b100 8
b100 <"
b100 w"
b100 ?#
b1001100 ""
b110 #"
b100 ?"
b100 S"
b100 U"
b100 7#
bx !
bx '
bx *
bx ,"
bx (#
bx :#
bx A#
bx A"
bx &#
bx 5#
b11100000010011110000000000001111 ;"
b11100000010011110000000000001111 R"
b11100000010011110000000000001111 W"
b11100000010011110000000000001111 2
b11100000010011110000000000001111 7"
b11100000010011110000000000001111 u"
b100 5"
b100 x"
b100 z"
b100 6#
b1 $"
1$
b10 %
#35
0$
#40
b1 c
b0 2"
b0 %#
b0 4#
b0 1"
b0 '#
b0 3#
b10000001000 j"
b100 O
b100 i
b0 /"
b0 P"
b0 v"
b0 y"
b0 ,#
b0 1#
b1000 E"
b1000 ."
b1000 K"
b1000 a"
b1000 9#
b100 ;
b100 L
b100 X
b100 k
b100 @"
b100 L"
1G"
b10000001000 8"
b10000001000 c"
b10000001000 *#
b1000 n"
b1 i"
b10000001000 l"
b0 6"
b0 Q"
b0 T"
b0 +#
b1000 F"
b1000 -"
b1000 J"
b1000 `"
b1000 >#
b0 >"
b0 M"
b0 )#
b0 H"
b1 <
b1 M
b1 w
b1 %"
b1 B"
b0 :
b0 K
b0 u
b0 !"
b0 &"
b0 8#
b0 9
b0 J
b0 t
b0 ~
b0 '"
b0 =#
1v
b1000001 ""
b1000 #"
b110 $"
1V
b11100010100000000001000010110100 ;"
b11100010100000000001000010110100 R"
b11100010100000000001000010110100 W"
b1000 A"
b1000 &#
b1000 5#
b1000 !
b1000 '
b1000 *
b1000 ,"
b1000 (#
b1000 :#
b1000 A#
b1000 ?"
b1000 S"
b1000 U"
b1000 7#
1$
b11 %
#45
0$
#50
b0 `
b0 c
0C"
0I"
b0 O
b0 i
b1111 6"
b1111 Q"
b1111 T"
b1111 +#
b0 ;
b0 L
b0 X
b0 k
b0 @"
b0 L"
0G"
b1111 >"
b1111 M"
b1111 )#
b0 5
b0 G
b0 T
b0 j
b0 9"
b0 b"
0^"
b1111 8"
b1111 c"
b1111 *#
b10000001111 n"
b0 i"
b10000001111 l"
b10000000000 j"
1-
b0 <
b0 M
b0 w
b0 %"
b0 B"
b1111 F"
b1111 -"
b1111 J"
b1111 `"
b1111 >#
b1111 H"
b0 E"
b0 ."
b0 K"
b0 a"
b0 9#
1@
b0 +
b0 ?
b0 q
b0 }
b0 +"
b0 O"
b1 9
b1 J
b1 t
b1 ~
b1 '"
b1 =#
0v
b1000000010 ""
b0 #"
b0 ?"
b0 S"
b0 U"
b0 7#
b0 !
b0 '
b0 *
b0 ,"
b0 (#
b0 :#
b0 A#
b0 A"
b0 &#
b0 5#
b1000 $"
1$
b100 %
#55
0$
#60
b1000 6"
b1000 Q"
b1000 T"
b1000 +#
b1 i"
b10000000100 j"
b1000 >"
b1000 M"
b1000 )#
b100 E"
b100 ."
b100 K"
b100 a"
b100 9#
b1000 H"
b10000000100 8"
b10000000100 c"
b10000000100 *#
b100 n"
b10000000100 l"
b100 F"
b100 -"
b100 J"
b100 `"
b100 >#
10
0-
b1000 2"
b1000 %#
b1000 4#
b1000 1"
b1000 '#
b1000 3#
1C
0@
14
b10 +
b10 ?
b10 q
b10 }
b10 +"
b10 O"
b1 :
b1 K
b1 u
b1 !"
b1 &"
b1 8#
b10 9
b10 J
b10 t
b10 ~
b10 '"
b10 =#
b1000 /"
b1000 P"
b1000 v"
b1000 y"
b1000 ,#
b1000 1#
b1000101001100 ""
b1 #"
b0 $"
b1111 ?"
b1111 S"
b1111 U"
b1111 7#
1$
b101 %
#65
0$
#70
b1100 /"
b1100 P"
b1100 v"
b1100 y"
b1100 ,#
b1100 1#
b1100 6"
b1100 Q"
b1100 T"
b1100 +#
bx 1"
bx '#
bx 3#
b0 2"
b0 %#
b0 4#
b1100 >"
b1100 M"
b1100 )#
b10000000110 8"
b10000000110 c"
b10000000110 *#
b110 n"
b1 i"
b10000001000 j"
00
b10110100 :"
b10110100 Z"
b10110100 ;#
b100 3"
b100 $#
b100 .#
b0 4"
b0 ~"
b0 -#
b101000 l
b101000 {
b1 p
b1100 H"
b1000 E"
b1000 ."
b1000 K"
b1000 a"
b1000 9#
b11100010100000000010000011001000 (
b11100010100000000010000011001000 /
b11100010100000000010000011001000 0"
b11100010100000000010000011001000 V"
b11100010100000000010000011001000 t"
b11100010100000000010000011001000 @#
0C
04
b100000000001000010110100 Y"
b1 /#
b1 "#
b100 !#
b0 {"
b1011 >
b1011 n
b11100010100000000001 =
b1000 #
b1000 )
b1000 8
b1000 <"
b1000 w"
b1000 ?#
b1001100 ""
b111 #"
b1000 ?"
b1000 S"
b1000 U"
b1000 7#
b1000 !
b1000 '
b1000 *
b1000 ,"
b1000 (#
b1000 :#
b1000 A#
b1000 A"
b1000 &#
b1000 5#
b11100010100000000001000010110100 2
b11100010100000000001000010110100 7"
b11100010100000000001000010110100 u"
b1000 5"
b1000 x"
b1000 z"
b1000 6#
b1 $"
1$
b110 %
#75
0$
#80
b10110100 /"
b10110100 P"
b10110100 v"
b10110100 y"
b10110100 ,#
b10110100 1#
b10110100 6"
b10110100 Q"
b10110100 T"
b10110100 +#
b10000000000 j"
b10110100 >"
b10110100 M"
b10110100 )#
b0 E"
b0 ."
b0 K"
b0 a"
b0 9#
b10110100 H"
b10110100 8"
b10110100 c"
b10110100 *#
b10010110100 n"
b0 i"
b10010110100 l"
b10110100 F"
b10110100 -"
b10110100 J"
b10110100 `"
b10110100 >#
b0 :
b0 K
b0 u
b0 !"
b0 &"
b0 8#
b1 9
b1 J
b1 t
b1 ~
b1 '"
b1 =#
1v
b1000011 ""
b1000 #"
b111 $"
b11100010100000000010000011001000 ;"
b11100010100000000010000011001000 R"
b11100010100000000010000011001000 W"
b0 A"
b0 &#
b0 5#
bx !
bx '
bx *
bx ,"
bx (#
bx :#
bx A#
b1100 ?"
b1100 S"
b1100 U"
b1100 7#
1$
b111 %
#85
0$
#90
1-
1@
b0 +
b0 ?
b0 q
b0 }
b0 +"
b0 O"
0v
b1000000010 ""
b0 #"
b10110100 ?"
b10110100 S"
b10110100 U"
b10110100 7#
b1000 $"
1$
b1000 %
#95
0$
#100
b1100 /"
b1100 P"
b1100 v"
b1100 y"
b1100 ,#
b1100 1#
b1100 6"
b1100 Q"
b1100 T"
b1100 +#
b1 i"
b10000001000 j"
b1100 >"
b1100 M"
b1100 )#
b1000 E"
b1000 ."
b1000 K"
b1000 a"
b1000 9#
b1100 H"
b10000000110 8"
b10000000110 c"
b10000000110 *#
b110 n"
b10000000100 l"
b100 F"
b100 -"
b100 J"
b100 `"
b100 >#
10
0-
1C
0@
14
b10 +
b10 ?
b10 q
b10 }
b10 +"
b10 O"
b1 :
b1 K
b1 u
b1 !"
b1 &"
b1 8#
b10 9
b10 J
b10 t
b10 ~
b10 '"
b10 =#
b1000101001100 ""
b1 #"
b0 $"
1$
b1001 %
#105
0$
#110
b10000 /"
b10000 P"
b10000 v"
b10000 y"
b10000 ,#
b10000 1#
b10000 6"
b10000 Q"
b10000 T"
b10000 +#
b10000 >"
b10000 M"
b10000 )#
b10000001000 8"
b10000001000 c"
b10000001000 *#
b1000 n"
b1 i"
b10000001100 j"
00
b11001000 :"
b11001000 Z"
b11001000 ;#
b1000 3"
b1000 $#
b1000 .#
b10 p
b10000 H"
b1100 E"
b1100 ."
b1100 K"
b1100 a"
b1100 9#
b11100000000000010011000010010001 (
b11100000000000010011000010010001 /
b11100000000000010011000010010001 0"
b11100000000000010011000010010001 V"
b11100000000000010011000010010001 t"
b11100000000000010011000010010001 @#
0C
04
b100000000010000011001000 Y"
b10 /#
b10 "#
b1000 !#
b1100 >
b1100 n
b11100010100000000010 =
b1100 #
b1100 )
b1100 8
b1100 <"
b1100 w"
b1100 ?#
b1001100 ""
b111 #"
b1100 ?"
b1100 S"
b1100 U"
b1100 7#
b11100010100000000010000011001000 2
b11100010100000000010000011001000 7"
b11100010100000000010000011001000 u"
b1100 5"
b1100 x"
b1100 z"
b1100 6#
b1 $"
1$
b1010 %
#115
0$
#120
b11001000 /"
b11001000 P"
b11001000 v"
b11001000 y"
b11001000 ,#
b11001000 1#
b11001000 6"
b11001000 Q"
b11001000 T"
b11001000 +#
b10000000000 j"
b11001000 >"
b11001000 M"
b11001000 )#
b0 E"
b0 ."
b0 K"
b0 a"
b0 9#
b11001000 H"
b11001000 8"
b11001000 c"
b11001000 *#
b10011001000 n"
b0 i"
b10011001000 l"
b11001000 F"
b11001000 -"
b11001000 J"
b11001000 `"
b11001000 >#
b0 :
b0 K
b0 u
b0 !"
b0 &"
b0 8#
b1 9
b1 J
b1 t
b1 ~
b1 '"
b1 =#
1v
b1000011 ""
b1000 #"
b111 $"
b11100000000000010011000010010001 ;"
b11100000000000010011000010010001 R"
b11100000000000010011000010010001 W"
b10000 ?"
b10000 S"
b10000 U"
b10000 7#
1$
b1011 %
#125
0$
#130
1-
1@
b0 +
b0 ?
b0 q
b0 }
b0 +"
b0 O"
0v
b1000000010 ""
b0 #"
b11001000 ?"
b11001000 S"
b11001000 U"
b11001000 7#
b1000 $"
1$
b1100 %
#135
0$
#140
b10000 /"
b10000 P"
b10000 v"
b10000 y"
b10000 ,#
b10000 1#
b10000 6"
b10000 Q"
b10000 T"
b10000 +#
b1 i"
b10000001100 j"
b10000 >"
b10000 M"
b10000 )#
b1100 E"
b1100 ."
b1100 K"
b1100 a"
b1100 9#
b10000 H"
b10000001000 8"
b10000001000 c"
b10000001000 *#
b1000 n"
b10000000100 l"
b100 F"
b100 -"
b100 J"
b100 `"
b100 >#
10
0-
1C
0@
14
b10 +
b10 ?
b10 q
b10 }
b10 +"
b10 O"
b1 :
b1 K
b1 u
b1 !"
b1 &"
b1 8#
b10 9
b10 J
b10 t
b10 ~
b10 '"
b10 =#
b1000101001100 ""
b1 #"
b0 $"
1$
b1101 %
#145
0$
#150
b10100 /"
b10100 P"
b10100 v"
b10100 y"
b10100 ,#
b10100 1#
b10100 6"
b10100 Q"
b10100 T"
b10100 +#
b10110100 1"
b10110100 '#
b10110100 3#
b10110100 2"
b10110100 %#
b10110100 4#
b10100 >"
b10100 M"
b10100 )#
b10000001010 8"
b10000001010 c"
b10000001010 *#
b1010 n"
b1 i"
b10000010000 j"
00
b10010001 :"
b10010001 Z"
b10010001 ;#
b1 3"
b1 $#
b1 .#
b1 4"
b1 ~"
b1 -#
b0 l
b0 {
b11 p
b10100 H"
b10000 E"
b10000 ."
b10000 K"
b10000 a"
b10000 9#
b11100000000000110011000010010001 (
b11100000000000110011000010010001 /
b11100000000000110011000010010001 0"
b11100000000000110011000010010001 V"
b11100000000000110011000010010001 t"
b11100000000000110011000010010001 @#
0C
04
b10011000010010001 Y"
b11 /#
b11 "#
b1 !#
b1 {"
b1001 >
b1001 n
b11100000000000010011 =
b10000 #
b10000 )
b10000 8
b10000 <"
b10000 w"
b10000 ?#
b1001100 ""
b110 #"
b10000 ?"
b10000 S"
b10000 U"
b10000 7#
b11100000000000010011000010010001 2
b11100000000000010011000010010001 7"
b11100000000000010011000010010001 u"
b10000 5"
b10000 x"
b10000 z"
b10000 6#
b1 $"
1$
b1110 %
#155
0$
#160
b10010110100 j"
b111111010010000 /"
b111111010010000 P"
b111111010010000 v"
b111111010010000 y"
b111111010010000 ,#
b111111010010000 1#
b10110100 E"
b10110100 ."
b10110100 K"
b10110100 a"
b10110100 9#
b101101000 H"
b10010110100 8"
b10010110100 c"
b10010110100 *#
b10110100 n"
b1 i"
b10010110100 l"
b111111010010000 6"
b111111010010000 Q"
b111111010010000 T"
b111111010010000 +#
b10110100 F"
b10110100 -"
b10110100 J"
b10110100 `"
b10110100 >#
b111111010010000 >"
b111111010010000 M"
b111111010010000 )#
b100 <
b100 M
b100 w
b100 %"
b100 B"
b0 :
b0 K
b0 u
b0 !"
b0 &"
b0 8#
b0 9
b0 J
b0 t
b0 ~
b0 '"
b0 =#
1v
b1000001 ""
b1000 #"
b110 $"
b11100000000000110011000010010001 ;"
b11100000000000110011000010010001 R"
b11100000000000110011000010010001 W"
b10110100 A"
b10110100 &#
b10110100 5#
b10110100 !
b10110100 '
b10110100 *
b10110100 ,"
b10110100 (#
b10110100 :#
b10110100 A#
b10100 ?"
b10100 S"
b10100 U"
b10100 7#
1$
b1111 %
#165
0$
#170
b101000101 H"
b10010100010 8"
b10010100010 c"
b10010100010 *#
b10100010 n"
b1 i"
b10010010001 l"
b10010001 F"
b10010001 -"
b10010001 J"
b10010001 `"
b10010001 >#
b101000101 6"
b101000101 Q"
b101000101 T"
b101000101 +#
b101000101 >"
b101000101 M"
b101000101 )#
1-
b0 <
b0 M
b0 w
b0 %"
b0 B"
1@
b0 +
b0 ?
b0 q
b0 }
b0 +"
b0 O"
b1 9
b1 J
b1 t
b1 ~
b1 '"
b1 =#
0v
b1000000010 ""
b0 #"
b111111010010000 ?"
b111111010010000 S"
b111111010010000 U"
b111111010010000 7#
b1000 $"
1$
b10000 %
#175
0$
#180
b10100 6"
b10100 Q"
b10100 T"
b10100 +#
b10000010000 j"
b10100 >"
b10100 M"
b10100 )#
b10000 E"
b10000 ."
b10000 K"
b10000 a"
b10000 9#
b10100 H"
b10000001010 8"
b10000001010 c"
b10000001010 *#
b1010 n"
b1 i"
b10000000100 l"
b100 F"
b100 -"
b100 J"
b100 `"
b100 >#
10
0-
1C
0@
14
b10 +
b10 ?
b10 q
b10 }
b10 +"
b10 O"
b1 :
b1 K
b1 u
b1 !"
b1 &"
b1 8#
b10 9
b10 J
b10 t
b10 ~
b10 '"
b10 =#
b10100 /"
b10100 P"
b10100 v"
b10100 y"
b10100 ,#
b10100 1#
b1000101001100 ""
b1 #"
b0 $"
b101000101 ?"
b101000101 S"
b101000101 U"
b101000101 7#
1$
b10001 %
#185
0$
